Place,Name,Sex,BirthDate,Country,State,Equipment,Division,BodyweightKg,WeightClassKg,Squat1Kg,Squat2Kg,Squat3Kg,Best3SquatKg,Bench1Kg,Bench2Kg,Bench3Kg,Best3BenchKg,Deadlift1Kg,Deadlift2Kg,Deadlift3Kg,Best3DeadliftKg,TotalKg,Event
1,Marina Cornwall,F,,England,,Raw,FR-O,42.3,47,,,,52.5,,,,35,,,,87.5,175,SBD
1,Shauna Kelly,F,,England,,Raw,FR-O,69.3,76,,,,72.5,,,,42.5,,,,100,215,SBD
3,Victoria Anderson,F,,England,,Raw,FR-O,55.1,57,,,,97.5,,,,47.5,,,,130,275,SBD
2,Ying Duan,F,,England,,Raw,FR-O,56.8,57,,,,92.5,,,,55,,,,130,277.5,SBD
2,Rita Shergold,F,,England,,Raw,FR-O,58.6,63,,,,95,,,,65,,,,115,275,SBD
1,Ellen Birnie,F,,England,,Raw,FR-O,62.5,63,,,,120,,,,62.5,,,,130,312.5,SBD
1,Ella Noble,F,,England,,Raw,FR-O,67.5,69,,,,127.5,,,,65,,,,160,352.5,SBD
1,Hannah Clayton,F,,England,,Raw,FR-O,55.6,57,,,,122.5,,,,70,,,,142.5,335,SBD
2,Eleanor Hull,F,,England,,Raw,FR-O,68.8,69,,,,105,,,,70,,,,130,305,SBD
DQ,Catherine Phipps,F,,England,,Raw,FR-O,62.3,63,,,,80,,,,70,,,,,,SBD
1,Katie Higgins,F,,England,,Raw,FR-O,74.8,76,117.5,125,132.5,132.5,75,80,-82.5,80,150,157.5,162.5,162.5,375,SBD
2,Megan Batchelor,F,,England,,Raw,FR-O,75.5,76,120,127.5,-132.5,127.5,75,80,82.5,82.5,140,150,-162.5,150,360,SBD
3,Marianna Pinter,F,,England,,Raw,FR-O,74.4,76,100,110,115,115,67.5,70,75,75,120,132.5,145,145,335,SBD
4,Julia Bogusz,F,,England,,Raw,FR-O,74.3,76,102.5,110,115,115,57.5,62.5,-65,62.5,115,122.5,127.5,127.5,305,SBD
1,Kaysan Chaudry,M,,England,,Raw,MR-O,65,66,147.5,155,-162.5,155,105,112.5,115,115,175,185,-192.5,185,455,SBD
2,Saman Sharafian,M,,England,,Raw,MR-O,64.6,66,140,150,157.5,157.5,87.5,92.5,95,95,190,200,-205,200,452.5,SBD
1,Lucas Silva #1,M,2002-01-07,England,,Raw,MR-O,73.3,74,202.5,210,-215,210,125,130,135,135,232.5,-240,-240,232.5,577.5,SBD
2,Richard Piper,M,,England,,Raw,MR-O,72.5,74,155,-165,170,170,-92.5,97.5,102.5,102.5,170,-180,-180,170,442.5,SBD
3,Vinnie Murphy,M,,England,,Raw,MR-O,80.4,83,182.5,190,197.5,197.5,117.5,125,132.5,132.5,202.5,212.5,220,220,550,SBD
3,Aadi Gupta,M,,England,,Raw,MR-O,71.4,74,120,130,140,140,-87.5,92.5,-98,92.5,170,185,200.5,200.5,433,SBD
1,James Parker #3,M,,England,,Raw,MR-O,81.1,83,240,250,-257.5,250,145,152.5,-157.5,152.5,265,275,285,285,687.5,SBD
2,Max Mansell-rowe,M,,England,,Raw,MR-O,82.2,83,190,200,210,210,110,120,130,130,250,260,272.5,272.5,612.5,SBD
3,Jose Manuel Arias Morales,M,,England,,Raw,MR-O,82,83,180,-190,,180,130,135,140,140,205,227.5,-237.5,227.5,547.5,SBD
4,James Gandar,M,,England,,Raw,MR-O,78.1,83,162.5,177.5,-185,177.5,77.5,-82.5,90,90,197.5,222.5,-232.5,222.5,490,SBD
5,Nathaniel Woodbridge,M,,England,,Raw,MR-O,81.5,83,162.5,172.5,-177.5,172.5,110,115,-122.5,115,197.5,-205,-205,197.5,485,SBD
6,Finn Strong,M,,England,,Raw,MR-O,80.9,83,130,145,152.5,152.5,77.5,82.5,87.5,87.5,160,180,-192.5,180,420,SBD
7,Ryan Mundy,M,,England,,Raw,MR-O,78.3,83,105,-112.5,112.5,112.5,80,85,90,90,130,142.5,152.5,152.5,355,SBD
1,Joshua King,M,,England,,Raw,MR-O,91.7,93,210,227.5,235,235,120,130,137.5,137.5,-250,250,-272.5,250,622.5,SBD
3,William Harrowsmith,M,,England,,Raw,MR-O,88.2,93,197.5,212.5,-220,212.5,-107.5,-117.5,117.5,117.5,247.5,-260,-260,247.5,577.5,SBD
4,Edward Macintyre,M,,England,,Raw,MR-O,91.5,93,180,187.5,192.5,192.5,97.5,105,-107.5,105,195,202.5,210,210,507.5,SBD
DQ,João Arsénio,M,,England,,Single-ply,M-O,81.5,83,230,-240,-240,230,,,,,,,,,,SBD
2,Charlie Catt,M,,England,,Raw,MR-O,84.9,93,190,200,210,210,125,135,-140,135,220,240,260,260,605,SBD
1,Edwin Lord,M,,England,,Raw,MR-O,99.8,105,200,220,235,235,145,155,162.5,162.5,270,290,302.5,302.5,700,SBD
2,Ashraf Alhasan,M,,England,,Raw,MR-O,103.7,105,-185,185,200,200,135,142.5,-147.5,142.5,245,260,272.5,272.5,615,SBD
3,Nicholas Potter,M,,England,,Raw,MR-O,104,105,195,210,-227.5,210,-112.5,112.5,-122.5,112.5,215,235,245,245,567.5,SBD
4,Matt Southern,M,,England,,Raw,MR-O,103.2,105,150,165,175,175,115,125,135,135,215,225,235,235,545,SBD
1,Adam Rutter,M,,England,,Raw,MR-O,120,120,-150,155,-160,155,130,137.5,-145,137.5,190,-200,-200,190,482.5,SBD
2,William Roser,M,,England,,Raw,MR-O,107.2,120,180,195,-202.5,195,85,92.5,-100,92.5,175,190,-205,190,477.5,SBD
1,Jordan Bollard,M,,England,,Single-ply,M-O,128.4,120+,315,-325,325,325,210,-220,-220,210,230,240,252.5,252.5,787.5,SBD
