Division,WeightClassKg,Place,Name,Team,BodyweightKg,Best3SquatKg,Best3BenchKg,Best3DeadliftKg,TotalKg,Equipment,Event,Sex
Boys,51.71,1,Trey Wachsman,Miles,48.08,95.25,49.9,117.93,263.08,Single-ply,SBD,M
Boys,55.79,1,Lorenzo Bustamante,Cross Plains,54.61,136.08,70.31,158.76,365.14,Single-ply,SBD,M
Boys,55.79,2,Jetly Hobdey,Roscoe Collegiate,53.8,95.25,61.23,129.27,285.76,Single-ply,SBD,M
Boys,55.79,3,Andrew DeLeon,Roscoe Collegiate,52.34,102.06,58.97,102.06,263.08,Single-ply,SBD,M
Boys,55.79,4,Alvrado Ervey,Post,55.7,,77.11,149.69,226.8,Single-ply,BD,M
Boys,59.87,1,Sterling Switzer,Cross Plains,58.6,127.01,72.57,131.54,331.12,Single-ply,SBD,M
Boys,67.13,1,Brock Vasquez,Hermleigh,66.68,185.97,97.52,217.72,501.22,Single-ply,SBD,M
Boys,67.13,2,Alex Gallegos,Sweetwater,67.13,149.69,95.25,161.03,405.97,Single-ply,SBD,M
Boys,67.13,3,Domian Garcia Rodriguez,Post,67.04,158.76,77.11,158.76,394.63,Single-ply,SBD,M
Boys,67.13,4,Joe Crockett,Cross Plains,61.69,161.03,65.77,149.69,376.48,Single-ply,SBD,M
Boys,67.13,5,Eli Garza,Hermleigh,63.05,131.54,77.11,158.76,367.41,Single-ply,SBD,M
Boys,67.13,6,Tait Fullwood,Roscoe Collegiate,64.14,151.95,83.91,129.27,365.14,Single-ply,SBD,M
Boys,67.13,7,Jeremy Mireles,San Angelo Lake View,63.78,131.54,74.84,149.69,356.07,Single-ply,SBD,M
Boys,67.13,8,Cameron Clement,Hermleigh,62.32,129.27,68.04,115.67,312.98,Single-ply,SBD,M
Boys,67.13,9,Jayden Gonzales,Roscoe Collegiate,65.05,120.2,65.77,113.4,299.37,Single-ply,SBD,M
Boys,67.13,10,Luis Gonzales,Hermleigh,65.95,113.4,65.77,117.93,297.1,Single-ply,SBD,M
Boys,67.13,11,Jonathon Rodriguez,Post,63.96,136.08,61.23,,197.31,Single-ply,SB,M
Boys,74.84,1,Gabriel Salazar,Sweetwater,74.39,167.83,99.79,195.04,462.66,Single-ply,SBD,M
Boys,74.84,2,Leroy Garcia,Miles,73.39,145.15,97.52,174.63,417.3,Single-ply,SBD,M
Boys,74.84,3,Hunter Graves,Post,73.39,149.69,88.45,158.76,396.89,Single-ply,SBD,M
Boys,74.84,4,James Christensen,San Angelo Lake View,67.49,140.61,92.99,142.88,376.48,Single-ply,SBD,M
Boys,74.84,5,Brian Morales,Cross Plains,70.4,142.88,70.31,154.22,367.41,Single-ply,SBD,M
Boys,74.84,6,Mark Johnson #7,Miles,74.57,88.45,72.57,136.08,297.1,Single-ply,SBD,M
Boys,82.1,1,Blaine Reece,Post,79.65,233.6,129.27,197.31,560.19,Single-ply,SBD,M
Boys,82.1,2,Jacob Guzman,Hermleigh,82.1,213.19,120.2,204.12,537.51,Single-ply,SBD,M
Boys,82.1,3,Francisco Muniz,San Angelo Lake View,79.47,165.56,108.86,217.72,492.15,Single-ply,SBD,M
Boys,82.1,4,Shawn Rodriguez,San Angelo Lake View,78.65,163.29,108.86,165.56,437.72,Single-ply,SBD,M
Boys,82.1,5,Jonas Garcia,Miles,77.38,142.88,97.52,174.63,415.04,Single-ply,SBD,M
Boys,82.1,6,Fracisco Garcia,Roscoe Collegiate,77.47,161.03,102.06,151.95,415.04,Single-ply,SBD,M
Boys,82.1,7,Brandon Rodriguez,San Angelo Lake View,78.02,142.88,104.33,167.83,415.04,Single-ply,SBD,M
Boys,82.1,8,Colt Mallory,Hermleigh,75.84,151.95,74.84,172.37,399.16,Single-ply,SBD,M
Boys,82.1,9,Trenton Porter,Cross Plains,81.92,149.69,74.84,142.88,367.41,Single-ply,SBD,M
Boys,82.1,10,Adrian Lomas,Roscoe Collegiate,81.74,129.27,77.11,136.08,342.46,Single-ply,SBD,M
Boys,82.1,11,Chris Llanez,Miles,78.93,124.74,,136.08,260.82,Single-ply,SD,M
Boys,89.81,1,Zachary Gartman,Cross Plains,89.54,249.48,115.67,213.19,578.33,Single-ply,SBD,M
Boys,89.81,2,Hugo Almazan,Garden City,83.46,204.12,122.47,226.8,553.38,Single-ply,SBD,M
Boys,89.81,3,Junior Lawhon,Sweetwater,89.54,204.12,136.08,199.58,539.77,Single-ply,SBD,M
Boys,89.81,4,Nian Martinez,Cross Plains,89.72,204.12,122.47,154.22,480.81,Single-ply,SBD,M
Boys,89.81,5,Trystan Banks,Miles,82.92,165.56,120.2,158.76,444.52,Single-ply,SBD,M
Boys,89.81,6,Austin Lara,Roscoe Collegiate,82.28,147.42,88.45,136.08,371.95,Single-ply,SBD,M
Boys,89.81,DQ,Sammy Guerrero,Cross Plains,87.36,,,,,Single-ply,SBD,M
Boys,89.81,DQ,Chase Mackey,Gordon,83.1,,,,,Single-ply,SBD,M
Boys,99.79,1,Valente Perez,Post,95.25,226.8,113.4,210.92,551.11,Single-ply,SBD,M
Boys,99.79,2,Raymond Delgado,Sweetwater,98.43,199.58,142.88,204.12,546.58,Single-ply,SBD,M
Boys,99.79,3,Aaron Willis,Cross Plains,91.17,222.26,106.59,208.65,537.51,Single-ply,SBD,M
Boys,99.79,4,AJ Escobedo,Post,91.72,188.24,122.47,176.9,487.61,Single-ply,SBD,M
Boys,99.79,5,Emanuel Rodriguez,Gordon,91.35,183.7,113.4,183.7,480.81,Single-ply,SBD,M
Boys,99.79,6,Jacob Collier,Cross Plains,94.44,181.44,104.33,176.9,462.66,Single-ply,SBD,M
Boys,99.79,7,Chase Carr,Hermleigh,97.07,170.1,95.25,181.44,446.79,Single-ply,SBD,M
Boys,99.79,8,Roadey Mann,Roscoe Collegiate,94.89,147.42,88.45,174.63,410.5,Single-ply,SBD,M
Boys,99.79,9,Tripp Thomas,Cross Plains,99.06,158.76,70.31,138.35,367.41,Single-ply,SBD,M
Boys,99.79,10,John Harty,Hermleigh,96.25,113.4,63.5,122.47,299.37,Single-ply,SBD,M
Boys,99.79,11,Zac Cook,Miles,94.62,,111.13,174.63,285.76,Single-ply,BD,M
Boys,109.77,1,Isreal Vera,Sweetwater,109.32,254.01,142.88,213.19,610.08,Single-ply,SBD,M
Boys,109.77,2,Dylan Jimenez,Sweetwater,107.05,231.33,136.08,226.8,594.21,Single-ply,SBD,M
Boys,109.77,3,Matt Buckley,Roscoe Collegiate,106.23,226.8,136.08,195.04,557.92,Single-ply,SBD,M
Boys,109.77,4,Pedro Martinez,Miles,105.14,158.76,108.86,204.12,471.74,Single-ply,SBD,M
Boys,109.77,5,James Rhyne,Cross Plains,100.97,181.44,86.18,149.69,417.3,Single-ply,SBD,M
Boys,109.77,6,Tracker Dugan,Hermleigh,101.42,104.33,70.31,145.15,319.78,Single-ply,SBD,M
Boys,124.74,1,Jeremiah Berrera,Sweetwater,124.51,219.99,97.52,226.8,544.31,Single-ply,SBD,M
Boys,124.74,2,John Garcia,Hermleigh,115.21,181.44,104.33,154.22,439.98,Single-ply,SBD,M
Boys,124.74,3,Tanner Beyer,Miles,110.22,120.2,,170.1,290.3,Single-ply,SD,M
Boys,124.74+,1,Michael Jordan,San Angelo Lake View,136.53,208.65,115.67,249.48,573.79,Single-ply,SBD,M
