WeightClassKg,Division,Name,BirthDate,Team,BodyweightKg,Squat1Kg,Squat2Kg,Squat3Kg,Best3SquatKg,Bench1Kg,Bench2Kg,Bench3Kg,Best3BenchKg,Deadlift1Kg,Deadlift2Kg,Deadlift3Kg,Best3DeadliftKg,TotalKg,Place,Event,Equipment,Sex
47,Open,Jackie Keung Hoi Kay,1990-08-20,,46.09,85,90,95,95,47.5,50,55,55,120,125,130,130,280,1,SBD,Raw,F
47,Open,Sylvia Siu Luen Yee,1968-12-28,HKMA,46.35,37.5,40,45,45,35,37.5,40,40,70,75,80,80,165,2,SBD,Raw,F
52,Open,Tang Hoi Lam,1988-06-09,Mulan,47.78,85,90,95,95,50,55,57.5,57.5,90,100,110,110,262.5,1,SBD,Raw,F
57,Open,Liu Hui Min,1992-12-11,,55.55,95,100,105,105,-50,50,55,55,100,105,117.5,117.5,277.5,1,SBD,Raw,F
57,Open,Cherie Law Chui Yee,1981-01-22,Power,53.02,-90,90,97.5,97.5,52.5,55,57.5,57.5,100,105,110,110,265,2,SBD,Raw,F
63,Open,Martina Mentu,1984-04-06,,60.07,90,95,100,100,40,-45,45,45,105,110,117.5,117.5,262.5,1,SBD,Raw,F
63,Open,Freda Wan Zi Yu,1981-05-14,,60.69,80,-87.5,87.5,87.5,40,45,47.5,47.5,100,110,120,120,255,2,SBD,Raw,F
63,Open,Lam Wai Cheung,1975-01-22,HKMA,57.93,60,67.5,72.5,72.5,37.5,40,42.5,42.5,90,100,110,110,225,3,SBD,Raw,F
72,Open,Kimberley Carder,1990-10-26,,69.72,97.5,102.5,110.5,110.5,47.5,52.5,57.5,57.5,110,120,135,135,303,1,SBD,Raw,F
84,Open,Florence Ho,1979-07-02,,83.5,110,120,130,130,90,-95,95,95,110,120,135,135,360,1,SBD,Raw,F
47,Sub-Juniors,Oscaria Jian Junlin,2001-08-29,Bar,45.81,51,55,61,61,30,-36,36,36,60,67.5,76,76,173,1,SBD,Raw,F
52,Juniors,Siu Yi Ying,1996-03-12,Bar,51.56,-25,30,37.5,37.5,25,-27.5,27.5,27.5,50,60,70,70,135,1,SBD,Raw,F
52,Masters 1,Rebecca Yip Kit-Ying,1976-04-29,Mulan,50.25,77.5,85,90,90,57.5,62.5,65,65,90,100,110,110,265,1,SBD,Raw,F
52,Masters 1,Lam Wai Zse,1978-06-14,Mulan,50.46,65,70,75,75,50,52.5,55,55,75,80,90,90,220,2,SBD,Raw,F
57,Masters 1,Trina Tham,1974-03-23,,55.74,-75,-78,-78,,-45,-45,45,45,100,105,110,110,,DQ,SBD,Raw,F
63,Masters 1,Maria Christina Brusuelas,1978-08-25,,62.15,-85,85,90,90,40,45,47.5,47.5,85,95,105,105,242.5,1,SBD,Raw,F
63,Masters 1,Lam Wai Cheung,1975-01-22,HKMA,57.93,60,67.5,72.5,72.5,37.5,40,42.5,42.5,90,100,110,110,225,2,SBD,Raw,F
72,Masters 1,Ho Wing Nga,1973-03-24,,71.2,100,110.5,112.5,112.5,70,-75,75,75,100,110,116,116,303.5,1,SBD,Raw,F
47,Masters 2,Sylvia Siu Luen Yee,1968-12-28,HKMA,46.35,37.5,40,45,45,35,37.5,40,40,70,75,80,80,165,1,SBD,Raw,F
52,Masters 2,Tam Ho Yee,1965-02-03,Mulan,50.24,77.5,87.5,92.5,92.5,62.5,67.5,70,70,-90,90,105,105,267.5,1,SBD,Raw,F
52,Masters 2,Esther Ng Yu Fa,1963-09-29,Mulan,49.88,77.5,82.5,87.5,87.5,57.5,60,,60,90,95,100,100,247.5,2,SBD,Raw,F
63,Masters 2,Wendy Chan Mei Mei,1968-09-12,Mulan,58.85,110,120,127,127,65,72.5,,72.5,120,132.5,135,135,334.5,1,SBD,Raw,F
59,Open,Ka-Ho Mow,1994-07-09,Rage,57.59,150,-165,165,165,120,135,143,143,175,-190,190,190,498,1,SBD,Raw,M
66,Open,Ho-Man Cheung,1986-11-21,Bar,65.81,160,172.5,180,180,130,142.5,150,150,160,180,190,190,520,1,SBD,Raw,M
66,Open,Wong Chi Ki,1982-09-01,,65.06,120,125,130,130,77.5,85,87.5,87.5,147.5,160,170,170,387.5,2,SBD,Raw,M
74,Open,Fai Hung Wing,1980-08-07,LION,69.02,185,200,215,215,155,-170,170,170,175,200,210,210,595,2,SBD,Raw,M
74,Open,Fung Chau Sang,1990-10-09,,71,177.5,192.5,200,200,85,95,102.5,102.5,205,220,232.5,232.5,535,3,SBD,Raw,M
74,Open,Anakin Kwok,1994-12-19,,68.82,162.5,172.5,177.5,177.5,95,102.5,105,105,190,205,210,210,492.5,4,SBD,Raw,M
74,Open,Marco Castro Orcino Jerrico,1994-10-11,,73.18,215,-225,225,225,125,-132.5,132.5,132.5,-250,-250,250,250,607.5,1,SBD,Raw,M
83,Open,Chi-Leung Kam,1989-03-18,,80.28,230,240,252.5,252.5,185,205,210,210,260,280,285,285,747.5,1,SBD,Raw,M
83,Open,Richard Wen Shen Kwan,1992-02-24,,80.48,220,230,232.5,232.5,115,-120,120,120,282.5,297.5,302.5,302.5,655,2,SBD,Raw,M
105,Open,JeffreyCheung,1990-03-19,,95.06,180,190,195,195,90,105,112.5,112.5,210,227.5,235,235,542.5,1,SBD,Raw,M
105,Open,Booker Willie,1978-11-29,,102.41,187.5,195,,195,-130,-130,,130,200,,,200,,DQ,SBD,Raw,M
120+,Open,Chai-Chi Fong,1982-12-01,LION,142,285,305,,305,235,237.5,255.5,255.5,175,225,243,243,803.5,1,SBD,Raw,M
66,Sub-Juniors,Leung Tsz Hin,2001-09-21,Rage,59.19,60,70,,70,40,60,,60,110,125,140.5,140.5,270.5,1,SBD,Raw,M
93,Sub-Juniors,Wu Mo Wan,2000-10-27,,83.08,205,220,227.5,227.5,97.5,102.5,105,105,225,-230,230,230,562.5,1,SBD,Raw,M
93,Sub-Juniors,Hwong Nicholas Man-dong,2001-04-26,,83.82,170,180,187.5,187.5,110,115,117.5,117.5,200,212.5,217.5,217.5,522.5,2,SBD,Raw,M
74,Juniors,Michael Rene Gambot Lacson,1995-07-18,Rage,69.88,170,175,180,180,77.5,82.5,87.5,87.5,220,230,245.5,245.5,513,1,SBD,Raw,M
93,Juniors,Chan Kin Hei,1995-07-20,Power,91.05,180,200,210,210,130,135,140,140,240,260,280,280,630,1,SBD,Raw,M
105,Juniors,Law Chun Hung,1996-04-01,Bar,97.42,60,,,60,70,,,70,60,,,60,190,1,SBD,Raw,M
74,Masters 1,Christopher Paul Folino,1974-12-03,,71.85,-135,135,140,140,120,-122.5,122.5,122.5,195,201,202.5,202.5,465,1,SBD,Raw,M
83,Masters 1,Terry Lai Zse Wing,1976-05-24,,80.55,200,210,220,220,150,155,160,160,200,210,220,220,600,1,SBD,Raw,M
93,Masters 1,Leung Hoi,1969-02-23,,91.64,185,205,210,210,-135,135,140,140,205,215,230,230,580,1,SBD,Raw,M
93,Masters 1,Thomas Lo,1977-10-04,Bar,84.04,160,175,185,185,130,140,145,145,170,180,185,185,515,2,SBD,Raw,M
105,Masters 1,Kay Lee Ming,1976-12-08,,95.7,190,215,225,225,95,100,115,115,210,235,245,245,585,1,SBD,Raw,M
105,Masters 1,Apollo Lo,1969-02-23,,96.62,-150,-150,150,150,-110,110,120,120,180,200,210,210,480,2,SBD,Raw,M
59,Masters 2,Wong Yee Wai,1966-01-12,Bar,58.43,-120,120,131,131,80,103,,103,140,152,,152,386,1,SBD,Raw,M
59,Masters 2,Lau Wai Tong,1959-11-03,LION,58.66,80,85,90,90,70,-85,85,85,100,105,115,115,290,2,SBD,Raw,M
74,Masters 2,Choi Ling Fung,1968-01-13,LION,71.16,140,160,170,170,120,125.5,130.5,130.5,-150,150,180,180,480.5,1,SBD,Raw,M
105,Masters 2,Niklas Hageback,1968-08-24,,99.05,150,160,,160,130,135,,135,185,200,,200,495,1,SBD,Raw,M
