Division,WeightClassKg,Place,Name,Team,BodyweightKg,Best3SquatKg,Best3BenchKg,Best3DeadliftKg,TotalKg,Equipment,Event,Sex,BirthDate
Girls,44.23,1,Katrina Le,Beaumont West Brook,43.54,108.86,56.7,111.13,276.69,Single-ply,SBD,F,
Girls,44.23,2,Kyleigh Sheffield,Splendora,43.32,68.04,36.29,63.5,167.83,Single-ply,SBD,F,
Girls,44.23,DQ,Mara Mather,New Caney,43.82,,,,,Single-ply,SBD,F,
Girls,47.85,1,Aniya Mithcell,Port Arthur Memorial,47.54,72.57,43.09,86.18,201.85,Single-ply,SBD,F,
Girls,47.85,2,Caylee Wallace,Splendora,47.26,70.31,38.56,74.84,183.7,Single-ply,SBD,F,
Girls,51.94,1,Tori Moore,Splendora,50.53,104.33,58.97,111.13,274.42,Single-ply,SBD,F,
Girls,51.94,2,Kira Marksberry,Splendora,49.44,95.25,52.16,102.06,249.48,Single-ply,SBD,F,
Girls,51.94,3,Deandra Mills,Trinity,50.44,99.79,45.36,104.33,249.48,Single-ply,SBD,F,
Girls,51.94,4,Whitney Vera,Corrigan-Camden,49.53,68.04,40.82,90.72,199.58,Single-ply,SBD,F,
Girls,51.94,5,Amy Heng,Beaumont West Brook,50.8,70.31,34.02,95.25,199.58,Single-ply,SBD,F,
Girls,51.94,6,Kathryn Fisher,Corrigan-Camden,51.44,70.31,34.02,83.91,188.24,Single-ply,SBD,F,
Girls,51.94,DQ,Brianna Steichen,New Caney Porter,50.62,,,,,Single-ply,SBD,F,
Girls,56.02,1,Fernanda Galvez,Splendora,53.43,111.13,56.7,113.4,281.23,Single-ply,SBD,F,
Girls,56.02,2,Lani Brown,New Caney Porter,55.52,88.45,52.16,111.13,251.74,Single-ply,SBD,F,
Girls,56.02,3,Lexis Collins,Splendora,53.34,95.25,52.16,102.06,249.48,Single-ply,SBD,F,
Girls,56.02,4,Ailin Marquez,Trinity,55.43,88.45,45.36,83.91,217.72,Single-ply,SBD,F,
Girls,56.02,5,Emily Pippin,Splendora,54.43,74.84,43.09,74.84,192.78,Single-ply,SBD,F,
Girls,56.02,6,Amy Phu,Port Arthur Memorial,55.61,61.23,24.95,72.57,158.76,Single-ply,SBD,F,
Girls,60.1,1,Taylor Lewis #1,Beaumont West Brook,57.24,108.86,65.77,136.08,310.71,Single-ply,SBD,F,
Girls,60.1,2,Carmela Sanchez,New Caney,58.79,131.54,61.23,108.86,301.64,Single-ply,SBD,F,
Girls,60.1,3,Kallie Kelm,Corrigan-Camden,59.69,83.91,58.97,124.74,267.62,Single-ply,SBD,F,
Girls,60.1,4,Jastormia Tarpley,New Caney,59.69,86.18,52.16,115.67,254.01,Single-ply,SBD,F,
Girls,60.1,5,Hailey Reimer,Splendora,59.92,90.72,52.16,108.86,251.74,Single-ply,SBD,F,
Girls,60.1,6,Angela Ruiz,New Caney Porter,57.15,97.52,52.16,95.25,244.94,Single-ply,SBD,F,
Girls,60.1,7,Cynthia Banuelos,New Caney Porter,58.33,99.79,56.7,70.31,226.8,Single-ply,SBD,F,
Girls,60.1,8,Karrington Gerard,Beaumont West Brook,59.96,77.11,47.63,102.06,226.8,Single-ply,SBD,F,
Girls,67.36,1,Paris Williams,Beaumont West Brook,67.31,111.13,63.5,140.61,315.25,Single-ply,SBD,F,
Girls,67.36,2,Anaiah Johnson,Beaumont West Brook,65.77,97.52,63.5,117.93,278.96,Single-ply,SBD,F,
Girls,67.36,3,Reyna Lewis,Splendora,62.6,90.72,56.7,92.99,240.4,Single-ply,SBD,F,
Girls,67.36,4,Deanna Harvey,New Caney Porter,63.14,97.52,52.16,88.45,238.14,Single-ply,SBD,F,
Girls,67.36,5,Kenderlyn Thierry,Beaumont West Brook,61.23,77.11,38.56,106.59,222.26,Single-ply,SBD,F,
Girls,67.36,6,Khalia Dankins,Port Arthur Memorial,61.51,77.11,47.63,90.72,215.46,Single-ply,SBD,F,
Girls,67.36,7,Fatima Flores,New Caney,63.05,70.31,49.9,79.38,199.58,Single-ply,SBD,F,
Girls,67.36,DQ,Hannah Ellis,Trinity,65.77,,,,,Single-ply,SBD,F,
Girls,67.36,DQ,Myona Wilson,Trinity,66.68,,,,,Single-ply,SBD,F,
Girls,67.36,DQ,Serenity Whitworth,Splendora,66.36,,,,,Single-ply,SBD,F,
Girls,75.07,1,Blessing Menifee,Corrigan-Camden,70.22,120.2,61.23,140.61,322.05,Single-ply,SBD,F,
Girls,75.07,2,Lisbeth Manzano,Splendora,73.84,115.67,58.97,117.93,292.57,Single-ply,SBD,F,
Girls,75.07,3,Camille Thompson,Beaumont West Brook,72.03,104.33,61.23,120.2,285.76,Single-ply,SBD,F,
Girls,75.07,4,Sherlyn Rabago,Beaumont West Brook,70.94,97.52,49.9,106.59,254.01,Single-ply,SBD,F,
Girls,75.07,5,Shelbie Meyer,New Caney Porter,70.03,99.79,58.97,83.91,242.67,Single-ply,SBD,F,
Girls,75.07,6,Makenzie Tullos,Splendora,72.3,92.99,56.7,92.99,242.67,Single-ply,SBD,F,
Girls,75.07,DQ,Da'Lea Benton,Beaumont West Brook,72.3,104.33,,,,Single-ply,SBD,F,
Girls,75.07,DQ,Alyssa Hill,Trinity,74.84,,,,,Single-ply,SBD,F,
Girls,82.33,1,Leah Hensarling,Splendora,79.51,172.37,97.52,154.22,424.11,Single-ply,SBD,F,
Girls,82.33,2,Kylie Jones,Splendora,77.7,156.49,77.11,138.35,371.95,Single-ply,SBD,F,
Girls,82.33,3,Kyana Berry,Splendora,76.52,129.27,74.84,127.01,331.12,Single-ply,SBD,F,
Girls,82.33,4,Priscilla Gomez,Splendora,75.25,113.4,74.84,122.47,310.71,Single-ply,SBD,F,
Girls,82.33,5,Laryssa Pitts,Splendora,75.75,99.79,49.9,122.47,272.16,Single-ply,SBD,F,
Girls,82.33,6,Baybah Vasquez,Splendora,81.56,106.59,56.7,102.06,265.35,Single-ply,SBD,F,
Girls,82.33,7,Zoey Hawkey,Trinity,78.2,92.99,47.63,92.99,233.6,Single-ply,SBD,F,
Girls,90.04,1,Katera Perkins,Beaumont West Brook,87.54,161.03,83.91,161.03,405.97,Single-ply,SBD,F,
Girls,90.04,2,Kayla Hays,Splendora,87.54,147.42,88.45,138.35,374.21,Single-ply,SBD,F,
Girls,90.04,3,Kaleigha Washington,Beaumont West Brook,88.9,133.81,79.38,158.76,371.95,Single-ply,SBD,F,
Girls,90.04,4,Siara Benton,Beaumont West Brook,89.63,133.81,74.84,129.27,337.93,Single-ply,SBD,F,
Girls,90.04,5,Nayelee Zepeda,Splendora,88.45,124.74,72.57,124.74,322.05,Single-ply,SBD,F,
Girls,90.04,6,Neida Trejo,Splendora,84.01,122.47,58.97,124.74,306.17,Single-ply,SBD,F,
Girls,90.04,7,Alexis Argueta,Splendora,83.55,117.93,63.5,117.93,299.37,Single-ply,SBD,F,
Girls,90.04,8,Isabella Love,Trinity,83.46,92.99,54.43,102.06,249.48,Single-ply,SBD,F,
Girls,90.04,DQ,Ivania Ramos,Splendora,83.19,,,,,Single-ply,SBD,F,
Girls,100.02,1,Dezi Stewart,New Caney Porter,96.43,174.63,102.06,165.56,442.25,Single-ply,SBD,F,
Girls,100.02,2,Jennifer Galarza,New Caney Porter,97.43,133.81,79.38,136.08,349.27,Single-ply,SBD,F,
Girls,100.02,3,Gracie Robb,Trinity,91.99,102.06,47.63,104.33,254.01,Single-ply,SBD,F,
Girls,100.02,4,Joshlyn Ainsworth,Trinity,99.97,95.25,47.63,102.06,244.94,Single-ply,SBD,F,
Girls,117.71,1,Haven Myers,Splendora,116.57,149.69,90.72,154.22,394.63,Single-ply,SBD,F,
Girls,117.71,2,Cydney Griffin,Beaumont West Brook,101.15,149.69,92.99,145.15,387.82,Single-ply,SBD,F,
Girls,117.71,3,Mikayla Williams,Splendora,103.15,120.2,83.91,127.01,331.12,Single-ply,SBD,F,
Girls,117.71,4,Maria Mendoza,Trinity,111.67,113.4,54.43,111.13,278.96,Single-ply,SBD,F,
Girls,117.71,5,Madison Parker,Port Arthur Memorial,100.15,97.52,45.36,88.45,231.33,Single-ply,SBD,F,
Girls,117.71,6,Marisella Jones,Port Arthur Memorial,103.6,86.18,38.56,102.06,226.8,Single-ply,SBD,F,
Girls,117.71,DQ,Myah Flax,Port Arthur Memorial,117.48,,,,,Single-ply,SBD,F,
Girls,117.71+,1,Ember Burkes,Corrigan-Camden,131.54,115.67,56.7,117.93,290.3,Single-ply,SBD,F,
Girls,117.71+,2,Kelsey Davis,Port Arthur Memorial,130.27,95.25,52.16,99.79,247.21,Single-ply,SBD,F,
Girls,117.71+,DQ,Kailyn Fisher,Trinity,117.93,,,,,Single-ply,SBD,F,
