Place,Name,Sex,BirthDate,BirthYear,Age,Country,State,Equipment,Division,BodyweightKg,WeightClassKg,Squat1Kg,Squat2Kg,Squat3Kg,Best3SquatKg,Bench1Kg,Bench2Kg,Bench3Kg,Best3BenchKg,Deadlift1Kg,Deadlift2Kg,Deadlift3Kg,Best3DeadliftKg,TotalKg,Event
1,Tina Zheng,F,,1997,22,,MA,Single-ply,F-Jr,71.95,72,190,-195,195,195,97.5,100,105,105,167.5,177.5,185,185,485,SBD
2,Taylor Sullivan,F,,1998,21,,MA,Single-ply,F-Jr,70.25,72,132.5,137.5,145,145,72.5,77.5,-82.5,77.5,142.5,150,157.5,157.5,380,SBD
1,Julia Spinelli,F,,1997,22,,CT,Single-ply,F-Jr,83.4,84,137.5,142.5,-150,142.5,72.5,77.5,82.5,82.5,137.5,145,150,150,375,SBD
1,Danielle Baldassari,F,,1998,21,,MA,Single-ply,F-Jr,46.6,47,97.5,102.5,107.5,107.5,47.5,50,52.5,52.5,107.5,115,-120,115,275,SBD
1,Lauren Martires,F,,1998,21,,NV,Single-ply,F-Jr,61.1,63,137.5,142.5,150,150,70,75,82.5,82.5,135,145,-150,145,377.5,SBD
2,Daniela Buchbinder,F,,1999,20,,MA,Single-ply,F-Jr,62.85,63,117.5,125,132.5,132.5,85,90,95,95,115,120,130,130,357.5,SBD
3,Morgan Stahl,F,,1997,22,,MA,Single-ply,F-Jr,61.2,63,65,67.5,-72.5,67.5,125,130,137.5,137.5,65,,,65,270,SBD
1,Elizabeth Taft,F,,1999,21,,MA,Single-ply,F-O,72.95,84,140,145,150,150,85,90,95,95,142.5,150,155,155,400,SBD
1,Sam Grubbs #1,F,,1997,22,,NH,Raw,FR-Jr,76.2,84,122.5,130,132.5,132.5,67.5,70,-72.5,70,142.5,152.5,-157.5,152.5,355,SBD
1,Katie An,F,,1998,21,,MA,Raw,FR-Jr,62.7,63,125,-132.5,132.5,132.5,65,67.5,70,70,127.5,135,142.5,142.5,345,SBD
2,Elizabeth Lucier,F,,1998,21,,MA,Raw,FR-Jr,59.9,63,95,105,-110,105,45,50,55,55,130,135,140,140,300,SBD
1,Nicole Carrier,F,,1972,47,,NH,Raw,FR-M1b,71.2,72,110,117.5,122.5,122.5,60,65,67.5,67.5,130,132.5,-140,132.5,322.5,SBD
1,Nicole Carrier,F,,1972,47,,NH,Raw,FR-O,71.2,72,110,117.5,122.5,122.5,60,65,67.5,67.5,130,132.5,-140,132.5,322.5,SBD
2,Serena Paquet,F,,2000,19,,ME,Raw,FR-O,71.6,72,105,112.5,117.5,117.5,50,52.5,55,55,105,115,120,120,292.5,SBD
1,Sam Grubbs #1,F,,1997,22,,NH,Raw,FR-O,76.2,84,122.5,130,132.5,132.5,67.5,70,-72.5,70,142.5,152.5,-157.5,152.5,355,SBD
1,Alisa Arakelian,F,,1981,38,,MA,Raw,FR-O,90.55,84+,142.5,152.5,162.5,162.5,80,85,90,90,142.5,152.5,-160,152.5,405,SBD
1,Candace Lord,F,,1984,35,,NH,Raw,FR-O,61.7,63,127.5,135,140,140,82.5,90,-95,90,-152.5,160,-170,160,390,SBD
2,Jessica Bollmann,F,,1994,25,,MA,Raw,FR-O,62.4,63,145,150,-155,150,65,72.5,75,75,150,157.5,-175,157.5,382.5,SBD
1,Serena Paquet,F,,2000,19,,ME,Raw,FR-T3,71.6,72,105,112.5,117.5,117.5,50,52.5,55,55,105,115,120,120,292.5,SBD
1,Alex Bruskin,M,,1996,23,,MA,Single-ply,M-Jr,103.1,105,295,307.5,320,320,170,177.5,182.5,182.5,255,267.5,275,275,777.5,SBD
2,William Spencer #2,M,,1996,23,,CT,Single-ply,M-Jr,103,105,280,295,305,305,170,177.5,182.5,182.5,265,275,-290,275,762.5,SBD
DQ,Caden Garrett,M,,1997,22,,AL,Single-ply,M-Jr,107.8,120,-315,-315,-315,,165,172.5,180,180,257.5,-267.5,-267.5,257.5,,SBD
1,Justin Choy,M,,1999,20,,WI,Single-ply,M-Jr,79.75,83,-247.5,255,265,265,-147.5,147.5,155,155,240,250,-260,250,670,SBD
2,William Lei,M,,1998,21,,MA,Single-ply,M-Jr,80.9,83,247.5,255,265,265,132.5,137.5,142.5,142.5,240,250,260,260,667.5,SBD
1,William Spencer #2,M,,1996,23,,CT,Single-ply,M-O,103,105,280,295,305,305,170,177.5,182.5,182.5,265,275,-290,275,762.5,SBD
2,John Licata,M,,2000,19,,NY,Single-ply,M-O,103.5,105,250,262.5,272.5,272.5,160,167.5,-172.5,167.5,225,-240,240,240,680,SBD
DQ,Caden Garrett,M,,1997,22,,AL,Single-ply,M-O,107.8,120,-315,-315,-315,,165,172.5,180,180,257.5,-267.5,-267.5,257.5,,SBD
1,Wei Zhang,M,,2000,19,,MA,Single-ply,M-O,63.5,66,190,200,210,210,85,92.5,100,100,195,205,-212.5,205,515,SBD
1,Justin Choy,M,,1999,20,,WI,Single-ply,M-O,79.75,83,-247.5,255,265,265,-147.5,147.5,155,155,240,250,-260,250,670,SBD
2,William Lei,M,,1998,21,,MA,Single-ply,M-O,80.9,83,247.5,255,265,265,132.5,137.5,142.5,142.5,240,250,260,260,667.5,SBD
1,Wei Zhang,M,,2000,19,,MA,Single-ply,M-T3,63.5,66,190,200,210,210,85,92.5,100,100,195,205,-212.5,205,515,SBD
1,Colton Mercier,M,,1998,21,,NH,Raw,MR-Jr,92.35,93,202.5,220,-235,220,140,147.5,-155,147.5,207.5,227.5,242.5,242.5,610,SBD
2,Evan Wright,M,,1996,23,,ME,Raw,MR-Jr,91.6,93,190,197.5,210,210,-132.5,132.5,-140,132.5,232.5,245,-257.5,245,587.5,SBD
3,Christopher Couillard,M,,1996,23,,ME,Raw,MR-Jr,87.75,93,137.5,145,150,150,95,100,105,105,177.5,190,200,200,455,SBD
1,Trevor Woodman,M,,1999,20,,MA,Raw,MR-Jr,73.55,74,215,225,232.5,232.5,130,137.5,-142.5,137.5,227.5,240,255,255,625,SBD
1,Anthony Levensalor,M,,1978,41,,NH,Raw,MR-M1a,89.05,93,125,127.5,130,130,85,87.5,90,90,-180,-180,180,180,400,SBD
1,Anthony Huertas,M,,1980,39,,MA,Raw,MR-M1a,73.45,74,160,170,175,175,102.5,110,-115,110,222.5,235,-252.5,235,520,SBD
DQ,Denis Jobin,M,,1979,40,,NH,Raw,MR-M1a,72.9,74,-170,-172.5,-172.5,,140,-145,-145,140,,,,,,SBD
1,Christopher Engebretson,M,,1969,50,,MA,Raw,MR-M2a,103.15,105,-225,-225,225,225,145,-152.5,-152.5,145,207.5,222.5,-230,222.5,592.5,SBD
DQ,Jim Kathios,M,,1961,59,,NH,Raw,MR-M2b,103,105,,,,,160,170,-172.5,170,,,,,,SBD
1,Paul Lariviere,M,,1964,55,,NH,Raw,MR-M2b,80.85,83,185,195,-200,195,125,130,-135,130,205,225,-227.5,225,550,SBD
1,Scott Rowe #2,M,,1952,67,,ME,Raw,MR-M3b,91.15,93,155,167.5,175,175,110,115,117.5,117.5,187.5,202.5,207.5,207.5,500,SBD
1,Colton Mercier,M,,1998,21,,NH,Raw,MR-O,92.35,93,202.5,220,-235,220,140,147.5,-155,147.5,207.5,227.5,242.5,242.5,610,SBD
2,Scott Rowe #2,M,,1952,67,,ME,Raw,MR-O,91.15,93,155,167.5,175,175,110,115,117.5,117.5,187.5,202.5,207.5,207.5,500,SBD
3,Christopher Couillard,M,,1996,23,,ME,Raw,MR-O,87.75,93,137.5,145,150,150,95,100,105,105,177.5,190,200,200,455,SBD
1,Brendan Blair,M,,1994,25,,NH,Raw,MR-O,104.95,105,210,220,227.5,227.5,115,120,122.5,122.5,235,250,257.5,257.5,607.5,SBD
2,Christopher Engebretson,M,,1969,50,,MA,Raw,MR-O,103.15,105,-225,-225,225,225,145,-152.5,-152.5,145,207.5,222.5,-230,222.5,592.5,SBD
1,Joe Hartnett,M,,1984,35,,NH,Raw,MR-O,119.05,120,230,242.5,255,255,150,157.5,-165,157.5,245,260,275,275,687.5,SBD
2,Peter Spence,M,,1989,30,,ME,Raw,MR-O,118.8,120,205,215,225,225,120,127.5,132.5,132.5,240,255,270,270,627.5,SBD
3,Brian Duran,M,,1993,26,,MA,Raw,MR-O,111.8,120,180,-187.5,192.5,192.5,102.5,110,117.5,117.5,205,217.5,227.5,227.5,537.5,SBD
DQ,Kevin Rouleau,M,,2006,14,,NH,Raw,MR-O,108.11,120,,,,,-85,92.5,-102.5,92.5,142.5,157.5,-182.5,157.5,,SBD
1,Ryan Dionne,M,,1994,26,,MA,Raw,MR-O,61.35,66,185,192.5,-197.5,192.5,100,107.5,,107.5,200,210,-217.5,210,510,SBD
2,John Kratz,M,,1995,24,,NH,Raw,MR-O,65.2,66,-160,-160,160,160,110,-115,120,120,182.5,-192.5,192.5,192.5,472.5,SBD
1,Trevor Woodman,M,,1999,20,,MA,Raw,MR-O,73.55,74,215,225,232.5,232.5,130,137.5,-142.5,137.5,227.5,240,255,255,625,SBD
DQ,Denis Jobin,M,,1979,40,,NH,Raw,MR-O,72.9,74,-170,-172.5,-172.5,,140,-145,-145,140,,,,,,SBD
1,Nick Westgate,M,,1988,31,,MA,Raw,MR-O,83,83,202.5,212.5,220,220,170,177.5,-182.5,177.5,225,240,-247.5,240,637.5,SBD
2,Paul Lariviere,M,,1964,55,,NH,Raw,MR-O,80.85,83,185,195,-200,195,125,130,-135,130,205,225,-227.5,225,550,SBD
3,Yago Petri Rodrigues,M,,1994,25,,MA,Raw,MR-O,82,83,182.5,200,-205,200,-82.5,97.5,-102.5,97.5,185,210,-227.5,210,507.5,SBD
DQ,Kevin Rouleau,M,,2006,14,,NH,Raw,MR-T1,108.11,120,,,,,-85,92.5,-102.5,92.5,142.5,157.5,-182.5,157.5,,SBD
1,Andrew Fitzgerald,M,,2003,16,,MA,Raw,MR-T2,60.05,66,85,92.5,97.5,97.5,70,75,-80,75,127.5,137.5,-150,137.5,310,SBD
1,Christopher DeCaro,M,,2000,19,,MA,Raw,MR-T3,91.65,93,215,227.5,-240,227.5,162.5,170,175,175,252.5,267.5,277.5,277.5,680,SBD
1,Ragheb Abu-rubieh,M,,2000,19,,MA,Raw,MR-T3,82.5,83,192.5,202.5,212.5,212.5,-145,152.5,-160,152.5,205,217.5,230,230,595,SBD
