Event,Sex,Division,WeightClassKg,Equipment,Best3BenchKg,Bench4Kg,Best3DeadliftKg,Deadlift4Kg,TotalKg,Name,Place
B,M,Class 1,67.5,Single-ply,120,,,,120,Dave Constantineau,1
B,M,Class 1,75,Single-ply,170,,,,170,Nick Buck,1
B,M,Class 1,75,Single-ply,152.5,,,,152.5,Andy Kaszubski,2
B,M,Class 1,82.5,Single-ply,,,,,,Scott Rickford,DQ
B,M,Class 1,90,Single-ply,205,,,,205,Pete Ramundo,1
B,M,Class 1,100,Single-ply,210,,,,210,Don Rygh,1
B,M,Class 1,110,Single-ply,200,,,,200,Fateh Sihota,1
B,M,Class 1,117.5,Single-ply,202.5,,,,202.5,Dennis Rolon,1
B,M,Class 1,125,Single-ply,245,,,,245,David Palmer,1
B,M,Class 1,125,Single-ply,232.5,,,,232.5,River Newman,2
B,M,Class 1,125,Single-ply,142.5,,,,142.5,John Solleder,3
B,M,Disabled 1 40-59,82.5,Single-ply,,,,,,Scott Rickford,DQ
B,M,Disabled 1 40-59,100,Single-ply,215,,,,215,Steve Peña #1,1
B,M,Disabled 2 20-39,125,Single-ply,187.5,,,,187.5,Brady Tanner,1
B,M,Disabled 2 60,110,Single-ply,145,147.5,,,145,Scott Dolan,1
B,M,Disabled 2 60,110,Single-ply,137.5,,,,137.5,Bob Brodt,2
B,M,Elite Open,75,Single-ply,,,,,,Donald Ramil,DQ
B,M,Elite Open,90,Single-ply,307.5,,,,307.5,Ryan Marble,1
B,M,Elite Open,90,Single-ply,297.5,,,,297.5,Jerry Aquino,2
B,M,Elite Open,90,Single-ply,297.5,,,,297.5,Jerry Aquino,3
B,M,Elite Open,90,Single-ply,280,287,,,280,Matt LaMarque,4
B,M,Elite Open,100,Single-ply,352.5,,,,352.5,Greg Powell,1
B,M,Elite Open,140,Single-ply,,,,,,Robert Vick,DQ
B,M,Juniors 20-25,56,Single-ply,160,,,,160,Michael Saldivar,1
B,M,Juniors 20-25,67.5,Single-ply,147.5,,,,147.5,Austin Soto,1
B,M,Juniors 20-25,82.5,Single-ply,217.5,,,,217.5,Luis Alaniz,1
B,M,Juniors 20-25,82.5,Single-ply,197.5,,,,197.5,Joseph LaMattina,2
B,M,Juniors 20-25,82.5,Single-ply,182.5,,,,182.5,Filho Almada,3
B,M,Juniors 20-25,90,Single-ply,182.5,,,,182.5,Ed Young,1
B,M,Juniors 20-25,100,Single-ply,235,,,,235,Jarkko Forss,1
B,M,Law-Fire 40-47,100,Single-ply,182.5,,,,182.5,Robert Saludares,1
B,M,Law-Fire 40-47,110,Single-ply,280,,,,280,Freddy Crosby,1
B,M,Law-Fire 40-47,110,Single-ply,265,,,,265,Chad Bertelmann,2
B,M,Law-Fire 40-47,110,Single-ply,205,,,,205,Tim Prince,3
B,M,Law-Fire 40-47,140,Single-ply,255,,,,255,Keoni Reich,2
B,M,Law-Fire 40-47,140,Single-ply,295,,,,295,Jonathan Koma,1
B,M,Law-Fire 48-55,90,Single-ply,,,,,,Frank Lowe,DQ
B,M,Law-Fire 48-55,110,Single-ply,245,,,,245,Joe Gardner,1
B,M,Law-Fire 48-55,117.5,Single-ply,,,,,,JC Tolle,DQ
B,M,Law-Fire 48-55,125,Single-ply,227.5,,,,227.5,Darren Kaleleiki,1
B,M,Law-Fire 48-55,140,Single-ply,227.5,,,,227.5,Warren Orr,1
B,M,Law-Fire 56-63,100,Single-ply,227.5,,,,227.5,Mike Frizzell,1
B,M,Law-Fire 64+,100,Single-ply,182.5,,,,182.5,Joe Parsons,1
B,M,Law-Fire 64+,117.5,Single-ply,147.5,,,,147.5,Ed Acey,1
B,M,Law-Fire Open,90,Single-ply,,,,,,Richard Derengowski,DQ
B,M,Law-Fire Open,90,Single-ply,307.5,,,,307.5,Ryan Marble,1
B,M,Law-Fire Open,110,Single-ply,280,,,,280,Freddy Crosby,1
B,M,Law-Fire Open,140,Single-ply,255,,,,255,Keoni Reich,2
B,M,Law-Fire Open,140,Single-ply,295,,,,295,Jonathan Koma,1
B,M,Law-Fire Submasters,90,Single-ply,,,,,,Richard Derengowski,DQ
B,M,Masters 40-46,75,Single-ply,242.5,,,,242.5,Donald Ramil,1
B,M,Masters 40-46,82.5,Single-ply,147.5,,,,147.5,Shawn Oliphant,1
B,M,Masters 40-46,90,Single-ply,280,287,,,280,Matt LaMarque,1
B,M,Masters 40-46,100,Single-ply,215,,,,215,Steve Peña #1,2
B,M,Masters 40-46,100,Single-ply,,,,,,Tony Blas,DQ
B,M,Masters 40-46,100,Single-ply,,,,,,Coby Washburn,DQ
B,M,Masters 40-46,100,Single-ply,222.5,,,,222.5,Jesse Avila,1
B,M,Masters 40-46,100,Single-ply,140,,,,140,Daniel Miller,3
B,M,Masters 40-46,110,Single-ply,265,,,,265,Chad Bertelmann,1
B,M,Masters 40-46,110,Single-ply,200,,,,200,Michael Botticelli,2
B,M,Masters 40-46,110,Single-ply,200,,,,200,Fateh Sihota,3
B,M,Masters 40-46,117.5,Single-ply,207.5,,,,207.5,Allen Heisler,1
B,M,Masters 40-46,125,Single-ply,,,,,,David Lewis #4,DQ
B,M,Masters 40-46,140,Single-ply,340,,,,340,Dave Forstner,1
B,M,Masters 40-46,140,Single-ply,,,,,,Robert Vick,DQ
B,M,Masters 47-53,67.5,Single-ply,165,,,,165,Chris Balanga,1
B,M,Masters 47-53,90,Single-ply,197.5,,,,197.5,Darren Carr,1
B,M,Masters 47-53,100,Single-ply,232.5,,,,232.5,John Westleigh,1
B,M,Masters 47-53,100,Single-ply,212.5,,,,212.5,Gary Gulseth,2
B,M,Masters 47-53,100,Single-ply,190,,,,190,Junior Aparecido,3
B,M,Masters 47-53,110,Single-ply,,,,,,Michael Neely,DQ
B,M,Masters 47-53,110,Single-ply,277.5,,,,277.5,James Seaver,1
B,M,Masters 47-53,110,Single-ply,230,,,,230,Lonnie Wilborn,2
B,M,Masters 47-53,110,Single-ply,227.5,,,,227.5,Brant Bishop,3
B,M,Masters 47-53,110,Single-ply,215,,,,215,Juha Pukkila,4
B,M,Masters 47-53,110,Single-ply,205,,,,205,Steven Petersen,5
B,M,Masters 47-53,117.5,Single-ply,247.5,,,,247.5,Mick Quilici,1
B,M,Masters 47-53,125,Single-ply,245,,,,245,David Palmer,1
B,M,Masters 47-53,140,Single-ply,250,,,,250,Scott Bromeisl,1
B,M,Masters 47-53,140,Single-ply,227.5,,,,227.5,Warren Orr,2
B,M,Masters 54-60,60,Single-ply,102.5,,,,102.5,Chetram Mangra,1
B,M,Masters 54-60,67.5,Single-ply,120,,,,120,Dave Constantineau,1
B,M,Masters 54-60,82.5,Single-ply,147.5,,,,147.5,Leamon Woodley,2
B,M,Masters 54-60,82.5,Single-ply,182.5,,,,182.5,Martin Aguirie,1
B,M,Masters 54-60,82.5,Single-ply,122.5,,,,122.5,Pat Young,3
B,M,Masters 54-60,90,Single-ply,217.5,,,,217.5,Jeff Woods,1
B,M,Masters 54-60,90,Single-ply,215,,,,215,Bob Levering,2
B,M,Masters 54-60,100,Single-ply,,,,,,Ed Macauley,DQ
B,M,Masters 54-60,100,Single-ply,,,,,,Don Rygh,DQ
B,M,Masters 54-60,100,Single-ply,272.5,290.5,,,272.5,Kenneth Millrany,1
B,M,Masters 54-60,100,Single-ply,227.5,,,,227.5,Mike Frizzell,2
B,M,Masters 54-60,125,Single-ply,182.5,,,,182.5,Mike Sinner,1
B,M,Masters 54-60,125,Single-ply,142.5,,,,142.5,John Solleder,2
B,M,Masters 54-60,140,Single-ply,297.5,,,,297.5,James Mersberg,1
B,M,Masters 61-67,82.5,Single-ply,147.5,,,,147.5,Paul Janoff,1
B,M,Masters 61-67,90,Single-ply,170,,,,170,Ernest Reyes,1
B,M,Masters 61-67,100,Single-ply,157.5,,,,157.5,Nino Murray,1
B,M,Masters 61-67,110,Single-ply,135,,,,135,Eddie Morgan #1,2
B,M,Masters 61-67,110,Single-ply,200,,,,200,Tom Gonnering,1
B,M,Masters 61-67,117.5,Single-ply,,,,,,Willard Crossen Jr,DQ
B,M,Masters 61-67,117.5,Single-ply,170,,,,170,John Towne,1
B,M,Masters 61-67,125,Single-ply,142.5,,,,142.5,Larry Riskey,1
B,M,Masters 68-74,90,Single-ply,142.5,,,,142.5,Dan Swift,1
B,M,Masters 68-74,90,Single-ply,77.5,,,,77.5,Frank Hammer,2
B,M,Masters 68-74,110,Single-ply,152.5,,,,152.5,Al Williamson,1
B,M,Masters 75-79,90,Single-ply,80,,,,80,John Herbein,1
B,M,Masters 80-84,82.5,Single-ply,82.5,,,,82.5,John McEwen,1
B,M,Masters 80-84,90,Single-ply,137.5,,,,137.5,William Prince,1
B,M,Masters 80-84,125,Single-ply,187.5,,,,187.5,Bob Kehl,1
B,M,Masters 90,75,Single-ply,55,,,,55,Donald Dreyer,2
B,M,Masters 90,75,Single-ply,60,,,,60,Robert Fornachon,1
B,M,Open,52,Single-ply,117.5,,,,117.5,Landon Sakai,1
B,M,Open,82.5,Single-ply,147.5,,,,147.5,Leamon Woodley,3
B,M,Open,82.5,Single-ply,205,,,,205,Daniel Sisneros,1
B,M,Open,82.5,Single-ply,182.5,,,,182.5,Filho Almada,2
B,M,Open,90,Single-ply,215,,,,215,Preston Quinn,4
B,M,Open,90,Single-ply,245,,,,245,Mike Early,1
B,M,Open,90,Single-ply,242.5,,,,242.5,Larry Cox,2
B,M,Open,90,Single-ply,235,,,,235,Jarkko Forss,3
B,M,Open,100,Single-ply,,,,,,Tyler Carlson,DQ
B,M,Open,100,Single-ply,,,,,,Coby Washburn,DQ
B,M,Open,100,Single-ply,272.5,,,,272.5,Kenneth Millrany,1
B,M,Open,100,Single-ply,262.5,,,,262.5,Matthew Arnaldo,2
B,M,Open,100,Single-ply,250,,,,250,Tony Blas,3
B,M,Open,100,Single-ply,190,,,,190,Junior Aparecido,4
B,M,Open,110,Single-ply,147.5,,,,147.5,JC Wright,4
B,M,Open,110,Single-ply,262.5,,,,262.5,Seppo Juntilla,1
B,M,Open,110,Single-ply,230,,,,230,Lonnie Wilborn,2
B,M,Open,110,Single-ply,215,,,,215,Juha Pukkila,3
B,M,Open,117.5,Single-ply,247.5,,,,247.5,Mick Quilici,1
B,M,Open,125,Single-ply,277.5,,,,277.5,Norman Tavares,1
B,M,Open,125,Single-ply,232.5,,,,232.5,River Newman,2
B,M,Open,140,Single-ply,342.5,,,,342.5,Tim Moon,3
B,M,Open,140,Single-ply,340,,,,340,Dave Forstner,4
B,M,Open,140,Single-ply,245,,,,245,Kamuela Wassman,7
B,M,Open,140,Single-ply,,,,,,Doug Gerona,DQ
B,M,Open,140,Single-ply,375,,,,375,Darren Elisaga,1
B,M,Open,140,Single-ply,345,,,,345,Ray Voigt,2
B,M,Open,140,Single-ply,297.5,,,,297.5,James Mersberg,5
B,M,Open,140,Single-ply,250,,,,250,Scott Bromeisl,6
B,M,Submasters 33-39,90,Single-ply,215,,,,215,Preston Quinn,2
B,M,Submasters 33-39,90,Single-ply,297.5,,,,297.5,Jerry Aquino,1
B,M,Submasters 33-39,110,Single-ply,222.5,,,,222.5,Matt Krueger,1
B,M,Submasters 33-39,140,Single-ply,375,,,,375,Darren Elisaga,1
B,M,Submasters 33-39,140,Single-ply,367.5,,,,367.5,Christopher Sutton,2
B,M,Teen 14-15,60,Single-ply,50,,,,50,Jaden Golston,1
B,M,Teen 14-15,75,Single-ply,,,,,,Gabriel Campos,DQ
B,M,Teen 14-15,90,Single-ply,117.5,,,,117.5,Tyler Fields,1
B,M,Teen 14-15,100,Single-ply,95,,,,95,Trevor Meder,1
B,M,Teen 16-17,56,Single-ply,110,,,,110,Justin Berner,1
B,M,Teen 16-17,56,Single-ply,55,,,,55,Julian Kong,2
B,M,Teen 16-17,75,Single-ply,70,,,,70,Jacob Chan,1
B,M,Teen 16-17,82.5,Single-ply,185,,,,185,Drayden-Steele Kawewehi,1
B,M,Teen 16-17,82.5,Single-ply,147.5,,,,147.5,Joshua Olivarez,2
B,M,Teen 16-17,82.5,Single-ply,70,,,,70,Pao-Heng Hsu,3
B,M,Teen 16-17,90,Single-ply,,,,,,Adam O'Sullivan,DQ
B,M,Teen 16-17,100,Single-ply,75,,,,75,Mario Adolfo Valdes-Hernandez,1
B,M,Teen 18-19,67.5,Single-ply,87.5,,,,87.5,Jun Yang,1
B,M,Teen 18-19,75,Single-ply,,,,,,Alex Kovatch,DQ
B,M,Teen 18-19,75,Single-ply,75,,,,75,Pengye Yang,1
B,M,Teen 18-19,75,Single-ply,65,,,,65,Shu Hashimoto,2
B,M,Teen 18-19,100,Single-ply,125,,,,125,Zepeng Lu,1
B,M,Teen 18-19,110,Single-ply,177.5,,,,177.5,Yudai Katsumata,1
D,M,Class 1,67.5,Single-ply,,,200,,200,Dave Constantineau,1
D,M,Class 1,75,Single-ply,,,212.5,,212.5,Noah Andersen,1
D,M,Class 1,90,Single-ply,,,280,,280,Marks Labostrie,1
D,M,Class 1,100,Single-ply,,,222.5,,222.5,Robert Saludares,2
D,M,Class 1,100,Single-ply,,,280,,280,Brian Fahrenfeld,1
D,M,Class 1,110,Single-ply,,,252.5,,252.5,Fateh Sihota,1
D,M,Class 1,117.5,Single-ply,,,232.5,,232.5,Isaac Conde,2
D,M,Class 1,117.5,Single-ply,,,285,,285,Dennis Rolon,1
D,M,Class 1,125,Single-ply,,,237.5,,237.5,River Newman,2
D,M,Class 1,125,Single-ply,,,287.5,,287.5,David Palmer,1
D,M,Class 1,140,Single-ply,,,265,,265,Fred Riccardi,1
D,M,Disabled 1 40-59,100,Single-ply,,,220,,220,Steve Peña #1,1
D,M,Disabled 2 20-39,125,Single-ply,,,227.5,,227.5,Brady Tanner,1
D,M,Disabled 2 40-59,75,Single-ply,,,192.5,,192.5,Chad McFarland,1
D,M,Disabled 2 40-59,82.5,Single-ply,,,200,203,200,Vilmar Oliveira,1
D,M,Disabled 2 40-59,100,Single-ply,,,227.5,,227.5,Reid Solar,1
D,M,Disabled 2 60,100,Single-ply,,,217.5,,217.5,Bob Hafner,1
D,M,Disabled 2 60,140,Single-ply,,,127.5,147.5,127.5,Alan Fraser,1
D,M,Juniors 20-25,67.5,Single-ply,,,272.5,,272.5,Austin Soto,1
D,M,Juniors 20-25,75,Single-ply,,,155,,155,Jimi Kuutti,1
D,M,Juniors 20-25,82.5,Single-ply,,,227.5,,227.5,Joseph LaMattina,2
D,M,Juniors 20-25,82.5,Single-ply,,,300,,300,Luis Alaniz,1
D,M,Juniors 20-25,90,Single-ply,,,240,,240,Ed Young,2
D,M,Juniors 20-25,90,Single-ply,,,250,,250,Jarkko Forss,1
D,M,Juniors 20-25,110,Single-ply,,,240,,240,Renan Moreno,1
D,M,Law-Fire 40-47,100,Single-ply,,,222.5,,222.5,Robert Saludares,1
D,M,Law-Fire 40-47,110,Single-ply,,,252.5,,252.5,Freddy Crosby,1
D,M,Law-Fire 40-47,140,Single-ply,,,250,,250,Tommy Harrison,2
D,M,Law-Fire 40-47,140,Single-ply,,,310,,310,Keoni Reich,1
D,M,Law-Fire 48-55,75,Single-ply,,,197.5,,197.5,Larry Esquivel,1
D,M,Law-Fire 48-55,90,Single-ply,,,205,,205,Frank Lowe,1
D,M,Law-Fire 48-55,117.5,Single-ply,,,260,,260,JC Tolle,1
D,M,Law-Fire 48-55,125,Single-ply,,,207.5,,207.5,Darren Kaleleiki,1
D,M,Law-Fire 56-63,100,Single-ply,,,,,,Mike Frizzell,DQ
D,M,Law-Fire 56-63,110,Single-ply,,,242.5,,242.5,Robert Hanson,1
D,M,Law-Fire Open,90,Single-ply,,,255,,255,Ryan Marble,1
D,M,Law-Fire Open,110,Single-ply,,,242.5,,242.5,Robert Hanson,2
D,M,Law-Fire Open,110,Single-ply,,,252.5,,252.5,Freddy Crosby,1
D,M,Law-Fire Open,140,Single-ply,,,250,,250,Tommy Harrison,2
D,M,Law-Fire Open,140,Single-ply,,,310,,310,Keoni Reich,1
D,M,Masters 40-46,75,Single-ply,,,192.5,,192.5,Chad McFarland,1
D,M,Masters 40-46,100,Single-ply,,,240,,240,Jesse Avila,1
D,M,Masters 40-46,100,Single-ply,,,220,,220,Steve Peña #1,2
D,M,Masters 40-46,110,Single-ply,,,252.5,,252.5,Fateh Sihota,1
D,M,Masters 40-46,117.5,Single-ply,,,272.5,,272.5,Allen Heisler,2
D,M,Masters 40-46,117.5,Single-ply,,,330,,330,Kari Pöntinen,1
D,M,Masters 40-46,125,Single-ply,,,272.5,,272.5,David Lewis #4,1
D,M,Masters 40-46,140,Single-ply,,,305,,305,Dave Forstner,2
D,M,Masters 40-46,140,Single-ply,,,325,,325,Ricardo Nort,1
D,M,Masters 47-53,67.5,Single-ply,,,227.5,,227.5,Chris Balanga,1
D,M,Masters 47-53,90,Single-ply,,,272.5,,272.5,Eddie DiFruscia,1
D,M,Masters 47-53,100,Single-ply,,,220,,220,Junior Aparecido,3
D,M,Masters 47-53,100,Single-ply,,,252.5,,252.5,John Westleigh,2
D,M,Masters 47-53,100,Single-ply,,,300,,300,Tim Sparkes,1
D,M,Masters 47-53,100,Single-ply,,,,,,Gary Gulseth,DQ
D,M,Masters 47-53,110,Single-ply,,,230,,230,Juha Pukkila,3
D,M,Masters 47-53,110,Single-ply,,,250,,250,Steven Petersen,2
D,M,Masters 47-53,110,Single-ply,,,260,,260,Brant Bishop,1
D,M,Masters 47-53,110,Single-ply,,,,,,Michael Neely,DQ
D,M,Masters 47-53,125,Single-ply,,,287.5,,287.5,David Palmer,3
D,M,Masters 47-53,125,Single-ply,,,322.5,,322.5,Terry Putman,2
D,M,Masters 47-53,125,Single-ply,,,350,,350,Patrick Holloway,1
D,M,Masters 47-53,140,Single-ply,,,265,,265,Scott Bromeisl,2
D,M,Masters 47-53,140,Single-ply,,,280,,280,Thomas Guiney,1
D,M,Masters 54-60,60,Single-ply,,,122.5,,122.5,Chetram Mangra,1
D,M,Masters 54-60,67.5,Single-ply,,,200,,200,Dave Constantineau,1
D,M,Masters 54-60,75,Single-ply,,,195,,195,Nino Domingo,1
D,M,Masters 54-60,82.5,Single-ply,,,265,,265,Leamon Woodley,1
D,M,Masters 54-60,82.5,Single-ply,,,197.5,,197.5,Pat Young,2
D,M,Masters 54-60,90,Single-ply,,,320,,320,Tom Eiseman,1
D,M,Masters 54-60,100,Single-ply,,,,,,Mike Frizzell,DQ
D,M,Masters 54-60,100,Single-ply,,,227.5,,227.5,Reid Solar,1
D,M,Masters 54-60,125,Single-ply,,,300,,300,Tom Pennella,1
D,M,Masters 54-60,140,Single-ply,,,227.5,,227.5,James Mersberg,1
D,M,Masters 61-67,75,Single-ply,,,207.5,,207.5,John Clay #2,1
D,M,Masters 61-67,75,Single-ply,,,205,,205,Richard Cirigliano,2
D,M,Masters 61-67,82.5,Single-ply,,,192.5,,192.5,Stuart Coogan,1
D,M,Masters 61-67,100,Single-ply,,,217.5,,217.5,Bob Hafner,1
D,M,Masters 61-67,110,Single-ply,,,277.5,,277.5,Eddie Morgan #1,1
D,M,Masters 61-67,110,Single-ply,,,275,,275,Ron L'Huillier,2
D,M,Masters 61-67,117.5,Single-ply,,,247.5,,247.5,Willard Crossen Jr,1
D,M,Masters 68-74,75,Single-ply,,,175,,175,James Christian #1,1
D,M,Masters 68-74,90,Single-ply,,,160,,160,Frank Hammer,1
D,M,Masters 68-74,110,Single-ply,,,197.5,,197.5,Al Williamson,1
D,M,Masters 75-79,90,Single-ply,,,182.5,,182.5,John Herbein,1
D,M,Masters 80-84,82.5,Single-ply,,,165,,165,Ron Ringewold,1
D,M,Masters 85-89,90,Single-ply,,,165,,165,William Leedy,1
D,M,Masters 90,75,Single-ply,,,65,,65,Donald Dreyer,1
D,M,Open,52,Single-ply,,,170,,170,Landon Sakai,1
D,M,Open,75,Single-ply,,,207.5,,207.5,John Clay #2,1
D,M,Open,75,Single-ply,,,155,,155,Jimi Kuutti,2
D,M,Open,82.5,Single-ply,,,265,,265,Leamon Woodley,1
D,M,Open,82.5,Single-ply,,,217.5,,217.5,Daniel Sisneros,2
D,M,Open,90,Single-ply,,,320,,320,Tom Eiseman,1
D,M,Open,90,Single-ply,,,272.5,,272.5,Eddie DiFruscia,2
D,M,Open,90,Single-ply,,,255,,255,Ryan Marble,3
D,M,Open,90,Single-ply,,,250,,250,Jarkko Forss,4
D,M,Open,90,Single-ply,,,230,,230,Preston Quinn,5
D,M,Open,100,Single-ply,,,300,,300,Tim Sparkes,1
D,M,Open,100,Single-ply,,,272.5,,272.5,Tyler Carlson,2
D,M,Open,100,Single-ply,,,220,,220,Junior Aparecido,3
D,M,Open,110,Single-ply,,,312.5,,312.5,JC Wright,1
D,M,Open,110,Single-ply,,,240,,240,Renan Moreno,2
D,M,Open,110,Single-ply,,,230,,230,Juha Pukkila,3
D,M,Open,117.5,Single-ply,,,330,,330,Kari Pöntinen,1
D,M,Open,125,Single-ply,,,322.5,,322.5,Terry Putman,1
D,M,Open,125,Single-ply,,,237.5,,237.5,River Newman,2
D,M,Open,140,Single-ply,,,305,,305,Dave Forstner,3
D,M,Open,140,Single-ply,,,315,,315,Kamuela Wassman,2
D,M,Open,140,Single-ply,,,255,,255,Ray Voigt,4
D,M,Open,140,Single-ply,,,325,,325,Ricardo Nort,1
D,M,Submasters 33-39,75,Single-ply,,,260,,260,Ryan Snelling,1
D,M,Submasters 33-39,90,Single-ply,,,230,,230,Preston Quinn,1
D,M,Submasters 33-39,100,Single-ply,,,247.5,,247.5,Dennis Schmidt,1
D,M,Submasters 33-39,110,Single-ply,,,317.5,,317.5,Matt Krueger,1
D,M,Teen 14-15,60,Single-ply,,,105,,105,Jaden Golston,1
D,M,Teen 14-15,100,Single-ply,,,137.5,,137.5,Trevor Meder,1
D,M,Teen 16-17,56,Single-ply,,,165,,165,Justin Berner,1
D,M,Teen 16-17,56,Single-ply,,,120,,120,Julian Kong,2
D,M,Teen 16-17,75,Single-ply,,,152.5,,152.5,Jacob Chan,1
D,M,Teen 16-17,82.5,Single-ply,,,237.5,,237.5,Joshua Olivarez,1
D,M,Teen 16-17,82.5,Single-ply,,,212.5,,212.5,Drayden-Steele Kawewehi,2
D,M,Teen 16-17,82.5,Single-ply,,,170,,170,Pao-Heng Hsu,3
D,M,Teen 16-17,100,Single-ply,,,175,,175,Mario Adolfo Valdes-Hernandez,1
D,M,Teen 18-19,67.5,Single-ply,,,182.5,,182.5,Jun Yang,1
D,M,Teen 18-19,75,Single-ply,,,235,,235,Alex Kovatch,1
D,M,Teen 18-19,75,Single-ply,,,155,,155,Pengye Yang,2
D,M,Teen 18-19,75,Single-ply,,,125,,125,Shu Hashimoto,3
D,M,Teen 18-19,110,Single-ply,,,257.5,,257.5,Yudai Katsumata,1
D,M,Teen 18-19,110,Single-ply,,,255,,255,Marcos Garza,2
BD,M,Class 1,67.5,Single-ply,120,,200,,320,Dave Constantineau,1
BD,M,Class 1,117.5,Single-ply,202.5,,285,,487.5,Dennis Rolon,1
BD,M,Class 1,125,Single-ply,232.5,,237.5,,470,River Newman,2
BD,M,Class 1,125,Single-ply,245,,287.5,,532.5,David Palmer,1
BD,M,Disabled 1 40-59,100,Single-ply,215,,220,,435,Steve Peña #1,1
BD,M,Disabled 2 20-39,125,Single-ply,187.5,,227.5,,415,Brady Tanner,1
BD,M,Juniors 20-25,67.5,Single-ply,147.5,,272.5,,420,Austin Soto,1
BD,M,Juniors 20-25,82.5,Single-ply,197.5,,227.5,,425,Joseph LaMattina,2
BD,M,Juniors 20-25,82.5,Single-ply,217.5,,300,,517.5,Luis Alaniz,1
BD,M,Juniors 20-25,90,Single-ply,182.5,,240,,422.5,Ed Young,2
BD,M,Juniors 20-25,90,Single-ply,235,,250,,485,Jarkko Forss,1
BD,M,Law-Fire 40-47,100,Single-ply,182.5,,222.5,,405,Robert Saludares,1
BD,M,Law-Fire 40-47,110,Single-ply,280,,252.5,,532.5,Freddy Crosby,1
BD,M,Law-Fire 40-47,140,Single-ply,255,,310,,565,Keoni Reich,1
BD,M,Law-Fire 48-55,117.5,Single-ply,,,260,,,JC Tolle,DQ
BD,M,Law-Fire 48-55,125,Single-ply,227.5,,207.5,,435,Darren Kaleleiki,1
BD,M,Law-Fire 56-63,100,Single-ply,227.5,,,,,Mike Frizzell,DQ
BD,M,Law-Fire Open,90,Single-ply,307.5,,255,,562.5,Ryan Marble,1
BD,M,Law-Fire Open,110,Single-ply,280,,252.5,,532.5,Freddy Crosby,1
BD,M,Law-Fire Open,140,Single-ply,255,,310,,565,Keoni Reich,1
BD,M,Masters 40-46,100,Single-ply,215,,220,,435,Steve Peña #1,2
BD,M,Masters 40-46,100,Single-ply,222.5,,240,,462.5,Jesse Avila,1
BD,M,Masters 40-46,117.5,Single-ply,207.5,,272.5,,480,Allen Heisler,1
BD,M,Masters 40-46,140,Single-ply,340,,305,,645,Dave Forstner,1
BD,M,Masters 47-53,67.5,Single-ply,165,,227.5,,392.5,Chris Balanga,1
BD,M,Masters 47-53,100,Single-ply,212.5,,,,,Gary Gulseth,DQ
BD,M,Masters 47-53,100,Single-ply,232.5,,252.5,,485,John Westleigh,1
BD,M,Masters 47-53,110,Single-ply,,,,,,Michael Neely,DQ
BD,M,Masters 47-53,110,Single-ply,215,,230,,445,Juha Pukkila,3
BD,M,Masters 47-53,110,Single-ply,205,,250,,455,Steven Petersen,2
BD,M,Masters 47-53,110,Single-ply,227.5,,260,,487.5,Brant Bishop,1
BD,M,Masters 47-53,125,Single-ply,245,,287.5,,532.5,David Palmer,1
BD,M,Masters 47-53,140+,Single-ply,250,,265,,515,Scott Bromeisl,1
BD,M,Masters 54-60,67.5,Single-ply,120,,200,,320,Dave Constantineau,1
BD,M,Masters 54-60,82.5,Single-ply,147.5,,265,,412.5,Leamon Woodley,1
BD,M,Masters 54-60,100,Single-ply,227.5,,,,,Mike Frizzell,DQ
BD,M,Masters 54-60,140+,Single-ply,297.5,,227.5,,525,James Mersberg,1
BD,M,Masters 61-67,110,Single-ply,135,,277.5,,412.5,Eddie Morgan #1,1
BD,M,Masters 61-67,117.5,Single-ply,,,247.5,,,Willard Crossen Jr,DQ
BD,M,Masters 68-74,90,Single-ply,77.5,,160,,237.5,Frank Hammer,1
BD,M,Masters 75-79,90,Single-ply,80,,182.5,,262.5,John Herbein,1
BD,M,Masters 90,75,Single-ply,55,,65,,120,Donald Dreyer,1
BD,M,Open,52,Single-ply,117.5,,170,,287.5,Landon Sakai,1
BD,M,Open,82.5,Single-ply,147.5,,265,,412.5,Leamon Woodley,1
BD,M,Open,90,Single-ply,215,,230,,445,Preston Quinn,2
BD,M,Open,90,Single-ply,235,,250,,485,Jarkko Forss,1
BD,M,Open,100,Single-ply,,,272.5,,,Tyler Carlson,DQ
BD,M,Open,110,Single-ply,215,,230,,445,Juha Pukkila,2
BD,M,Open,110,Single-ply,147.5,,312.5,,460,JC Wright,1
BD,M,Open,140,Single-ply,245,,315,,560,Kamuela Wassman,2
BD,M,Open,140,Single-ply,340,,305,,645,Dave Forstner,1
BD,M,Open,140+,Single-ply,345,,255,,600,Ray Voigt,1
BD,M,Submasters 33-39,90,Single-ply,215,,230,,445,Preston Quinn,1
BD,M,Submasters 33-39,110,Single-ply,222.5,,317.5,,540,Matt Krueger,1
BD,M,Teen 14-15,60,Single-ply,50,,105,,155,Jaden Golston,1
BD,M,Teen 14-15,100,Single-ply,95,,137.5,,232.5,Trevor Meder,1
BD,M,Teen 16-17,56,Single-ply,55,,120,,175,Julian Kong,1
BD,M,Teen 16-17,75,Single-ply,70,,152.5,,222.5,Jacob Chan,1
BD,M,Teen 16-17,82.5,Single-ply,185,,212.5,,397.5,Drayden-Steele Kawewehi,1
BD,M,Teen 16-17,82.5,Single-ply,147.5,,237.5,,385,Joshua Olivarez,2
BD,M,Teen 16-17,82.5,Single-ply,70,,170,,240,Pao-Heng Hsu,3
BD,M,Teen 16-17,100,Single-ply,75,,175,,250,Mario Adolfo Valdes-Hernandez,1
BD,M,Teen 18-19,67.5,Single-ply,87.5,,182.5,,270,Jun Yang,1
BD,M,Teen 18-19,75,Single-ply,75,,155,,230,Pengye Yang,1
BD,M,Teen 18-19,75,Single-ply,65,,125,,190,Shu Hashimoto,2
BD,M,Teen 18-19,75,Single-ply,,,235,,,Alex Kovatch,DQ
BD,M,Teen 18-19,110,Single-ply,177.5,,257.5,,435,Yudai Katsumata,1
B,M,Class 1,75,Multi-ply,182.5,,,,182.5,Dinesh Mangra,1
B,M,Class 1,75,Multi-ply,140,,,,140,Noah Andersen,2
B,M,Class 1,75,Multi-ply,132.5,,,,132.5,Francisco Garcia,3
B,M,Class 1,100,Multi-ply,140,,,,140,Eloy Ambriz,1
B,M,Disabled 2 60,90,Multi-ply,86,86.5,,,86,Alfred Franke,1
B,M,Juniors 20-25,110,Multi-ply,240,,,,240,Renan Moreno,1
B,M,Law-Fire 40-47,100,Multi-ply,257.5,,,,257.5,Charles Farmer,1
B,M,Law-Fire 40-47,140,Multi-ply,320,,,,320,Tommy Harrison,1
B,M,Law-Fire 48-55,82.5,Multi-ply,162.5,,,,162.5,Michael Ioannou,1
B,M,Law-Fire 56-63,90,Multi-ply,157.5,,,,157.5,William Denniston,1
B,M,Law-Fire 56-63,140,Multi-ply,132.5,,,,132.5,Michal Johnson,1
B,M,Law-Fire 64+,60,Multi-ply,125,,,,125,Gary Miller #2,1
B,M,Law-Fire Open,140,Multi-ply,320,,,,320,Tommy Harrison,1
B,M,Masters 40-46,125,Multi-ply,230,,,,230,Jani Toivo Kristian Ihalainen,1
B,M,Masters 40-46,125,Multi-ply,205,,,,205,Harjit Kumar,2
B,M,Masters 40-46,140,Multi-ply,272.5,,,,272.5,Jeremiah Johnson #3,1
B,M,Masters 47-53,75,Multi-ply,142.5,,,,142.5,Keith Cunningham,1
B,M,Masters 47-53,100,Multi-ply,160,,,,160,Marcelo Puga,1
B,M,Masters 47-53,117.5,Multi-ply,227.5,,,,227.5,Nick Massey,1
B,M,Masters 54-60,82.5,Multi-ply,162.5,,,,162.5,Michael Ioannou,1
B,M,Masters 54-60,100,Multi-ply,220,,,,220,James Noblit,1
B,M,Masters 54-60,117.5,Multi-ply,207.5,,,,207.5,Jim Presley,1
B,M,Masters 54-60,140,Multi-ply,,,,,,Joe Mickelson,DQ
B,M,Masters 61-67,60,Multi-ply,125,,,,125,Gary Miller #2,1
B,M,Masters 61-67,67.5,Multi-ply,192.5,,,,192.5,Alfredo Evangelista,1
B,M,Masters 61-67,90,Multi-ply,157.5,,,,157.5,William Denniston,1
B,M,Masters 61-67,110,Multi-ply,80,,,,80,William B Caughey,1
B,M,Masters 68-74,75,Multi-ply,120,,,,120,Gary Witzel,1
B,M,Open,67.5,Multi-ply,192.5,,,,192.5,Alfredo Evangelista,1
B,M,Open,90,Multi-ply,280,,,,280,Simon Kankkonen,1
B,M,Open,100,Multi-ply,265,,,,265,Kalle Räsänen,1
B,M,Open,110,Multi-ply,240,,,,240,Renan Moreno,1
B,M,Open,117.5,Multi-ply,227.5,,,,227.5,Nick Massey,1
B,M,Open,117.5,Multi-ply,207.5,,,,207.5,Jim Presley,2
B,M,Open,125,Multi-ply,,,,,,Harjit Kumar,DQ
B,M,Open,125,Multi-ply,230,,,,230,Jani Toivo Kristian Ihalainen,1
B,M,Open,140,Multi-ply,,,,,,Joe Mickelson,DQ
B,M,Submasters 33-39,90,Multi-ply,177.5,,,,177.5,Jackson Jones,1
B,M,Submasters 33-39,125,Multi-ply,155,,,,155,Stephen Mace,1
B,M,Teen 16-17,75,Multi-ply,132.5,,,,132.5,Francisco Garcia,1
D,M,Class 1,67.5,Multi-ply,,,182.5,,182.5,Jeremiah Head,1
D,M,Class 1,75,Multi-ply,,,207.5,210,207.5,Francisco Garcia,1
D,M,Class 1,100,Multi-ply,,,182.5,,182.5,Eloy Ambriz,1
D,M,Disabled 2 60,90,Multi-ply,,,112.5,114,112.5,Alfred Franke,1
D,M,Law-Fire 40-47,100,Multi-ply,,,287.5,,287.5,Charles Farmer,1
D,M,Law-Fire 48-55,90,Multi-ply,,,260,,260,Dan Guches,1
D,M,Law-Fire 56-63,82.5,Multi-ply,,,237.5,,237.5,Charles McFarland,1
D,M,Law-Fire 56-63,140,Multi-ply,,,212.5,,212.5,Michal Johnson,1
D,M,Law-Fire 64+,60,Multi-ply,,,160,,160,Gary Miller #2,1
D,M,Law-Fire Open,100,Multi-ply,,,140,,140,Manny Burruel,1
D,M,Masters 40-46,82.5,Multi-ply,,,260,,260,Ben Dehghan,1
D,M,Masters 40-46,125,Multi-ply,,,272.5,,272.5,Jani Toivo Kristian Ihalainen,1
D,M,Masters 40-46,140,Multi-ply,,,272.5,295,272.5,Jeremiah Johnson #3,1
D,M,Masters 47-53,75,Multi-ply,,,220,,220,Keith Cunningham,1
D,M,Masters 47-53,100,Multi-ply,,,227.5,,227.5,Marcelo Puga,1
D,M,Masters 47-53,117.5,Multi-ply,,,237.5,,237.5,Nick Massey,1
D,M,Masters 54-60,90,Multi-ply,,,260,,260,Dan Guches,1
D,M,Masters 54-60,100,Multi-ply,,,172.5,,172.5,James Noblit,1
D,M,Masters 54-60,117.5,Multi-ply,,,212.5,217.5,212.5,Jim Presley,1
D,M,Masters 54-60,140,Multi-ply,,,227.5,,227.5,Joe Mickelson,1
D,M,Masters 61-67,60,Multi-ply,,,160,,160,Gary Miller #2,1
D,M,Masters 61-67,67.5,Multi-ply,,,212.5,,212.5,Alfredo Evangelista,1
D,M,Masters 61-67,82.5,Multi-ply,,,237.5,,237.5,Charles McFarland,1
D,M,Masters 61-67,100,Multi-ply,,,140,142.5,140,Manny Burruel,1
D,M,Masters 61-67,110,Multi-ply,,,127.5,,127.5,William B Caughey,1
D,M,Masters 68-74,75,Multi-ply,,,142.5,,142.5,Gary Witzel,1
D,M,Open,67.5,Multi-ply,,,212.5,,212.5,Alfredo Evangelista,1
D,M,Open,100,Multi-ply,,,340,,340,Kalle Räsänen,1
D,M,Open,117.5,Multi-ply,,,237.5,,237.5,Nick Massey,1
D,M,Open,117.5,Multi-ply,,,212.5,217.5,212.5,Jim Presley,2
D,M,Open,125,Multi-ply,,,272.5,,272.5,Jani Toivo Kristian Ihalainen,1
D,M,Open,140,Multi-ply,,,227.5,,227.5,Joe Mickelson,1
D,M,Submasters 33-39,125,Multi-ply,,,272.5,,272.5,Stephen Mace,1
D,M,Teen 16-17,67.5,Multi-ply,,,182.5,,182.5,Jeremiah Head,1
D,M,Teen 16-17,75,Multi-ply,,,207.5,,207.5,Francisco Garcia,1
BD,M,Law-Fire 40-47,100,Multi-ply,257.5,,287.5,,545,Charles Farmer,1
BD,M,Law-Fire 64+,60,Multi-ply,125,,160,,285,Gary Miller #2,1
BD,M,Masters 40-46,125,Multi-ply,230,,272.5,,502.5,Jani Toivo Kristian Ihalainen,1
BD,M,Masters 40-46,140,Multi-ply,272.5,,272.5,,545,Jeremiah Johnson #3,1
BD,M,Masters 47-53,75,Multi-ply,142.5,,220,,362.5,Keith Cunningham,1
BD,M,Masters 47-53,100,Multi-ply,160,,227.5,,387.5,Marcelo Puga,1
BD,M,Masters 47-53,117.5,Multi-ply,227.5,,237.5,,465,Nick Massey,1
BD,M,Masters 54-60,100,Multi-ply,220,,172.5,,392.5,James Noblit,1
BD,M,Masters 54-60,117.5,Multi-ply,207.5,,212.5,,420,Jim Presley,1
BD,M,Masters 54-60,140+,Multi-ply,,,227.5,,,Joe Mickelson,DQ
BD,M,Masters 61-67,60,Multi-ply,125,,160,,285,Gary Miller #2,1
BD,M,Masters 61-67,67.5,Multi-ply,192.5,,212.5,,405,Alfredo Evangelista,1
BD,M,Masters 61-67,110,Multi-ply,80,,127.5,,207.5,William B Caughey,1
BD,M,Masters 68-74,75,Multi-ply,120,,142.5,,262.5,Gary Witzel,1
BD,M,Open,67.5,Multi-ply,192.5,,212.5,,405,Alfredo Evangelista,1
BD,M,Open,100,Multi-ply,265,,340,,605,Kalle Räsänen,1
BD,M,Open,117.5,Multi-ply,207.5,,212.5,,420,Jim Presley,2
BD,M,Open,117.5,Multi-ply,227.5,,237.5,,465,Nick Massey,1
BD,M,Open,125,Multi-ply,230,,272.5,,502.5,Jani Toivo Kristian Ihalainen,1
BD,M,Open,140+,Multi-ply,,,227.5,,,Joe Mickelson,DQ
BD,M,Submasters 33-39,125,Multi-ply,155,,272.5,,427.5,Stephen Mace,1
B,M,Class 1,75,Raw,107.5,,,,107.5,Kwame Pollard,1
B,M,Class 1,82.5,Raw,125,,,,125,Matt Hanlon,1
B,M,Class 1,82.5,Raw,115,,,,115,Tanner Bogart,2
B,M,Class 1,100,Raw,125,,,,125,Zach Harris,3
B,M,Class 1,100,Raw,110,,,,110,Jorge Sierra,4
B,M,Class 1,100,Raw,147.5,,,,147.5,Joseph Karamatic,1
B,M,Class 1,100,Raw,142.5,,,,142.5,Sam Devedjian,2
B,M,Class 1,117.5,Raw,227.5,,,,227.5,Bruce Mamea,1
B,M,Class 1,117.5,Raw,150,,,,150,Jesse Migliori,2
B,M,Class 1,117.5,Raw,147.5,,,,147.5,Isaac Conde,3
B,M,Class 1,117.5,Raw,115,,,,115,Billy Caughey,4
B,M,Class 1,125,Raw,182.5,,,,182.5,Desmond Coleman,2
B,M,Class 1,125,Raw,200,,,,200,Chase Ulrick,1
B,M,Disabled 1 13-19,67.5,Raw,62.5,,,,62.5,Clarence Kehres,1
B,M,Disabled 1 20-39,100,Raw,167.5,,,,167.5,Benjamin Bleskin,1
B,M,Disabled 1 40-59,100,Raw,,,,,,Seth Reardon,DQ
B,M,Disabled 2 40-59,82.5,Raw,120,,,,120,Vilmar Oliveira,1
B,M,Juniors 20-25,60,Raw,107.5,,,,107.5,Fabriano Mariscal,1
B,M,Juniors 20-25,75,Raw,125,,,,125,Ezequiel De Simone,1
B,M,Juniors 20-25,82.5,Raw,140,,,,140,Patrick Keogh,1
B,M,Juniors 20-25,82.5,Raw,117.5,,,,117.5,Steven Bassetti,2
B,M,Juniors 20-25,82.5,Raw,110,,,,110,Brett Robinson,3
B,M,Juniors 20-25,82.5,Raw,107.5,,,,107.5,James King,4
B,M,Juniors 20-25,82.5,Raw,95,,,,95,Braden Jensen,5
B,M,Juniors 20-25,90,Raw,170,,,,170,Kyle Francescatti,1
B,M,Juniors 20-25,90,Raw,150,,,,150,Johnny De Leon,2
B,M,Juniors 20-25,90,Raw,110,,,,110,Cody Mondeau,3
B,M,Juniors 20-25,100,Raw,150,,,,150,Joseph Karamatic,1
B,M,Juniors 20-25,110,Raw,140,,,,140,Mitch Bellon,1
B,M,Juniors 20-25,125,Raw,172.5,,,,172.5,Oscar Rivero,1
B,M,Juniors 20-25,140,Raw,220,,,,220,Walter Kupihe,1
B,M,Juniors 20-25,140,Raw,145,,,,145,Donald Loew,2
B,M,Law-Fire 40-47,90,Raw,165,,,,165,Jason Smith,1
B,M,Law-Fire 40-47,100,Raw,147.5,,,,147.5,Nick Berriman,1
B,M,Law-Fire 40-47,100,Raw,125,,,,125,David Chadwick,2
B,M,Law-Fire 40-47,117.5,Raw,182.5,,,,182.5,Flip Silva Jr,1
B,M,Law-Fire 48-55,110,Raw,150,,,,150,Amado Monzon,1
B,M,Law-Fire 48-55,125,Raw,,,,,,Eric Jones,DQ
B,M,Law-Fire 56-63,117.5,Raw,137.5,,,,137.5,Donald Bryant,1
B,M,Law-Fire Open,117.5,Raw,182.5,,,,182.5,Flip Silva Jr,1
B,M,Masters 40-46,75,Raw,150,,,,150,David R Smith,1
B,M,Masters 40-46,82.5,Raw,170,,,,170,Chad Medina,1
B,M,Masters 40-46,100,Raw,217.5,,,,217.5,James Kelly,1
B,M,Masters 40-46,100,Raw,172.5,,,,172.5,Byron Fletcher,2
B,M,Masters 40-46,100,Raw,165,,,,165,Chris Bohenek,3
B,M,Masters 40-46,110,Raw,175,,,,175,Kim Päivöke,1
B,M,Masters 40-46,140,Raw,220,,,,220,Ricardo Nort,1
B,M,Masters 47-53,60,Raw,52.5,,,,52.5,Gustavo Almada,1
B,M,Masters 47-53,82.5,Raw,155,,,,155,Jon Cunningham,1
B,M,Masters 47-53,90,Raw,182.5,,,,182.5,Louie Mansanas,1
B,M,Masters 47-53,90,Raw,165,,,,165,Jason Smith,2
B,M,Masters 47-53,90,Raw,152.5,,,,152.5,Chris Hatley,3
B,M,Masters 47-53,90,Raw,122.5,,,,122.5,Carlos Martinez,4
B,M,Masters 47-53,100,Raw,227.5,,,,227.5,James Hunter,1
B,M,Masters 47-53,110,Raw,180,,,,180,Marcelo Schneider,1
B,M,Masters 47-53,140,Raw,217.5,,,,217.5,DeWitt Martin Jr,1
B,M,Masters 54-60,75,Raw,110,,,,110,Nino Domingo,1
B,M,Masters 54-60,75,Raw,100,,,,100,Brian Thomas,2
B,M,Masters 54-60,82.5,Raw,130,,,,130,Joel Korotkin,1
B,M,Masters 54-60,100,Raw,102.5,,,,102.5,Eugene Merrill,1
B,M,Masters 54-60,110,Raw,142.5,,,,142.5,James Murphy,1
B,M,Masters 54-60,125,Raw,182.5,,,,182.5,Nick Frazzetta,1
B,M,Masters 54-60,125,Raw,180,,,,180,Eric Jones,2
B,M,Masters 61-67,82.5,Raw,130,,,,130,Ed Regwa,1
B,M,Masters 61-67,117.5,Raw,100,,,,100,Tom Matlock,1
B,M,Masters 61-67,125,Raw,132.5,,,,132.5,Tom Morgan,2
B,M,Masters 61-67,125,Raw,197.5,,,,197.5,Forest Hofer,1
B,M,Masters 68-74,82.5,Raw,92.5,,,,92.5,Bob Hochstein,1
B,M,Masters 68-74,82.5,Raw,87.5,,,,87.5,Tom Haggenmiller,2
B,M,Masters 68-74,110,Raw,140,,,,140,Daniel Smith III,1
B,M,Masters 75-79,82.5,Raw,87.5,,,,87.5,Mike Haigwood,2
B,M,Masters 75-79,82.5,Raw,115,,,,115,Ed Angstrom,1
B,M,Masters 75-79,90,Raw,97.5,,,,97.5,Arnold Pereza,1
B,M,Masters 80-84,75,Raw,67.5,,,,67.5,Charles Vause,1
B,M,Masters 80-84,90,Raw,77.5,,,,77.5,Joseph Di Gregorio,1
B,M,Masters 80-84,100,Raw,122.5,,,,122.5,Johnny Yong,1
B,M,Masters 85-89,82.5,Raw,62.5,,,,62.5,Cleophus Scrutchions,1
B,M,Masters 90,82.5,Raw,45,,,,45,Rodney Graves,1
B,M,Open,75,Raw,125,,,,125,Justin Rhoads,1
B,M,Open,75,Raw,125,,,,125,Ezequiel De Simone,2
B,M,Open,75,Raw,110,,,,110,Karter Brachear,3
B,M,Open,75,Raw,107.5,,,,107.5,Kwame Pollard,4
B,M,Open,90,Raw,197.5,,,,197.5,Jermaine Lyles,1
B,M,Open,90,Raw,182.5,,,,182.5,Cody Coffey,2
B,M,Open,90,Raw,172.5,,,,172.5,Max Panziera,3
B,M,Open,90,Raw,170,,,,170,Kyle Francescatti,4
B,M,Open,90,Raw,160,,,,160,Charlen Luz,5
B,M,Open,90,Raw,142.5,,,,142.5,Joshep Nacarro Faraud,6
B,M,Open,100,Raw,227.5,,,,227.5,James Hunter,1
B,M,Open,100,Raw,217.5,,,,217.5,James Kelly,2
B,M,Open,100,Raw,192.5,,,,192.5,Sami Harju,3
B,M,Open,100,Raw,175,,,,175,Cephas McTizic,4
B,M,Open,100,Raw,172.5,,,,172.5,Byron Fletcher,5
B,M,Open,100,Raw,165,,,,165,Chris Bohenek,6
B,M,Open,100,Raw,160,,,,160,Bill Corbin,7
B,M,Open,100,Raw,140,,,,140,Daniel Miller,8
B,M,Open,110,Raw,215,,,,215,Scotty Clark,1
B,M,Open,110,Raw,180,,,,180,Marcelo Schneider,2
B,M,Open,110,Raw,175,,,,175,Kim Päivöke,3
B,M,Open,110,Raw,172.5,,,,172.5,Donovan Ballo,4
B,M,Open,110,Raw,140,,,,140,Makila Antero,5
B,M,Open,117.5,Raw,210,,,,210,Calvin Wren,1
B,M,Open,125,Raw,197.5,,,,197.5,Forest Hofer,1
B,M,Open,125,Raw,172.5,,,,172.5,Oscar Rivero,2
B,M,Open,140,Raw,220,,,,220,Ricardo Nort,1
B,M,Submasters 33-39,82.5,Raw,125,,,,125,Humberto Rodriguez,1
B,M,Submasters 33-39,90,Raw,,,,,,Jack Rogers,DQ
B,M,Submasters 33-39,90,Raw,197.5,,,,197.5,Jermaine Lyles,1
B,M,Submasters 33-39,90,Raw,160,,,,160,Charlen Luz,2
B,M,Submasters 33-39,100,Raw,,,,,,Atte Poikonen,DQ
B,M,Submasters 33-39,100,Raw,215,,,,215,Percy Colvin,1
B,M,Submasters 33-39,100,Raw,160,,,,160,Mariano Miravalles,2
B,M,Submasters 33-39,110,Raw,215,,,,215,Scotty Clark,1
B,M,Submasters 33-39,110,Raw,140,,,,140,Makila Antero,2
B,M,Submasters 33-39,117.5,Raw,227.5,,,,227.5,Bruce Mamea,1
B,M,Submasters 33-39,117.5,Raw,210,,,,210,Calvin Wren,2
B,M,Submasters 33-39,140,Raw,242.5,,,,242.5,Mike McElroy,1
B,M,Submasters 33-39,140,Raw,192.5,,,,192.5,Sean Powell,2
B,M,Teen 12-13,48,Raw,27.5,,,,27.5,Colby Helms,1
B,M,Teen 12-13,82.5,Raw,50,,,,50,Will Bishop,1
B,M,Teen 12-13,125,Raw,72.5,,,,72.5,Robert Vick Jr,1
B,M,Teen 12-13,44,Raw,27.5,,,,27.5,Billy Farmer,1
B,M,Teen 14-15,60,Raw,70,,,,70,Rafael Cora,1
B,M,Teen 14-15,67.5,Raw,97.5,,,,97.5,Kaison Uehara,1
B,M,Teen 14-15,67.5,Raw,75,,,,75,Tristan Lin,2
B,M,Teen 14-15,90,Raw,65,,,,65,Armani Katzman,1
B,M,Teen 14-15,44,Raw,32.5,,,,32.5,Kurt Schindele,1
B,M,Teen 16-17,56,Raw,50,,,,50,Tyler Farmer,1
B,M,Teen 16-17,75,Raw,120,,,,120,Lexington Young,1
B,M,Teen 16-17,100,Raw,140,,,,140,Dahlton Franco,1
B,M,Teen 18-19,75,Raw,110,,,,110,Karter Brachear,1
B,M,Teen 18-19,75,Raw,97.5,,,,97.5,Brandon Manteca,2
B,M,Teen 18-19,90,Raw,175,,,,175,Jamison Faith,1
B,M,Teen 18-19,110,Raw,145,,,,145,Marcos Garza,1
B,M,Teen 18-19,117.5,Raw,122.5,,,,122.5,Jarome Torres,1
D,M,Class 1,75,Raw,,,180,,180,Kwame Pollard,1
D,M,Class 1,82.5,Raw,,,210,,210,Leon DeLeon,2
D,M,Class 1,82.5,Raw,,,210,,210,Matteo Novelo,3
D,M,Class 1,82.5,Raw,,,250,,250,Matt Hanlon,1
D,M,Class 1,100,Raw,,,217.5,,217.5,Joseph Karamatic,3
D,M,Class 1,100,Raw,,,227.5,,227.5,Jorge Sierra,2
D,M,Class 1,100,Raw,,,277.5,,277.5,Drake Kuehn,1
D,M,Class 1,100,Raw,,,217.5,,217.5,Zach Harris,4
D,M,Class 1,117.5,Raw,,,232.5,,232.5,Billy Caughey,1
D,M,Class 1,125,Raw,,,285,,285,Chase Ulrick,1
D,M,Class 1,125,Raw,,,285,,285,Desmond Coleman,2
D,M,Class 1,140,Raw,,,285,,285,Jason Sacre,1
D,M,Disabled 1 13-19,67.5,Raw,,,125,,125,Clarence Kehres,1
D,M,Juniors 20-25,60,Raw,,,192.5,,192.5,Fabriano Mariscal,1
D,M,Juniors 20-25,75,Raw,,,195,,195,Rahfee Washington,2
D,M,Juniors 20-25,75,Raw,,,225,,225,Ezequiel De Simone,1
D,M,Juniors 20-25,82.5,Raw,,,202.5,,202.5,Brett Robinson,4
D,M,Juniors 20-25,82.5,Raw,,,210,,210,Steven Bassetti,2
D,M,Juniors 20-25,82.5,Raw,,,210,,210,Braden Jensen,3
D,M,Juniors 20-25,82.5,Raw,,,237.5,,237.5,Patrick Keogh,1
D,M,Juniors 20-25,90,Raw,,,215,,215,Cody Mondeau,3
D,M,Juniors 20-25,90,Raw,,,237.5,,237.5,Johnny De Leon,2
D,M,Juniors 20-25,90,Raw,,,257.5,,257.5,Kyle Francescatti,1
D,M,Juniors 20-25,100,Raw,,,225,,225,Sam Devedjian,1
D,M,Juniors 20-25,100,Raw,,,217.5,,217.5,Joseph Karamatic,2
D,M,Juniors 20-25,110,Raw,,,245,,245,Mitch Bellon,1
D,M,Juniors 20-25,125,Raw,,,250,260,250,Oscar Rivero,1
D,M,Juniors 20-25,140,Raw,,,285,,285,Walter Kupihe,1
D,M,Juniors 20-25,140,Raw,,,,,,Donald Loew,DQ
D,M,Law-Fire 40-47,90,Raw,,,265,,265,Jason Smith,1
D,M,Law-Fire 40-47,100,Raw,,,182.5,,182.5,David Chadwick,2
D,M,Law-Fire 40-47,100,Raw,,,210,,210,Nick Berriman,1
D,M,Law-Fire 40-47,117.5,Raw,,,245,,245,Flip Silva Jr,1
D,M,Law-Fire Open,117.5,Raw,,,245,,245,Flip Silva Jr,1
D,M,Masters 40-46,82.5,Raw,,,237.5,,237.5,Chad Medina,1
D,M,Masters 40-46,82.5,Raw,,,,,,Shawn Oliphant,DQ
D,M,Masters 40-46,100,Raw,,,235,,235,Chris Bohenek,2
D,M,Masters 40-46,100,Raw,,,255,,255,Byron Fletcher,1
D,M,Masters 40-46,110,Raw,,,215,,215,Kim Päivöke,1
D,M,Masters 40-46,140,Raw,,,285,,285,Jason Sacre,1
D,M,Masters 47-53,60,Raw,,,120,122.5,120,Gustavo Almada,1
D,M,Masters 47-53,60,Raw,,,120,122.5,120,Gustavo Almada,2
D,M,Masters 47-53,67.5,Raw,,,175,,175,James Needles,1
D,M,Masters 47-53,82.5,Raw,,,197.5,,197.5,Jon Cunningham,2
D,M,Masters 47-53,82.5,Raw,,,242.5,,242.5,Marchand Fleming,1
D,M,Masters 47-53,90,Raw,,,147.5,,147.5,Nabeel Bahu,4
D,M,Masters 47-53,90,Raw,,,192.5,,192.5,Chris Hatley,3
D,M,Masters 47-53,90,Raw,,,227.5,,227.5,Carlos Martinez,2
D,M,Masters 47-53,90,Raw,,,265,,265,Jason Smith,1
D,M,Masters 47-53,110,Raw,,,260,,260,Marcelo Schneider,2
D,M,Masters 47-53,110,Raw,,,260,,260,Matt Maini,1
D,M,Masters 47-53,125,Raw,,,240,,240,Silvio Braga,1
D,M,Masters 47-53,140,Raw,,,260,,260,Scott Wesley Jordan,2
D,M,Masters 47-53,140,Raw,,,270,,270,DeWitt Martin Jr,1
D,M,Masters 54-60,75,Raw,,,190,,190,David Felton,1
D,M,Masters 54-60,82.5,Raw,,,227.5,,227.5,Anthony Williams,1
D,M,Masters 54-60,100,Raw,,,190,,190,Eugene Merrill,2
D,M,Masters 54-60,100,Raw,,,232.5,,232.5,Mitch Edelstein,1
D,M,Masters 54-60,110,Raw,,,212.5,,212.5,James Murphy,1
D,M,Masters 54-60,125,Raw,,,267.5,,267.5,Nick Frazzetta,1
D,M,Masters 61-67,82.5,Raw,,,187.5,,187.5,Ed Regwa,1
D,M,Masters 61-67,110,Raw,,,160,,160,Tom Gonnering,1
D,M,Masters 61-67,117.5,Raw,,,200,,200,Tom Matlock,1
D,M,Masters 61-67,125,Raw,,,210,,210,Tom Morgan,1
D,M,Masters 68-74,82.5,Raw,,,172.5,,172.5,Andrew Christo,1
D,M,Masters 68-74,82.5,Raw,,,170,,170,Tom Haggenmiller,2
D,M,Masters 68-74,90,Raw,,,255,,255,Jerry Shetka,1
D,M,Masters 75-79,60,Raw,,,92.5,,92.5,Eugene Kawamata,1
D,M,Masters 75-79,82.5,Raw,,,110,,110,Mike Haigwood,1
D,M,Masters 85-89,82.5,Raw,,,92.5,,92.5,Cleophus Scrutchions,1
D,M,Masters 90,82.5,Raw,,,,,,Rodney Graves,DQ
D,M,Open,75,Raw,,,245,,245,Justin Rhoads,1
D,M,Open,75,Raw,,,225,,225,Ezequiel De Simone,2
D,M,Open,75,Raw,,,220,,220,Karter Brachear,3
D,M,Open,75,Raw,,,190,,190,David Felton,4
D,M,Open,75,Raw,,,180,,180,Kwame Pollard,5
D,M,Open,82.5,Raw,,,205,,205,Erick Gonzalez,1
D,M,Open,90,Raw,,,290,,290,Mikko Kopreinen,1
D,M,Open,90,Raw,,,257.5,,257.5,Max Panziera,2
D,M,Open,90,Raw,,,257.5,,257.5,Kyle Francescatti,3
D,M,Open,90,Raw,,,245,,245,Cody Coffey,4
D,M,Open,90,Raw,,,210,,210,Charlen Luz,5
D,M,Open,100,Raw,,,315,,315,Joni Kivelä,1
D,M,Open,100,Raw,,,302.5,,302.5,Cephas McTizic,2
D,M,Open,100,Raw,,,255,,255,Bill Corbin,3
D,M,Open,100,Raw,,,255,,255,Byron Fletcher,4
D,M,Open,100,Raw,,,235,,235,Chris Bohenek,5
D,M,Open,110,Raw,,,272.5,,272.5,Donovan Ballo,1
D,M,Open,110,Raw,,,260,,260,Marcelo Schneider,2
D,M,Open,110,Raw,,,255,,255,Seppo Juntilla,3
D,M,Open,110,Raw,,,215,,215,Kim Päivöke,5
D,M,Open,110,Raw,,,230,,230,Makila Antero,4
D,M,Open,125,Raw,,,285,,285,Desmond Coleman,1
D,M,Open,125,Raw,,,250,,250,Oscar Rivero,2
D,M,Open,125,Raw,,,240,,240,Silvio Braga,3
D,M,Open,140,Raw,,,260,,260,Scott Wesley Jordan,1
D,M,Submasters 33-39,82.5,Raw,,,195,,195,Humberto Rodriguez,1
D,M,Submasters 33-39,90,Raw,,,290,,290,Mikko Kopreinen,1
D,M,Submasters 33-39,90,Raw,,,207.5,,207.5,Jack Rogers,3
D,M,Submasters 33-39,90,Raw,,,210,,210,Charlen Luz,2
D,M,Submasters 33-39,100,Raw,,,270,,270,Mariano Miravalles,1
D,M,Submasters 33-39,100,Raw,,,250,,250,Percy Colvin,2
D,M,Submasters 33-39,110,Raw,,,230,,230,Makila Antero,1
D,M,Submasters 33-39,140,Raw,,,192.5,,192.5,Sean Powell,1
D,M,Teen 12-13,48,Raw,,,85,,85,Colby Helms,1
D,M,Teen 12-13,82.5,Raw,,,92.5,,92.5,Will Bishop,1
D,M,Teen 12-13,125,Raw,,,,,,Robert Vick Jr,DQ
D,M,Teen 12-13,44,Raw,,,70,,70,Billy Farmer,1
D,M,Teen 14-15,60,Raw,,,145,150,145,Rafael Cora,1
D,M,Teen 14-15,67.5,Raw,,,190,,190,Kaison Uehara,1
D,M,Teen 14-15,67.5,Raw,,,167.5,,167.5,Tristan Lin,2
D,M,Teen 14-15,90,Raw,,,175,,175,Armani Katzman,1
D,M,Teen 14-15,44,Raw,,,85,,85,Kurt Schindele,1
D,M,Teen 16-17,56,Raw,,,110,,110,Tyler Farmer,1
D,M,Teen 16-17,75,Raw,,,192.5,,192.5,Lexington Young,1
D,M,Teen 18-19,75,Raw,,,220,,220,Karter Brachear,1
D,M,Teen 18-19,75,Raw,,,150,,150,Brandon Manteca,2
D,M,Teen 18-19,90,Raw,,,227.5,,227.5,Jamison Faith,1
D,M,Teen 18-19,117.5,Raw,,,210,,210,Jarome Torres,1
BD,M,Class 1,82.5,Raw,125,,250,,375,Matt Hanlon,1
BD,M,Class 1,100,Raw,110,,227.5,,337.5,Jorge Sierra,3
BD,M,Class 1,100,Raw,125,,217.5,,342.5,Zach Harris,2
BD,M,Class 1,100,Raw,147.5,,217.5,,365,Joseph Karamatic,1
BD,M,Class 1,117.5,Raw,115,,232.5,,347.5,Billy Caughey,1
BD,M,Class 1,125,Raw,182.5,,285,,467.5,Desmond Coleman,1
BD,M,Juniors 20-25,60,Raw,107.5,,192.5,,300,Fabriano Mariscal,1
BD,M,Juniors 20-25,75,Raw,125,,225,,350,Ezequiel De Simone,1
BD,M,Juniors 20-25,82.5,Raw,95,,210,,305,Braden Jensen,4
BD,M,Juniors 20-25,82.5,Raw,110,,202.5,,312.5,Brett Robinson,3
BD,M,Juniors 20-25,82.5,Raw,117.5,,210,,327.5,Steven Bassetti,2
BD,M,Juniors 20-25,82.5,Raw,140,,237.5,,377.5,Patrick Keogh,1
BD,M,Juniors 20-25,90,Raw,170,,257.5,,427.5,Kyle Francescatti,1
BD,M,Juniors 20-25,100,Raw,147.5,,217.5,,365,Joseph Karamatic,1
BD,M,Juniors 20-25,110,Raw,140,,245,,385,Mitch Bellon,1
BD,M,Juniors 20-25,140,Raw,220,,285,,505,Walter Kupihe,1
BD,M,Law-Fire 40-47,90,Raw,165,,265,,430,Jason Smith,1
BD,M,Law-Fire 40-47,100,Raw,125,,182.5,,307.5,David Chadwick,1
BD,M,Masters 40-46,82.5,Raw,170,,237.5,,407.5,Chad Medina,1
BD,M,Masters 40-46,100,Raw,165,,235,,400,Chris Bohenek,2
BD,M,Masters 40-46,100,Raw,172.5,,255,,427.5,Byron Fletcher,1
BD,M,Masters 40-46,110,Raw,175,,215,,390,Kim Päivöke,1
BD,M,Masters 47-53,60,Raw,52.5,,120,,172.5,Gustavo Almada,1
BD,M,Masters 47-53,82.5,Raw,155,,197.5,,352.5,Jon Cunningham,1
BD,M,Masters 47-53,90,Raw,152.5,,192.5,,345,Chris Hatley,3
BD,M,Masters 47-53,90,Raw,122.5,,227.5,,350,Carlos Martinez,2
BD,M,Masters 47-53,90,Raw,165,,265,,430,Jason Smith,1
BD,M,Masters 47-53,110,Raw,180,,260,,440,Marcelo Schneider,1
BD,M,Masters 47-53,140+,Raw,217.5,,270,,487.5,DeWitt Martin Jr,1
BD,M,Masters 54-60,100,Raw,102.5,,190,,292.5,Eugene Merrill,1
BD,M,Masters 54-60,110,Raw,142.5,,212.5,,355,James Murphy,1
BD,M,Masters 54-60,125,Raw,182.5,,267.5,,450,Nick Frazzetta,1
BD,M,Masters 61-67,117.5,Raw,100,,200,,300,Tom Matlock,1
BD,M,Masters 61-67,125,Raw,132.5,,210,,342.5,Tom Morgan,1
BD,M,Masters 75-79,82.5,Raw,87.5,,110,,197.5,Mike Haigwood,1
BD,M,Masters 85-89,82.5,Raw,62.5,,92.5,,155,Cleophus Scrutchions,1
BD,M,Open,75,Raw,110,,220,,330,Karter Brachear,3
BD,M,Open,75,Raw,125,,225,,350,Ezequiel De Simone,2
BD,M,Open,75,Raw,125,,245,,370,Justin Rhoads,1
BD,M,Open,90,Raw,170,,257.5,,427.5,Kyle Francescatti,2
BD,M,Open,90,Raw,182.5,,245,,427.5,Cody Coffey,3
BD,M,Open,90,Raw,172.5,,257.5,,430,Max Panziera,1
BD,M,Open,100,Raw,165,,235,,400,Chris Bohenek,3
BD,M,Open,100,Raw,160,,255,,415,Bill Corbin,2
BD,M,Open,100,Raw,172.5,,255,,427.5,Byron Fletcher,1
BD,M,Open,110,Raw,140,,230,,370,Makila Antero,4
BD,M,Open,110,Raw,175,,215,,390,Kim Päivöke,3
BD,M,Open,110,Raw,180,,260,,440,Marcelo Schneider,2
BD,M,Open,110,Raw,172.5,,272.5,,445,Donovan Ballo,1
BD,M,Submasters 33-39,82.5,Raw,125,,195,,320,Humberto Rodriguez,1
BD,M,Submasters 33-39,100,Raw,215,,250,,465,Percy Colvin,1
BD,M,Submasters 33-39,100,Raw,160,,270,,430,Mariano Miravalles,2
BD,M,Submasters 33-39,110,Raw,140,,230,,370,Makila Antero,1
BD,M,Submasters 33-39,140+,Raw,192.5,,192.5,,385,Sean Powell,1
BD,M,Teen 12-13,48,Raw,27.5,,85,,112.5,Colby Helms,1
BD,M,Teen 12-13,82.5,Raw,50,,92.5,,142.5,Will Bishop,1
BD,M,Teen 12-13,44,Raw,27.5,,70,,97.5,Billy Farmer,1
BD,M,Teen 14-15,67.5,Raw,97.5,,190,,287.5,Kaison Uehara,1
BD,M,Teen 14-15,44,Raw,32.5,,85,,117.5,Kurt Schindele,1
BD,M,Teen 16-17,56,Raw,50,,110,,160,Tyler Farmer,1
BD,M,Teen 16-17,75,Raw,120,,192.5,,312.5,Lexington Young,1
BD,M,Teen 18-19,75,Raw,110,,220,,330,Karter Brachear,1
BD,M,Teen 18-19,75,Raw,97.5,,150,,247.5,Brandon Manteca,2
BD,M,Teen 18-19,117.5,Raw,122.5,,210,,332.5,Jarome Torres,1
B,M,Class 1,110,Single-ply,190,,,,190,Brent Gapusan,2
B,F,Class 1,48,Single-ply,60,,,,60,Jennifer Genato,1
B,F,Class 1,60,Single-ply,60,,,,60,Susan Chloupek,1
B,F,Class 1,75,Single-ply,60,,,,60,Natalie Caughey,1
B,F,Class 1,82.5,Single-ply,72.5,,,,72.5,DeAnna Dutton,1
B,F,Juniors 20-25,48,Single-ply,82.5,,,,82.5,Cailee Awa,1
B,F,Juniors 20-25,60,Single-ply,52.5,,,,52.5,Hannah Barnhill,1
B,F,Juniors 20-25,67.5,Single-ply,82.5,,,,82.5,Jamie Tsuji,1
B,F,Law-Fire 40-47,82.5,Single-ply,100,,,,100,Gion Prevard,1
B,F,Law-Fire 48-55,82.5,Single-ply,100,,,,100,Gion Prevard,1
B,F,Law-Fire Open,82.5,Single-ply,100,,,,100,Gion Prevard,1
B,F,Masters 40-46,67.5,Single-ply,67.5,,,,67.5,Holly Morello,2
B,F,Masters 40-46,67.5,Single-ply,80,,,,80,Dede Soekardi,1
B,F,Masters 40-46,100,Single-ply,60,,,,60,Trisha Puou,1
B,F,Masters 47-53,48,Single-ply,70,,,,70,Yu-Xin Hao,1
B,F,Masters 47-53,67.5,Single-ply,85,,,,85,Andrea Macauley,1
B,F,Masters 47-53,75,Single-ply,,,,,,Virpi Pukkila,DQ
B,F,Masters 47-53,75,Single-ply,62.5,,,,62.5,Lucia Feraud Montenegro,1
B,F,Masters 47-53,82.5,Single-ply,60,,,,60,Stacy Whetstone,1
B,F,Masters 47-53,44,Single-ply,47.5,,,,47.5,Elizabeth Cabe,1
B,F,Masters 54-60,67.5,Single-ply,105,,,,105,Beverly Anolin,1
B,F,Masters 54-60,82.5,Single-ply,182.5,,,,182.5,Karen Campbell,1
B,F,Masters 54-60,82.5,Single-ply,90,,,,90,Josefina Jackson,2
B,F,Masters 54-60,82.5,Single-ply,82.5,,,,82.5,Deborah Maxwell,3
B,F,Masters 54-60,82.5,Single-ply,72.5,,,,72.5,DeAnna Dutton,4
B,F,Masters 54-60,90,Single-ply,87.5,,,,87.5,Linda Gerking,1
B,F,Masters 61-67,56,Single-ply,57.5,,,,57.5,Karon Denniston,1
B,F,Masters 61-67,60,Single-ply,60,,,,60,Susan Chloupek,1
B,F,Masters 61-67,67.5,Single-ply,95,,,,95,Peach Presley,1
B,F,Masters 61-67,100,Single-ply,,,,,,Sue Vaterlaus,DQ
B,F,Masters 68-74,82.5,Single-ply,82.5,,,,82.5,Pat Robey,1
B,F,Masters 75-79,75,Single-ply,57.5,,,,57.5,Gerda Shupe,1
B,F,Open,52,Single-ply,70,,,,70,Morgan Matteoni,1
B,F,Open,67.5,Single-ply,105,,,,105,Beverly Anolin,1
B,F,Open,67.5,Single-ply,90,,,,90,Samantha Panziera,2
B,F,Open,75,Single-ply,,,,,,Virpi Pukkila,DQ
B,F,Open,75,Single-ply,62.5,,,,62.5,Lucia Fernaud Montenegro,1
B,F,Open,82.5,Single-ply,182.5,,,,182.5,Karen Campbell,1
B,F,Open,100,Single-ply,95,,,,95,Makala Davis,1
B,F,Open,100,Single-ply,60,,,,60,Trisha Puou,2
B,F,Open,44,Single-ply,47.5,,,,47.5,Elizabeth Cabe,1
B,F,Submasters 33-39,67.5,Single-ply,82.5,,,,82.5,Lynn Gilpin-Parks,1
B,F,Submasters 33-39,82.5,Single-ply,80,,,,80,Jamie Farmer #1,1
B,F,Teen 16-17,60,Single-ply,92.5,,,,92.5,Pamela Arce,1
B,F,Teen 18-19,67.5,Single-ply,65,,,,65,Jessica Luna,1
D,F,Class 1,48,Single-ply,,,117.5,,117.5,Jennifer Genato,1
D,F,Class 1,67.5,Single-ply,,,120,,120,Tiffany Keeling,3
D,F,Class 1,67.5,Single-ply,,,120,,120,Wendy Pledger,4
D,F,Class 1,67.5,Single-ply,,,125,,125,Angie Buschman,2
D,F,Class 1,67.5,Single-ply,,,147.5,,147.5,Kathy Caraccioli,1
D,F,Class 1,75,Single-ply,,,145,,145,Natalie Caughey,1
D,F,Class 1,82.5,Single-ply,,,132.5,,132.5,DeAnna Dutton,2
D,F,Class 1,82.5,Single-ply,,,160,,160,Jennifer Mosher,1
D,F,Class 1,90,Single-ply,,,177.5,,177.5,Linda Gerking,1
D,F,Class 1,100,Single-ply,,,147.5,,147.5,Tara Walsh,1
D,F,Juniors 20-25,48,Single-ply,,,145,,145,Cailee Awa,1
D,F,Juniors 20-25,56,Single-ply,,,170,,170,Marianne Kosonen,1
D,F,Juniors 20-25,60,Single-ply,,,142.5,,142.5,Hannah Barnhill,1
D,F,Juniors 20-25,67.5,Single-ply,,,160,,160,Jamie Tsuji,1
D,F,Masters 40-46,52,Single-ply,,,165,,165,Valesca Cristina Rocha,1
D,F,Masters 40-46,67.5,Single-ply,,,142.5,,142.5,Holly Morello,2
D,F,Masters 40-46,67.5,Single-ply,,,150,,150,Dede Soekardi,1
D,F,Masters 40-46,100,Single-ply,,,182.5,,182.5,Trisha Puou,1
D,F,Masters 47-53,48,Single-ply,,,125,,125,Yu-Xin Hao,1
D,F,Masters 47-53,67.5,Single-ply,,,147.5,,147.5,Kathy Caraccioli,1
D,F,Masters 47-53,75,Single-ply,,,150,,150,Ling Tarr,1
D,F,Masters 47-53,75,Single-ply,,,130,,130,Lucia Fernaud Montenegro,2
D,F,Masters 47-53,44,Single-ply,,,147.5,,147.5,Elizabeth Cabe,1
D,F,Masters 54-60,52,Single-ply,,,115,,115,Miriam Bucks,1
D,F,Masters 54-60,60,Single-ply,,,195,,195,Jane McCubbin,1
D,F,Masters 54-60,67.5,Single-ply,,,167.5,,167.5,Beverly Anolin,1
D,F,Masters 54-60,82.5,Single-ply,,,190,,190,Karen Campbell,1
D,F,Masters 54-60,82.5,Single-ply,,,165,,165,Josefina Jackson,2
D,F,Masters 54-60,82.5,Single-ply,,,132.5,,132.5,DeAnna Dutton,3
D,F,Masters 54-60,82.5,Single-ply,,,115,,115,Deborah Maxwell,4
D,F,Masters 54-60,90,Single-ply,,,177.5,,177.5,Linda Gerking,1
D,F,Masters 61-67,67.5,Single-ply,,,142.5,,142.5,Peach Presley,1
D,F,Masters 61-67,100,Single-ply,,,110,,110,Sue Vaterlaus,1
D,F,Masters 61-67,44,Single-ply,,,82.5,,82.5,Donna Aliminosa,1
D,F,Masters 68-74,82.5,Single-ply,,,120,,120,Pat Robey,1
D,F,Masters 75-79,75,Single-ply,,,117.5,,117.5,Gerda Shupe,1
D,F,Masters 90,82.5,Single-ply,,,42.5,,42.5,Evelyn Kilgore,1
D,F,Open,52,Single-ply,,,165,,165,Valesca Cristina Rocha,1
D,F,Open,56,Single-ply,,,170,,170,Marianne Kosonen,1
D,F,Open,60,Single-ply,,,195,,195,Jane McCubbin,1
D,F,Open,67.5,Single-ply,,,192.5,,192.5,Rebekah Schmidt,1
D,F,Open,67.5,Single-ply,,,167.5,,167.5,Beverly Anolin,2
D,F,Open,67.5,Single-ply,,,142.5,,142.5,Samantha Panziera,3
D,F,Open,75,Single-ply,,,152.5,,152.5,Joni Texeira,1
D,F,Open,75,Single-ply,,,132.5,,132.5,Nicole Campbell,2
D,F,Open,75,Single-ply,,,130,,130,Lucia Fernaud Montenegro,3
D,F,Open,82.5,Single-ply,,,190,,190,Karen Campbell,1
D,F,Open,100,Single-ply,,,210,,210,Makala Davis,1
D,F,Open,100,Single-ply,,,182.5,,182.5,Trisha Puou,2
D,F,Open,44,Single-ply,,,147.5,,147.5,Elizabeth Cabe,1
D,F,Submasters 33-39,67.5,Single-ply,,,192.5,,192.5,Rebekah Schmidt,1
D,F,Submasters 33-39,82.5,Single-ply,,,147.5,,147.5,Jamie Farmer #1,2
D,F,Submasters 33-39,82.5,Single-ply,,,160,,160,Jennifer Mosher,1
D,F,Teen 16-17,90,Single-ply,,,157.5,,157.5,Jessica Luna,1
D,F,Teen 18-19,60,Single-ply,,,145,,145,Yesenia Valdez,1
BD,F,Class 1,48,Single-ply,60,,117.5,,177.5,Jennifer Genato,1
BD,F,Class 1,75,Single-ply,60,,145,,205,Natalie Caughey,1
BD,F,Juniors 20-25,48,Single-ply,82.5,,145,,227.5,Cailee Awa,1
BD,F,Juniors 20-25,60,Single-ply,52.5,,142.5,,195,Hannah Barnhill,1
BD,F,Juniors 20-25,67.5,Single-ply,82.5,,160,,242.5,Jamie Tsuji,1
BD,F,Masters 40-46,67.5,Single-ply,67.5,,142.5,,210,Holly Morello,1
BD,F,Masters 40-46,90+,Single-ply,60,,182.5,,242.5,Trisha Puou,1
BD,F,Masters 47-53,48,Single-ply,70,,125,,195,Yu-Xin Hao,1
BD,F,Masters 47-53,44,Single-ply,47.5,,147.5,,195,Elizabeth Cabe,1
BD,F,Masters 54-60,67.5,Single-ply,105,,167.5,,272.5,Beverly Anolin,1
BD,F,Masters 54-60,82.5,Single-ply,82.5,,115,,197.5,Deborah Maxwell,3
BD,F,Masters 54-60,82.5,Single-ply,72.5,,132.5,,205,DeAnna Dutton,2
BD,F,Masters 54-60,82.5,Single-ply,182.5,,190,,372.5,Karen Campbell,1
BD,F,Masters 54-60,90,Single-ply,87.5,,177.5,,265,Linda Gerking,1
BD,F,Masters 61-67,67.5,Single-ply,95,,142.5,,237.5,Peach Presley,1
BD,F,Masters 61-67,100,Single-ply,,,110,,,Sue Vaterlaus,DQ
BD,F,Masters 68-74,82.5,Single-ply,82.5,,120,,202.5,Pat Robey,1
BD,F,Masters 75-79,75,Single-ply,57.5,,117.5,,175,Gerda Shupe,1
BD,F,Open,67.5,Single-ply,90,,142.5,,232.5,Samantha Panziera,2
BD,F,Open,67.5,Single-ply,105,,167.5,,272.5,Beverly Anolin,1
BD,F,Open,82.5,Single-ply,182.5,,190,,372.5,Karen Campbell,1
BD,F,Open,44,Single-ply,47.5,,147.5,,195,Elizabeth Cabe,1
BD,F,Open,100+,Single-ply,60,,182.5,,242.5,Trisha Puou,1
BD,F,Submasters 33-39,82.5,Single-ply,80,,147.5,,227.5,Jamie Farmer #1,1
BD,F,Teen 16-17,90,Single-ply,65,,157.5,,222.5,Jessica Luna,1
B,F,Disabled 2 13-19,56,Multi-ply,47.5,,,,47.5,Delilah Burruel,1
B,F,Juniors 20-25,90,Multi-ply,137.5,,,,137.5,Lauren Lugdon,1
B,F,Masters 40-46,56,Multi-ply,47.5,,,,47.5,Sagi Macias,1
B,F,Masters 40-46,90,Multi-ply,140,,,,140,Amy Rudder,1
B,F,Masters 47-53,60,Multi-ply,77.5,,,,77.5,Rebecca Moore,1
B,F,Masters 47-53,82.5,Multi-ply,47.5,,,,47.5,Deana Bowes,1
B,F,Masters 54-60,100,Multi-ply,82.5,,,,82.5,Gloria Caughey,1
B,F,Open,60,Multi-ply,77.5,,,,77.5,Rebecca Moore,1
B,F,Open,90,Multi-ply,140,,,,140,Amy Rudder,1
B,F,Open,90,Multi-ply,122.5,,,,122.5,Mary Denning,2
B,F,Open,100,Multi-ply,132.5,,,,132.5,Caylen Gapusan,1
B,F,Open,100,Multi-ply,82.5,,,,82.5,Gloria Caughey,2
B,F,Submasters 33-39,90,Multi-ply,122.5,,,,122.5,Mary Denning,1
D,F,Class 1,60,Multi-ply,,,110,,110,Susan Chloupek,1
D,F,Disabled 2 13-19,56,Multi-ply,,,92.5,102.5,92.5,Delilah Burruel,1
D,F,Disabled 2 13-19,56,Multi-ply,,,92.5,102.5,92.5,Delilah Burruel,2
D,F,Masters 40-46,56,Multi-ply,,,117.5,120,117.5,Sagi Macias,1
D,F,Masters 47-53,60,Multi-ply,,,115,,115,Rebecca Moore,1
D,F,Masters 47-53,82.5,Multi-ply,,,82.5,,82.5,Deana Bowes,1
D,F,Masters 61-67,60,Multi-ply,,,110,,110,Susan Chloupek,1
D,F,Open,60,Multi-ply,,,115,,115,Rebecca Moore,1
D,F,Open,90,Multi-ply,,,140,,140,Lauren Lugdon,1
D,F,Open,100,Multi-ply,,,165,,165,Jacqualyn Richardson,1
BD,F,Masters 47-53,60,Multi-ply,77.5,,115,,192.5,Rebecca Moore,1
BD,F,Open,60,Multi-ply,77.5,,115,,192.5,Rebecca Moore,1
B,F,Class 1,67.5,Raw,85,,,,85,Chelsie Satterfield,1
B,F,Class 1,67.5,Raw,47.5,,,,47.5,Kellye Millrany,2
B,F,Class 1,67.5,Raw,30,,,,30,Sheela Rangen,3
B,F,Class 1,75,Raw,72.5,,,,72.5,Mirtha Delatorre,1
B,F,Class 1,75,Raw,55,,,,55,Carly Grennor,2
B,F,Class 1,82.5,Raw,65,,,,65,Pam Carter,1
B,F,Disabled 1 20-39,67.5,Raw,85,,,,85,Chelsie Satterfield,1
B,F,Disabled 2 20-39,90,Raw,70,,,,70,Chloe Kaalund,1
B,F,Disabled 2 60,100,Raw,45,,,,45,Marlene Wexler,1
B,F,Juniors 20-25,56,Raw,80,,,,80,Marianne Kosonen,1
B,F,Juniors 20-25,67.5,Raw,97.5,,,,97.5,Marianne Hartio,1
B,F,Juniors 20-25,67.5,Raw,85,,,,85,Morgan Taylor #1,2
B,F,Law-Fire 40-47,82.5,Raw,77.5,,,,77.5,Roxanne LeMaire,1
B,F,Masters 40-46,52,Raw,60,,,,60,Valesca Cristina Rocha,1
B,F,Masters 40-46,60,Raw,67.5,,,,67.5,Lainey Kelly,1
B,F,Masters 40-46,67.5,Raw,60,,,,60,Maria Novais,1
B,F,Masters 40-46,67.5,Raw,47.5,,,,47.5,Kellye Millrany,2
B,F,Masters 40-46,75,Raw,72.5,,,,72.5,Mirtha Delatorre,1
B,F,Masters 40-46,82.5,Raw,75,,,,75,Suzette Reed,1
B,F,Masters 40-46,90,Raw,75,,,,75,Maggie Castellano,1
B,F,Masters 40-46,100,Raw,65,,,,65,Faith Robinson,2
B,F,Masters 40-46,100,Raw,82.5,,,,82.5,Elizabeth Guerra,1
B,F,Masters 47-53,52,Raw,50,,,,50,Lisa Balestrini,1
B,F,Masters 47-53,60,Raw,52.5,,,,52.5,Deirdre Harris,1
B,F,Masters 47-53,75,Raw,80,,,,80,Artemira Dede Sobrinho,1
B,F,Masters 47-53,82.5,Raw,75,,,,75,Lisa Van Buskirk,1
B,F,Masters 47-53,100,Raw,115,,,,115,Arletha Phillip,1
B,F,Masters 54-60,48,Raw,40,,,,40,Jennifer Souders,1
B,F,Masters 54-60,56,Raw,37.5,,,,37.5,Martha Godinez-Shim,1
B,F,Masters 54-60,60,Raw,65,,,,65,Tierney Korotkin,1
B,F,Masters 54-60,67.5,Raw,30,,,,30,Sheela Rangen,1
B,F,Masters 61-67,82.5,Raw,77.5,,,,77.5,Joni Harriss,1
B,F,Masters 61-67,100,Raw,55,,,,55,Susan Arnett,1
B,F,Masters 68-74,60,Raw,55,,,,55,Leona Pereza,1
B,F,Masters 68-74,67.5,Raw,40,,,,40,Carolyn Vanzlow-Edgar,1
B,F,Masters 68-74,100,Raw,45,,,,45,Marlene Wexler,1
B,F,Masters 80-84,67.5,Raw,40,,,,40,Carrie Reese,1
B,F,Open,52,Raw,57.5,,,,57.5,Linda Barnes,2
B,F,Open,52,Raw,60,,,,60,Valesca Cristina Rocha,1
B,F,Open,56,Raw,80,,,,80,Marianne Kosonen,1
B,F,Open,60,Raw,70,,,,70,Shawn Coffey,1
B,F,Open,67.5,Raw,97.5,,,,97.5,Marianne Hartio,1
B,F,Open,67.5,Raw,85,,,,85,Morgan Taylor #1,2
B,F,Open,67.5,Raw,60,,,,60,Maria Novais,3
B,F,Open,75,Raw,85,,,,85,Deana D'Andrea,1
B,F,Open,75,Raw,85,,,,85,Joni Texeira,2
B,F,Open,75,Raw,80,,,,80,Artemira Dede Sobrinho,3
B,F,Open,75,Raw,70,,,,70,Mirela Silva,4
B,F,Open,82.5,Raw,125,,,,125,Minna Pajulahti,1
B,F,Open,82.5,Raw,105,,,,105,Missy Gentry,2
B,F,Open,82.5,Raw,75,,,,75,Suzette Reed,3
B,F,Open,90,Raw,82.5,,,,82.5,Jessica Blevins,1
B,F,Open,100,Raw,70,,,,70,Megan Dutton,2
B,F,Open,100,Raw,70,,,,70,Michelle Garrett,3
B,F,Open,100,Raw,95,,,,95,Poha Henson,1
B,F,Special Olympian,90,Raw,70,,,,70,Chloe Kaalund,1
B,F,Submasters 33-39,75,Raw,85,,,,85,Joni Texeira,1
B,F,Submasters 33-39,82.5,Raw,125,,,,125,Minna Pajulahti,1
B,F,Submasters 33-39,82.5,Raw,105,,,,105,Missy Gentry,2
B,F,Teen 12-13,75,Raw,55,,,,55,Mataya Straka,1
B,F,Teen 12-13,90,Raw,92.5,,,,92.5,Tyara Straka,1
B,F,Teen 14-15,67.5,Raw,80,,,,80,Havvy Ehrich,1
B,F,Teen 14-15,75,Raw,37.5,,,,37.5,Ava Eisele,1
B,F,Teen 16-17,90,Raw,65,,,,65,Itzayanni Martinez,1
B,F,Teen 18-19,56,Raw,,,,,,Alison Schaaf,DQ
B,F,Teen 18-19,56,Raw,67.5,,,,67.5,Misty Prado,1
B,F,Teen 18-19,60,Raw,55,,,,55,Yesenia Valdez,1
D,F,Class 1,67.5,Raw,,,77.5,,77.5,Sheela Rangen,2
D,F,Class 1,67.5,Raw,,,160,,160,Chelsie Satterfield,1
D,F,Class 1,75,Raw,,,137.5,,137.5,Briana Lacey,3
D,F,Class 1,75,Raw,,,140,,140,Carly Grennor,2
D,F,Class 1,75,Raw,,,147.5,,147.5,Mirtha Delatorre,1
D,F,Disabled 1 20-39,67.5,Raw,,,160,,160,Chelsie Satterfield,1
D,F,Disabled 1 20-39,67.5,Raw,,,160,,160,Chelsie Satterfield,2
D,F,Disabled 2 20-39,90,Raw,,,137.5,,137.5,Chloe Kaalund,1
D,F,Disabled 2 60,100,Raw,,,112.5,,112.5,Marlene Wexler,1
D,F,Juniors 20-25,67.5,Raw,,,155,,155,Marianne Hartio,2
D,F,Juniors 20-25,67.5,Raw,,,170,,170,Morgan Taylor #1,1
D,F,Juniors 20-25,75,Raw,,,137.5,,137.5,Briana Lacey,1
D,F,Juniors 20-25,90,Raw,,,140,,140,Lauren Lugdon,1
D,F,Law-Fire 40-47,82.5,Raw,,,137.5,,137.5,Roxanne LeMaire,2
D,F,Law-Fire 40-47,82.5,Raw,,,172.5,,172.5,Stacy Domingo,1
D,F,Law-Fire 48-55,82.5,Raw,,,140,,140,Gion Prevard,1
D,F,Law-Fire Open,82.5,Raw,,,140,,140,Gion Prevard,1
D,F,Masters 40-46,67.5,Raw,,,150,,150,Maria Novais,1
D,F,Masters 40-46,75,Raw,,,147.5,,147.5,Mirtha Delatorre,1
D,F,Masters 40-46,82.5,Raw,,,172.5,,172.5,Stacy Domingo,1
D,F,Masters 40-46,90,Raw,,,182.5,,182.5,Maggie Castellano,1
D,F,Masters 40-46,100,Raw,,,137.5,,137.5,Faith Robinson,3
D,F,Masters 40-46,100,Raw,,,185,,185,Leilana McKindra,1
D,F,Masters 40-46,100,Raw,,,152.5,,152.5,Elizabeth Guerra,2
D,F,Masters 47-53,52,Raw,,,100,,100,Lisa Balestrini,1
D,F,Masters 47-53,60,Raw,,,110,,110,Deirdre Harris,1
D,F,Masters 47-53,75,Raw,,,195,,195,Artemira Sobrinho,1
D,F,Masters 47-53,100,Raw,,,187.5,,187.5,Arletha Phillip,1
D,F,Masters 54-60,48,Raw,,,90,,90,Jennifer Souders,1
D,F,Masters 54-60,56,Raw,,,115,,115,Martha Godinez-Shim,1
D,F,Masters 54-60,60,Raw,,,112.5,,112.5,Tierney Korotkin,1
D,F,Masters 54-60,67.5,Raw,,,77.5,,77.5,Sheela Rangen,1
D,F,Masters 68-74,67.5,Raw,,,80,,80,Carolyn Vanzlow-Edgar,1
D,F,Masters 68-74,75,Raw,,,112.5,,112.5,Charlene Muscio,1
D,F,Masters 68-74,82.5,Raw,,,77.5,,77.5,Jacqueline Fendler,1
D,F,Masters 68-74,100,Raw,,,112.5,,112.5,Marlene Wexler,1
D,F,Masters 80-84,67.5,Raw,,,95,,95,Carrie Reese,1
D,F,Open,52,Raw,,,120,,120,Linda Barnes,1
D,F,Open,60,Raw,,,150,,150,Shawn Coffey,1
D,F,Open,67.5,Raw,,,170,,170,Morgan Taylor #1,1
D,F,Open,67.5,Raw,,,155,,155,Marianne Hartio,2
D,F,Open,67.5,Raw,,,150,,150,Maria Novais,3
D,F,Open,67.5,Raw,,,117.5,,117.5,Jessica Rahimi,4
D,F,Open,75,Raw,,,165,,165,Deana D'Andrea,3
D,F,Open,75,Raw,,,195,,195,Artemira Sobrinho,1
D,F,Open,75,Raw,,,185,,185,Mirela Silva,2
D,F,Open,75,Raw,,,132.5,,132.5,Jessica Brown #4,4
D,F,Open,82.5,Raw,,,190,,190,Minna Pajulahti,1
D,F,Open,90,Raw,,,187.5,,187.5,Jessica Blevins,1
D,F,Open,90,Raw,,,140,,140,Lauren Lugdon,2
D,F,Open,100,Raw,,,175,,175,Megan Dutton,1
D,F,Open,100,Raw,,,,,,Poha Henson,DQ
D,F,Open,100,Raw,,,165,,165,Michelle Garrett,2
D,F,Special Olympian,90,Raw,,,137.5,,137.5,Chloe Kaalund,1
D,F,Submasters 33-39,75,Raw,,,152.5,,152.5,Joni Texeira,1
D,F,Submasters 33-39,82.5,Raw,,,190,,190,Minna Pajulahti,1
D,F,Submasters 33-39,82.5,Raw,,,142.5,,142.5,Crystal Luiz-Jones,2
D,F,Teen 12-13,75,Raw,,,140,,140,Mataya Straka,1
D,F,Teen 12-13,90,Raw,,,170,,170,Tyara Straka,1
D,F,Teen 14-15,67.5,Raw,,,137.5,,137.5,Havvy Ehrich,1
D,F,Teen 14-15,75,Raw,,,85,,85,Ava Eisele,1
D,F,Teen 16-17,60,Raw,,,125,,125,Pamela Arce,1
D,F,Teen 16-17,90,Raw,,,150,,150,Itzayanni Martinez,1
D,F,Teen 18-19,56,Raw,,,,,,Alison Schaaf,DQ
D,F,Teen 18-19,56,Raw,,,145,,145,Misty Prado,1
BD,F,Class 1,67.5,Raw,30,,77.5,,107.5,Sheela Rangen,2
BD,F,Class 1,67.5,Raw,85,,160,,245,Chelsie Satterfield,1
BD,F,Class 1,75,Raw,55,,140,,195,Carly Grennor,2
BD,F,Class 1,75,Raw,72.5,,147.5,,220,Mirtha Delatorre,1
BD,F,Disabled 1 20-39,67.5,Raw,85,,160,,245,Chelsie Satterfield,1
BD,F,Disabled 2 60,100,Raw,45,,112.5,,157.5,Marlene Wexler,1
BD,F,Juniors 20-25,67.5,Raw,97.5,,155,,252.5,Marianne Hartio,2
BD,F,Juniors 20-25,67.5,Raw,85,,170,,255,Morgan Taylor #1,1
BD,F,Masters 40-46,75,Raw,72.5,,147.5,,220,Mirtha Delatorre,1
BD,F,Masters 40-46,90,Raw,75,,182.5,,257.5,Maggie Castellano,1
BD,F,Masters 40-46,100,Raw,65,,137.5,,202.5,Faith Robinson,1
BD,F,Masters 47-53,52,Raw,50,,100,,150,Lisa Balestrini,1
BD,F,Masters 47-53,60,Raw,52.5,,110,,162.5,Deirdre Harris,1
BD,F,Masters 47-53,90+,Raw,115,,187.5,,302.5,Arletha Phillip,1
BD,F,Masters 54-60,56,Raw,37.5,,115,,152.5,Martha Godinez-Shim,1
BD,F,Masters 54-60,60,Raw,65,,112.5,,177.5,Tierney Korotkin,1
BD,F,Masters 54-60,67.5,Raw,30,,77.5,,107.5,Sheela Rangen,1
BD,F,Masters 68-74,67.5,Raw,40,,80,,120,Carolyn Vanzlow-Edgar,1
BD,F,Masters 68-74,100,Raw,45,,112.5,,157.5,Marlene Wexler,1
BD,F,Masters 80-84,67.5,Raw,40,,95,,135,Carrie Reese,1
BD,F,Open,67.5,Raw,97.5,,155,,252.5,Marianne Hartio,2
BD,F,Open,67.5,Raw,85,,170,,255,Morgan Taylor #1,1
BD,F,Open,75,Raw,85,,165,,250,Deana D'Andrea,1
BD,F,Open,82.5,Raw,125,,190,,315,Minna Pajulahti,1
BD,F,Open,90,Raw,82.5,,187.5,,270,Jessica Blevins,1
BD,F,Open,100,Raw,70,,175,,245,Megan Dutton,1
BD,F,Open,90+,Raw,70,,165,,235,Michelle Garrett,1
BD,F,Open,90+,Raw,95,,,,,Poha Henson,DQ
BD,F,Submasters 33-39,82.5,Raw,125,,190,,315,Minna Pajulahti,1
BD,F,Teen 12-13,75,Raw,55,,140,,195,Mataya Straka,1
BD,F,Teen 12-13,90,Raw,92.5,,170,,262.5,Tyara Straka,1
BD,F,Teen 14-15,67.5,Raw,80,,137.5,,217.5,Havvy Ehrich,1
BD,F,Teen 14-15,75,Raw,37.5,,85,,122.5,Ava Eisele,1
BD,F,Teen 18-19,56,Raw,67.5,,145,,212.5,Misty Prado,1
BD,F,Teen 18-19,56,Raw,,,,,,Alison Schaaf,DQ
