Name,State,Country,Age,Sex,Division,BodyweightKg,WeightClassKg,Squat1Kg,Squat2Kg,Squat3Kg,Squat4Kg,Best3SquatKg,Bench1Kg,Bench2Kg,Bench3Kg,Bench4Kg,Best3BenchKg,Deadlift1Kg,Deadlift2Kg,Deadlift3Kg,Deadlift4Kg,Best3DeadliftKg,TotalKg,Event,Equipment,Place
Jordan Johnston,VA,,,F,Youth,37.69,40,,,30,,30,,,22.5,,22.5,,,55,,55,107.5,SBD,Raw,1
Kendall Johnston,VA,,,F,Youth,33.16,35,,,27.5,,27.5,,,20,,20,,,55,,55,102.5,SBD,Raw,1
Silencia Algarin,MN,,,F,Youth,27.22,30,25,30,,,30,20,,,,20,30,35,40,,40,90,SBD,Raw,1
Natalie Brown,IN,,,F,Open,47.63,48,100,-105,-105,,100,42.5,-45,,,42.5,-115,-115,-115,,,,SBD,Raw,DQ
Naomi Kutin,NJ,,,F,Youth,45.27,48,90,-95,-97.5,,90,32.5,37.5,40,,40,85,95,-97.5,,95,225,SBD,Raw,1
Danielle Tasher,PA,,,F,Teen 16-17,45.99,48,85,90,-95,,90,37.5,42.5,45,,45,105,112.5,-115,,112.5,247.5,SBD,Raw,1
Nicole Dirienzo,VA,,,F,Seniors 30-34,45.36,48,,,50,,50,,,27.5,,27.5,,,72.5,,72.5,150,SBD,Raw,1
Natalie Brown,IN,,,F,Seniors 30-34,47.63,48,100,-105,-105,,100,42.5,-45,,,42.5,-115,-115,-115,,,,SBD,Raw,DQ
Kelly Shea,NC,,,F,Open,50.89,52,60,65,70,,70,40,42.5,-45,,42.5,80,90,95,,95,207.5,SBD,Raw,1
Beth Garrison,PA,,,F,Open,51.71,52,60,-70,-75,,60,27.5,37.5,-45,,37.5,85,95,-102.5,,95,192.5,SBD,Raw,2
Candice Brooks,NE,,,F,Open,49.9,52,62.5,67.5,-75,,67.5,40,-47.5,-47.5,,40,70,75,-85,,75,182.5,SBD,Raw,3
Sarah Sabalos,AZ,,,F,Open,51.8,52,67.5,70,72.5,,72.5,-40,-40,40,,40,67.5,-70,70,72.5,70,182.5,SBD,Raw,4
Madisoon Trauger,PA,,,F,Teen 14-15,51.26,52,65,70,-75,,70,32.5,35,37.5,,37.5,72.5,80,87.5,,87.5,195,SBD,Raw,1
Kelly Shea,NC,,,F,Teen 16-17,50.89,52,60,65,70,,70,40,42.5,-45,,42.5,80,90,95,,95,207.5,SBD,Raw,1
Beth Garrison,PA,,,F,Seniors 30-34,51.71,52,60,-70,-75,,60,27.5,37.5,-45,,37.5,85,95,-102.5,,95,192.5,SBD,Raw,1
Sarah Sabalos,AZ,,,F,Submasters 35-39,51.8,52,67.5,70,72.5,,72.5,-40,-40,40,,40,67.5,-70,70,72.5,70,182.5,SBD,Raw,1
Kim Johnson,NC,,,F,Open,55.34,56,82.5,-95,95,,95,52.5,60,65,,65,125,133.5,142.5,,142.5,302.5,SBD,Raw,1
Dorean Sherwood,NY,,,F,Open,55.93,56,87.5,94,99,,99,47.5,50,52.5,,52.5,115,122.5,127.5,133,127.5,279,SBD,Raw,2
Nicole Bodulow,PA,,,F,Open,54.2,56,80,87.5,-95,,87.5,-50,50,-52.5,,50,125,-138.5,-138.5,,125,262.5,SBD,Raw,3
Roxanne Kirstner,PA,,,F,Open,55.07,56,62.5,70,75,,75,47.5,52.5,-55,,52.5,92.5,100,102.5,,102.5,230,SBD,Raw,4
Melissa Jones,AZ,,,F,Open,55.61,56,60,65,-75,,65,42.5,-47.5,,,42.5,102.5,-107.5,110,,110,217.5,SBD,Raw,5
Beth-El Algarin,MN,,,F,Youth,54.88,56,65,75,82.5,,82.5,50,57.5,-60,,57.5,85,100,-102.5,,100,240,SBD,Raw,1
Nicole Bodulow,PA,,,F,Teen 16-17,54.2,56,80,87.5,-95,,87.5,-50,50,-52.5,,50,125,-138.5,-138.5,,125,262.5,SBD,Raw,1
Allie Feras,DC,,,F,Juniors 20-24,55.84,56,,,75,,75,,,45,,45,,,102.5,,102.5,222.5,SBD,Raw,1
Melissa Jones,AZ,,,F,Seniors 30-34,55.61,56,60,65,-75,,65,42.5,-47.5,,,42.5,102.5,-107.5,110,,110,217.5,SBD,Raw,1
Dorean Sherwood,NY,,,F,Masters 40-44,55.93,56,87.5,94,99,,99,47.5,50,52.5,,52.5,115,122.5,127.5,133,127.5,279,SBD,Raw,1
Roxanne Kirstner,PA,,,F,Submasters 35-39,55.07,56,62.5,70,75,,75,47.5,52.5,-55,,52.5,92.5,100,102.5,,102.5,230,SBD,Raw,1
Jennifer Higgins,AZ,,,F,Open,58.92,60,97.5,105,-107.5,,105,50,52.5,56,,56,130,137.5,141,143,141,302,SBD,Raw,1
Lucy Slate,AZ,,,F,Open,59.74,60,82.5,95,100,,100,45,-52.5,52.5,,52.5,90,100,110,113,110,262.5,SBD,Raw,2
AnneMarie Kemmerer,PA,,,F,Open,59.87,60,72.5,80,85,,85,52.5,55,-58,,55,122.5,-130,-130,,122.5,262.5,SBD,Raw,3
Kayla Irwin,PA,,,F,Open,58.38,60,90,97.5,102.5,-105,102.5,42.5,47.5,50,53.5,50,95,107.5,-117.5,,107.5,260,SBD,Raw,4
Halie Sweeney,NC,,,F,Open,59.87,60,90,,,,90,43.5,,,,43.5,97.5,,,,97.5,231,SBD,Raw,5
Halie Sweeney,NC,,,F,Teen 14-15,59.87,60,90,,,,90,43.5,,,,43.5,97.5,,,,97.5,231,SBD,Raw,1
Kayla Irwin,PA,,,F,Teen 18-19,58.38,60,90,97.5,102.5,-105,102.5,42.5,47.5,50,53.5,50,95,107.5,-117.5,,107.5,260,SBD,Raw,1
Lucy Slate,AZ,,,F,Seniors 30-34,59.74,60,82.5,95,100,,100,45,-52.5,52.5,,52.5,90,100,110,113,110,262.5,SBD,Raw,1
Ana Alas,VA,,,F,Submasters 35-39,59.87,60,,,97.5,,97.5,,,57.5,,57.5,,,122.5,,122.5,277.5,SBD,Raw,1
Jennifer Higgins,AZ,,,F,Masters 40-44,58.92,60,97.5,105,-107.5,,105,50,52.5,56,,56,130,137.5,141,143,141,302,SBD,Raw,1
AnneMarie Kemmerer,PA,,,F,Masters 55-59,59.87,60,72.5,80,85,,85,52.5,55,-58,,55,122.5,-130,-130,,122.5,262.5,SBD,Raw,1
Tierney Wallace,NY,,,F,Open,66.86,67.5,117.5,-126.5,-126.5,,117.5,60,62.5,-67.5,,62.5,152.5,-160,-160,,152.5,332.5,SBD,Raw,1
Genevieve Betro,AZ,,,F,Open,65.18,67.5,107.5,115,-122.5,,115,55,60,65,,65,115,122.5,130,-139,130,310,SBD,Raw,2
Laura Clancy,VA,,,F,Open,66.59,67.5,,,112.5,,112.5,,,62.5,,62.5,,,132.5,,132.5,307.5,SBD,Raw,3
Heather Lesh,NC,,,F,Open,61.96,67.5,85,90,95,100,95,42.5,-50,50,-52.5,50,100,115,125,138,125,270,SBD,Raw,4
Mary Ann Wickowski,PA,,,F,Open,67,67.5,70,75,80,,80,67.5,70,72.5,73.5,72.5,107.5,112.5,117.5,,117.5,270,SBD,Raw,5
Nicole Martin,VA,,,F,Open,63.23,67.5,,,92.5,,92.5,,,42.5,,42.5,,,122.5,,122.5,257.5,SBD,Raw,6
Indya Sheehan,MA,,,F,Open,67.13,67.5,67.5,-80,-82.5,,67.5,57.5,-62.5,62.5,,62.5,112.5,120,125,,125,255,SBD,Raw,7
Larissa McCrae,MD,,,F,Open,65.82,67.5,,,72.5,,72.5,,,50,,50,,,107.5,,107.5,230,SBD,Raw,9
Samantha Duncan,NC,,,F,Open,66.77,67.5,-52.5,52.5,57.5,62.5,57.5,35,-40,-40,,35,,72.5,100,105,100,192.5,SBD,Raw,10
Angie Santiago,MN,,,F,Open,65.09,67.5,55,57.5,-62.5,,57.5,45,47.5,-50,,47.5,80,82.5,85,,85,190,SBD,Raw,11
Heather Lesh,NC,,,F,Teen 16-17,61.96,67.5,85,90,95,100,95,42.5,-50,50,-52.5,50,100,115,125,138,125,270,SBD,Raw,1
Samantha Duncan,NC,,,F,Teen 18-19,66.77,67.5,-52.5,52.5,57.5,62.5,57.5,35,-40,-40,,35,,72.5,100,105,100,192.5,SBD,Raw,1
Angie Santiago,MN,,,F,Teen 18-19,65.09,67.5,55,57.5,-62.5,,57.5,45,47.5,-50,,47.5,80,82.5,85,,85,190,SBD,Raw,2
Laura Clancy,VA,,,F,Masters 45-49,66.59,67.5,,,112.5,,112.5,,,62.5,,62.5,,,132.5,,132.5,307.5,SBD,Raw,1
Mary Ann Wickowski,PA,,,F,Masters 45-49,67,67.5,70,75,80,,80,67.5,70,72.5,73.5,72.5,107.5,112.5,117.5,,117.5,270,SBD,Raw,2
Ashley Szczepaniec,VA,,,F,Open,74.57,75,,,155,,155,,,72.5,,72.5,,,160,,160,387.5,SBD,Raw,1
Victoria Tasher,PA,,,F,Open,68.08,75,107.5,-115,120,,120,52.5,57.5,-60,,57.5,132.5,137.5,140,,140,317.5,SBD,Raw,2
Elizabeth Bartlett,AZ,,,F,Open,68.22,75,105,112.5,120,125,120,52.5,57.5,60,,60,120,130,137.5,,137.5,317.5,SBD,Raw,3
Renee Lawton,AZ,,,F,Open,71.67,75,92.5,100,-107.5,,100,50,-55,-55,,50,130,137.5,147.5,150,147.5,297.5,SBD,Raw,4
Kimberly Clark,MA,,,F,Open,69.81,75,82.5,92.5,100,,100,45,47.5,-50,,47.5,125,135,140,,140,287.5,SBD,Raw,5
Jennifer Lyonnais,AZ,,,F,Open,70.99,75,85,92.5,95,,95,67.5,72.5,-80,,72.5,105,112.5,117.5,,117.5,285,SBD,Raw,6
Sara Collins,IL,,,F,Open,68.04,75,90,97.5,-102.5,,97.5,47.5,-52.5,-52.5,,47.5,100,110,115,,115,260,SBD,Raw,7
Summer Rieve,NC,,,F,Open,74.39,75,92.5,95,-102.5,,95,42.5,-47.5,47.5,52.5,47.5,97.5,101.5,105,-123,105,247.5,SBD,Raw,8
Michelle Harison,AZ,,,F,Open,66.9,67.5,57.5,62.5,70,,70,47.5,-50,-50,,47.5,102.5,107.5,115,120,115,232.5,SBD,Raw,8
Brooke Adams,NC,,,F,Open,72.98,75,67.5,,,,67.5,45,,,,45,112.5,,,,112.5,225,SBD,Raw,9
Reuben Mosco,OK,,,F,Open,,75,,,,,,,,,,,,,,,,,SBD,Raw,DQ
Tanya Long,AZ,,,F,Open,,75,,,,,,,,,,,,,,,,,SBD,Raw,DQ
Brooke Adams,NC,,,F,Teen 14-15,72.98,75,67.5,,,,67.5,45,,,,45,112.5,,,,112.5,225,SBD,Raw,1
Summer Rieve,NC,,,F,Teen 16-17,74.39,75,92.5,95,-102.5,,95,42.5,-47.5,47.5,52.5,47.5,97.5,101.5,105,-123,105,247.5,SBD,Raw,1
Heather Calandra,AZ,,,F,Teen 16-17,74.71,75,-82.5,87.5,101,,101,-60,-62.5,-62.5,,,112.5,117.5,127.5,,127.5,,SBD,Raw,DQ
Renee Lawton,AZ,,,F,Juniors 20-24,71.67,75,92.5,100,-107.5,,100,50,-55,-55,,50,130,137.5,147.5,150,147.5,297.5,SBD,Raw,1
Kimberly Clark,MA,,,F,Juniors 20-24,69.81,75,82.5,92.5,100,,100,45,47.5,-50,,47.5,125,135,140,,140,287.5,SBD,Raw,2
Jennifer Stutz,IL,,,F,Juniors 20-24,73.94,75,92.5,100,105,,105,52.5,-57.5,-57.5,,52.5,117.5,120,-137.5,,120,277.5,SBD,Raw,3
Reuben Mosco,OK,,,F,Juniors 20-24,,75,,,,,,,,,,,,,,,,,SBD,Raw,DQ
Elizabeth Bartlett,AZ,,,F,Seniors 25-29,68.22,75,105,112.5,120,125,120,52.5,57.5,60,,60,120,130,137.5,,137.5,317.5,SBD,Raw,1
Sara Collins,IL,,,F,Seniors 25-29,68.04,75,90,97.5,-102.5,,97.5,47.5,-52.5,-52.5,,47.5,100,110,115,,115,260,SBD,Raw,2
Michelle Harison,AZ,,,F,Seniors 25-29,66.9,67.5,57.5,62.5,70,,70,47.5,-50,-50,,47.5,102.5,107.5,115,120,115,232.5,SBD,Raw,1
Tanya Long,AZ,,,F,Seniors 25-29,,75,,,,,,,,,,,,,,,,,SBD,Raw,DQ
Victoria Tasher,PA,,,F,Submasters 35-39,68.08,75,107.5,-115,120,,120,52.5,57.5,-60,,57.5,132.5,137.5,140,,140,317.5,SBD,Raw,1
Jennifer Lyonnais,AZ,,,F,Submasters 35-39,70.99,75,85,92.5,95,,95,67.5,72.5,-80,,72.5,105,112.5,117.5,,117.5,285,SBD,Raw,2
Alicia Butch,NY,,,F,Submasters 35-39,74.57,75,60,-67.5,75,,75,37.5,-45,45,,45,90,100,110,,110,230,SBD,Raw,3
Geneva Koutas,VA,,,F,Masters 60-64,72.39,75,50,60,62.5,70,62.5,45,52.5,-57.5,,52.5,60,62.5,72.5,82.5,72.5,187.5,SBD,Raw,1
Reuben Mosco,OK,,,F,Law/Fire/Military,,75,,,,,,,,,,,,,,,,,SBD,Raw,DQ
Amanda Throne,IL,,,F,Open,80.29,82.5,90,107.5,115,,115,52.5,60,-65,,60,135,147.5,-157.5,,147.5,322.5,SBD,Raw,1
Melinda Gustafson,AZ,,,F,Open,76.7,82.5,92.5,102.5,107.5,115,107.5,61,-67.5,,,61,126,130,143.5,,143.5,312,SBD,Raw,2
Brooke Bonney,NY,,,F,Teen 14-15,80.92,82.5,92.5,-107.5,107.5,110,107.5,60,67.5,-75,,67.5,102.5,115,137.5,-143,137.5,312.5,SBD,Raw,1
Amanda Throne,IL,,,F,Seniors 25-29,80.29,82.5,90,107.5,115,,115,52.5,60,-65,,60,135,147.5,-157.5,,147.5,322.5,SBD,Raw,1
Melinda Gustafson,AZ,,,F,Seniors 30-34,76.7,82.5,92.5,102.5,107.5,115,107.5,61,-67.5,,,61,126,130,143.5,,143.5,312,SBD,Raw,1
Rebecca Tucker,NY,,,F,Open,88.31,90,125,132.5,140,,140,85,92.5,-95,,92.5,150,162.5,-167.5,,162.5,395,SBD,Raw,1
Kelsie Tipton,NC,,,F,Open,87.09,90,42.5,47.5,57.5,-80,57.5,37.5,45,50,-52.5,50,60,82.5,90,97.5,90,197.5,SBD,Raw,2
Rachel Hess,PA,,,F,Teen 16-17,86.86,90,77.5,87.5,90,95,90,32.5,35,-45,,35,102.5,-112.5,125,,125,250,SBD,Raw,1
Kelsie Tipton,NC,,,F,Teen 18-19,87.09,90,42.5,47.5,57.5,-80,57.5,37.5,45,50,-52.5,50,60,82.5,90,97.5,90,197.5,SBD,Raw,1
Heather Moyers,OH,,,F,Submasters 35-39,89.81,90,,,132.5,,132.5,,,70,,70,,,145,,145,347.5,SBD,Raw,1
Stephanie Winchip,NY,,,F,Teen 14-15,95.57,90+,77.5,92.5,97.5,,97.5,45,57.5,-60,,57.5,130,-147.5,-147.5,,130,285,SBD,Raw,1
Thanh Hicks,NC,,,F,Submasters 35-39,128.19,90+,60,70,-82.5,,70,45,52.5,-57.5,,52.5,85,90,95,115,95,217.5,SBD,Raw,1
Chase Fettes,PA,,,M,Teen 14-15,39.78,40,60,65,72.5,,72.5,32.5,-40,40,,40,102.5,107.5,112.5,,112.5,225,SBD,Raw,1
Nick Hartman,PA,,,M,Teen 14-15,35.61,40,42.5,47.5,52,,52,35,37.5,40,,40,85,95,100,,100,192,SBD,Raw,2
Ari Kutin,NJ,,,M,Youth,40.96,44.5,55,-62.5,62.5,,62.5,27.5,32.5,-35,,32.5,85,-90,-90,,85,180,SBD,Raw,1
Matthias Algarin,MN,,,M,Youth,39.01,40,50,-52.5,-52.5,,50,-42.5,42.5,-45,,42.5,70,75,-80,,75,167.5,SBD,Raw,1
Robby Wickman,PA,,,M,Youth,39.83,40,42.5,50,55,,55,22.5,27.5,32.5,,32.5,62.5,67.5,75,,75,162.5,SBD,Raw,2
Steven Slate,AZ,,,M,Youth,33.88,35,22.5,27.5,35,,35,15,-27.5,-27.5,,15,32.5,42.5,47.5,,47.5,97.5,SBD,Raw,1
Evan Pittman,FL,,,M,Teen 12-13,50.62,52,82.5,90,97.5,100,97.5,45,50,-55,,50,105,112.5,122.5,,122.5,270,SBD,Raw,1
Cherokee Widner,VA,,,M,Teen 12-13,50.98,52,,,62.5,,62.5,,,62.5,,62.5,,,95,,95,220,SBD,Raw,2
Paul Cataldi,PA,,,M,Teen 16-17,54.88,56,112.5,117.5,126,,126,70,75,77.5,,77.5,142.5,147.5,152.5,,152.5,356,SBD,Raw,1
Michael Little,NC,,,M,Teen 16-17,53.07,56,-102.5,102.5,-110,,102.5,67.5,-72.5,72.5,,72.5,110,115,117,,117,292,SBD,Raw,2
Alfed Caple,NC,,,M,Teen 18-19,,56,,,,,,,,,,,,,,,,,SBD,Raw,DQ
Parker Hammer,NC,,,M,Open,59.87,60,80,82.5,90,,90,67.5,75,-85,,75,110,127.5,-137.5,,127.5,292.5,SBD,Raw,1
Davis Lee,PA,,,M,Youth,58.74,60,62.5,70,,,70,37.5,42.5,-45,,42.5,70,80.5,85,,85,197.5,SBD,Raw,1
Thomas Saedan,VA,,,M,Teen 12-13,58.06,60,57.5,75,87.5,,87.5,55,60,-62.5,,60,65,85,115,,115,262.5,SBD,Raw,1
RJ Panella,PA,,,M,Teen 12-13,59.19,60,60,75,-82.5,,75,37.5,-42.5,-42.5,,37.5,60,87.5,102.5,,102.5,215,SBD,Raw,2
Parker Hammer,NC,,,M,Teen 16-17,59.87,60,80,82.5,90,,90,67.5,75,-85,,75,110,127.5,-137.5,,127.5,292.5,SBD,Raw,1
Chris Ferranti,PA,,,M,Open,66.68,67.5,-172.5,172.5,-190,,172.5,122.5,130,135,,135,210,222.5,230,,230,537.5,SBD,Raw,1
Corey Politino,VA,,,M,Open,66.5,67.5,137.5,147.5,152.5,155,152.5,110,112.5,117.5,,117.5,170,185,-187.5,,185,455,SBD,Raw,2
Zac Reese,PA,,,M,Open,67.13,67.5,145,160,165,,165,-102.5,-102.5,102.5,,102.5,185,-197.5,-197.5,,185,452.5,SBD,Raw,3
Tyler Miller,VA,,,M,Open,64.59,67.5,,,140,,140,,,90,,90,,,205,,205,435,SBD,Raw,4
Anthony Brown,NC,,,M,Open,66.04,67.5,95,120,-132.5,,120,72.5,-85,85,,85,175,185,192.5,,192.5,397.5,SBD,Raw,5
Bill Rehl,NC,,,M,Open,65.5,67.5,125,-145,-145,,125,-85,85,-92.5,,85,170,-182.5,-182.5,,170,380,SBD,Raw,6
Jason Gorr,NY,,,M,Teen 12-13,65.82,67.5,-70,70,-92.5,,70,35,45,-57.5,,45,90,97.5,100,,100,215,SBD,Raw,1
Gabriel Pinney,NC,,,M,Teen 14-15,66.41,67.5,112.5,132.5,140,,140,52.5,60,-67.5,,60,125,142.5,155,,155,355,SBD,Raw,1
Grayson Hull,VA,,,M,Teen 14-15,64.05,67.5,-115,-115,115,,115,70,-75,75,,75,120,130,137.5,,137.5,327.5,SBD,Raw,2
Austin Tome,PA,,,M,Teen 14-15,66.18,67.5,90,97.5,105,,105,67.5,72.5,75,,75,130,140,147.5,,147.5,327.5,SBD,Raw,3
Jacob Angradi,PA,,,M,Teen 14-15,66.59,67.5,65,77.5,87.5,,87.5,47.5,60,-62.5,,60,115,122.5,137.5,,137.5,285,SBD,Raw,4
Nicholas Sutton,PA,,,M,Teen 14-15,64.86,67.5,75,85,90,,90,52.5,57.5,-60,,57.5,105,115,122.5,,122.5,270,SBD,Raw,5
Anthony Brown,NC,,,M,Teen 16-17,66.04,67.5,95,120,-132.5,,120,72.5,-85,85,,85,175,185,192.5,,192.5,397.5,SBD,Raw,1
Tim Lamaster,,,,M,Teen 16-17,67.49,67.5,107.5,115,122.5,,122.5,85,90,-95,,90,165,-180,182.5,,182.5,395,SBD,Raw,2
Romello Spence,NC,,,M,Teen 16-17,60.87,67.5,92.5,100,110,120,110,62.5,-70,-70,,62.5,137.5,142.5,147.5,,147.5,320,SBD,Raw,3
Jesse Boone,NC,,,M,Teen 16-17,66.81,67.5,90,95,100,,100,75,80,90,,90,130,-155,-155,,130,320,SBD,Raw,4
Drew Gibbons,VA,,,M,Teen 16-17,66.32,67.5,,,85,,85,,,92.5,,92.5,,,127.5,,127.5,305,SBD,Raw,5
Stephen Worrell,NC,,,M,Teen 16-17,67.13,67.5,90,100,110,,110,-100,-100,-100,,,150,160,175,,175,,SBD,Raw,DQ
Adam Meinhardt,NC,,,M,Teen 18-19,66.63,67.5,140,145,150,,150,80,90,92.5,,92.5,190,200,210,,210,452.5,SBD,Raw,1
Tyler Miller,VA,,,M,Teen 18-19,64.59,67.5,,,140,,140,,,90,,90,,,205,,205,435,SBD,Raw,2
Stephen Banks,NC,,,M,Teen 18-19,61.51,67.5,-92.5,-92.5,-92.5,,,45,60,72.5,,72.5,75,92.5,112.5,,112.5,,SBD,Raw,DQ
Chris Ferranti,PA,,,M,Juniors 20-24,66.68,67.5,-172.5,172.5,-190,,172.5,122.5,130,135,,135,210,222.5,230,,230,537.5,SBD,Raw,1
Zac Reese,PA,,,M,Juniors 20-24,67.13,67.5,145,160,165,,165,-102.5,-102.5,102.5,,102.5,185,-197.5,-197.5,,185,452.5,SBD,Raw,2
Calvin Law,VA,,,M,Juniors 20-24,66.59,67.5,135,150,-165,,150,85,-92.5,-92.5,,85,210,-220,-220,,210,445,SBD,Raw,3
Gary Whetzel,WV,,,M,Juniors 20-24,66.59,67.5,,,112.5,,112.5,,,112.5,,112.5,,,177.5,,177.5,402.5,SBD,Raw,4
Steven Foltin,,,,M,Seniors 25-29,67.13,67.5,175,-185,-185,,175,105,-115,-115,,105,195,-207.5,-207.5,,195,475,SBD,Raw,1
Corey Politino,VA,,,M,Submasters 35-39,66.5,67.5,137.5,147.5,152.5,155,152.5,110,112.5,117.5,,117.5,170,185,-187.5,,185,455,SBD,Raw,1
Bill Rehl,NC,,,M,Masters 40-44,65.5,67.5,125,-145,-145,,125,-85,85,-92.5,,85,170,-182.5,-182.5,,170,380,SBD,Raw,1
John Bissen,,,,M,Masters 55-59,64.86,67.5,-107.5,112,137.5,,137.5,75,90,92.5,,92.5,170,192.5,197.5,-200,197.5,427.5,SBD,Raw,1
Corey Politino,VA,,,M,Law/Fire/Military,66.5,67.5,137.5,147.5,152.5,155,152.5,110,112.5,117.5,,117.5,170,185,-187.5,,185,455,SBD,Raw,1
Rich Campbell,PA,,,M,Open,74.8,75,202.5,-227.5,-227.5,,202.5,125,-138,142.5,,142.5,232.5,250,-272.5,,250,595,SBD,Raw,1
Ramon Cruz,PA,,,M,Open,74.39,75,192.5,205,-211,,205,122.5,127.5,-130,,127.5,205,-215,-215,,205,537.5,SBD,Raw,2
Joshua Mink,PA,,,M,Open,73.57,75,160,172.5,-185,,172.5,115,125,130,,130,202.5,220,-230,,220,522.5,SBD,Raw,3
Marcus Morris,NY,,,M,Open,74.8,75,155,162.5,167.5,,167.5,115,122.5,-137.5,,122.5,205,212.5,-227.5,,212.5,502.5,SBD,Raw,4
Travis Gardner,IA,,,M,Open,72.12,75,140,155,-162.5,,155,117.5,130,-137.5,,130,182.5,195,-205,,195,480,SBD,Raw,5
Anthony Beamer,PA,,,M,Open,74.3,75,147.5,-160,-167.5,,147.5,112.5,120,-125,,120,187.5,200,-205,,200,467.5,SBD,Raw,6
Richard Schreiber,IL,,,M,Open,73.48,75,150,155,160,,160,120,125,127.5,,127.5,150,165,175,,175,462.5,SBD,Raw,7
Stuart Roy,VA,,,M,Open,73.98,75,,,147.5,,147.5,,,105,,105,,,195,,195,447.5,SBD,Raw,8
David Teague,NC,,,M,Open,74.03,75,152.5,-172.5,-172.5,,152.5,102.5,115,-122.5,,115,157.5,175,-197.5,,175,442.5,SBD,Raw,9
Brandon Petitt,NC,,,M,Open,74.57,75,127.5,137.5,145,,145,82.5,87.5,,,87.5,185,197.5,-207.5,,197.5,430,SBD,Raw,10
Ronnie Garner,NC,,,M,Open,72.21,75,102.5,115,125,,125,110,120,122.5,,122.5,145,157.5,170,,170,417.5,SBD,Raw,11
Colby Davenport,NC,,,M,Open,67.68,75,-145,-145,145,,145,97.5,100,-105,,100,160,-170,,,160,405,SBD,Raw,12
Dyshone Brown,NC,,,M,Open,74.66,75,112.5,117.5,-125,,117.5,87.5,95,102.5,,102.5,137.5,160,175,,175,395,SBD,Raw,13
Joseph Styous,NC,,,M,Open,74.84,75,112.5,117.5,-127.5,,117.5,92.5,95,-105,,95,150,170,-175,,170,382.5,SBD,Raw,14
Dylan Chappell,NC,,,M,Open,74.03,75,90,100,110,,110,75,80,90,,90,155,170,180,,180,380,SBD,Raw,15
Clay Caputo,IL,,,M,Open,73.71,75,125,-142.5,-145,,125,-125,-125,-125,,,185,205,225,-248,225,,SBD,Raw,DQ
Ryan Melton,VA,,,M,Teen 12-13,70.13,75,,,80,,80,,,85,,85,,,105,,105,270,SBD,Raw,1
Ryan Coffey,PA,,,M,Teen 14-15,72.98,75,147.5,165,172.5,,172.5,110,118,125,,125,160,180,190,,190,487.5,SBD,Raw,1
Nicholas Cataldi,PA,,,M,Teen 14-15,74.84,75,92.5,95,100,,100,57.5,60,62.5,,62.5,120,125,137.5,,137.5,300,SBD,Raw,2
Javin Helsel,AZ,,,M,Teen 14-15,74.84,75,,-100,-100,,,87.5,97.5,102.5,,102.5,112.5,136,147.5,,147.5,,SBD,Raw,DQ
Brian Watkins,AZ,,,M,Teen 16-17,69.85,75,125,140,-147.5,,140,97.5,105,-112.5,,105,160,177.5,-201,,177.5,422.5,SBD,Raw,1
Michael Nordberg,NY,,,M,Teen 16-17,73.62,75,-122.5,-132.5,132.5,,132.5,107.5,-115,-115,,107.5,180,-185,-185,,180,420,SBD,Raw,2
Colby Davenport,NC,,,M,Teen 16-17,67.68,75,-145,-145,145,,145,97.5,100,-105,,100,160,-170,,,160,405,SBD,Raw,3
Cesar Tapia,NJ,,,M,Teen 16-17,73.89,75,125,142.5,160,,160,72.5,87.5,92.5,,92.5,117.5,142.5,-165,,142.5,395,SBD,Raw,4
Rylin Estivariz,AZ,,,M,Teen 16-17,69.85,75,122.5,127.5,130,,130,72.5,77.5,-82.5,,77.5,120,125,137.5,,137.5,345,SBD,Raw,5
David Lyons,NY,,,M,Teen 18-19,74.53,75,137.5,152.5,165,,165,145,155,160,-165,160,150,165,182.5,,182.5,507.5,SBD,Raw,1
Brandon Petitt,NC,,,M,Teen 18-19,74.57,75,127.5,137.5,145,,145,82.5,87.5,,,87.5,185,197.5,-207.5,,197.5,430,SBD,Raw,2
Kelly Hughes #2,NC,,,M,Teen 18-19,72.85,75,127.5,-132.5,-132.5,,127.5,95,110,125,,125,162.5,172.5,-190,,172.5,425,SBD,Raw,3
Dyshone Brown,NC,,,M,Teen 18-19,74.66,75,112.5,117.5,-125,,117.5,87.5,95,102.5,,102.5,137.5,160,175,,175,395,SBD,Raw,4
Joseph Styous,NC,,,M,Teen 18-19,74.84,75,112.5,117.5,-127.5,,117.5,92.5,95,-105,,95,150,170,-175,,170,382.5,SBD,Raw,5
Dylan Chappell,NC,,,M,Teen 18-19,74.03,75,90,100,110,,110,75,80,90,,90,155,170,180,,180,380,SBD,Raw,6
Kyle Reed,NC,,,M,Teen 18-19,72.26,75,75,85,90,,90,90,100,110,,110,160,170,177.5,,177.5,377.5,SBD,Raw,7
Clay Caputo,IL,,,M,Teen 18-19,73.71,75,125,-142.5,-145,,125,-125,-125,-125,,,185,205,225,-248,225,,SBD,Raw,DQ
Brett Freeman,NY,,,M,Juniors 20-24,72.71,75,205,215,-217.5,,215,112.5,122.5,-127.5,,122.5,207.5,220,-227.5,,220,557.5,SBD,Raw,1
Joshua Mink,PA,,,M,Juniors 20-24,73.57,75,160,172.5,-185,,172.5,115,125,130,,130,202.5,220,-230,,220,522.5,SBD,Raw,2
Daniel Segal,VA,,,M,Juniors 20-24,74.48,75,,,177.5,,177.5,,,125,,125,,,212.5,,212.5,515,SBD,Raw,3
Travis Gardner,IA,,,M,Juniors 20-24,72.12,75,140,155,-162.5,,155,117.5,130,-137.5,,130,182.5,195,-205,,195,480,SBD,Raw,4
Donald Middleton,VA,,,M,Juniors 20-24,74.3,75,,,105,,105,,,85,,85,,,212.5,,212.5,402.5,SBD,Raw,5
Anthony Beamer,PA,,,M,Seniors 25-29,74.3,75,147.5,-160,-167.5,,147.5,112.5,120,-125,,120,187.5,200,-205,,200,467.5,SBD,Raw,1
David Teague,NC,,,M,Seniors 25-29,74.03,75,152.5,-172.5,-172.5,,152.5,102.5,115,-122.5,,115,157.5,175,-197.5,,175,442.5,SBD,Raw,2
Brian Jones,AZ,,,M,Seniors 30-34,73.84,75,142.5,-162.5,-163,,142.5,110,117.5,-126,,117.5,182.5,-193.5,-193.5,,182.5,442.5,SBD,Raw,1
JJ Barry,VA,,,M,Submasters 35-39,68.58,75,,,137.5,,137.5,,,75,,75,,,160,,160,372.5,SBD,Raw,1
Stuart Roy,VA,,,M,Masters 40-44,73.98,75,,,147.5,,147.5,,,105,,105,,,195,,195,447.5,SBD,Raw,1
Ronnie Garner,NC,,,M,Masters 40-44,72.21,75,102.5,115,125,,125,110,120,122.5,,122.5,145,157.5,170,,170,417.5,SBD,Raw,2
Ramon Cruz,PA,,,M,Masters 50-54,74.39,75,192.5,205,-211,,205,122.5,127.5,-130,,127.5,205,-215,-215,,205,537.5,SBD,Raw,1
Richard Schreiber,IL,,,M,Masters 50-54,73.48,75,150,155,160,,160,120,125,127.5,,127.5,150,165,175,,175,462.5,SBD,Raw,2
Rich Hutchhison,MD,,,M,Masters 70-74,73.53,75,,,147.5,,147.5,,,87.5,,87.5,,,192.5,,192.5,427.5,SBD,Raw,1
Donald Clay Judd,,,,M,Masters 70-74,73.94,75,75,85,-90,,85,50,55,57.5,,57.5,105,115,125,,125,267.5,SBD,Raw,2
Brian Jones,AZ,,,M,Law/Fire/Military,73.84,75,142.5,-162.5,-163,,142.5,110,117.5,-126,,117.5,182.5,-193.5,-193.5,,182.5,442.5,SBD,Raw,1
Gleb Epelbaum,PA,,,M,Open,82.1,82.5,227.5,240,-245,,240,137.5,145,147.5,,147.5,265,277.5,282.5,,282.5,670,SBD,Raw,1
Luke Hisghman,VA,,,M,Open,77.93,82.5,,,220,,220,,,152.5,,152.5,,,215,,215,587.5,SBD,Raw,2
Keith Schneider,OH,,,M,Open,80.06,82.5,180,-195,202.5,,202.5,110,-118,-120,,110,220,235,242.5,,242.5,555,SBD,Raw,3
John Welch #2,IL,,,M,Open,80.97,82.5,165,182.5,-190,,182.5,110,117.5,-122.5,,117.5,225,237.5,245,,245,545,SBD,Raw,4
Jonathan Jazwinski,AZ,,,M,Open,82.1,82.5,160,175,-180,,175,127.5,140,-145,,140,197.5,215,-222.5,,215,530,SBD,Raw,5
Michael Carson,PA,,,M,Open,81.78,82.5,152.5,165,167.5,,167.5,120,-130,130,,130,195,212.5,215,,215,512.5,SBD,Raw,6
Michael Parrish,IL,,,M,Open,81.65,82.5,165,175,-182.5,,175,115,-120,-122.5,,115,190,207.5,220,,220,510,SBD,Raw,7
Brian Espino,NY,,,M,Open,82.46,82.5,142.5,155,-165,,155,122.5,127.5,-132.5,,127.5,180,200,222.5,,222.5,505,SBD,Raw,8
Billy Nixon,NC,,,M,Open,78.83,82.5,150,165,177.5,,177.5,115,120,-127.5,,120,185,205,-215,,205,502.5,SBD,Raw,9
Daniel Calmer,PA,,,M,Open,78.93,82.5,155,167.5,180,,180,97.5,102.5,107.5,,107.5,205,-227.5,-227.5,,205,492.5,SBD,Raw,10
Brian McIntyre,VA,,,M,Open,80.29,82.5,132.5,137.5,147.5,,147.5,130,132.5,137.5,,137.5,172.5,182.5,195,,195,480,SBD,Raw,11
Jason Dehenzel,VA,,,M,Open,81.7,82.5,,,165,,165,,,112.5,,112.5,,,200,,200,477.5,SBD,Raw,12
Joe Orengia,PA,,,M,Open,80.29,82.5,127.5,-135,135,,135,97.5,102.5,-105,,102.5,185,202.35,207.5,,207.5,445,SBD,Raw,13
Derek Gallo,NC,,,M,Open,80.83,82.5,-130,130,137.5,,137.5,-120,122.5,-130,,122.5,165,170,177.5,,177.5,437.5,SBD,Raw,14
Kevin Williams,NC,,,M,Open,81.69,82.5,140,145,147.5,,147.5,100,110,115,,115,165,175,-190,,175,437.5,SBD,Raw,15
David Boone,NC,,,M,Open,79.56,82.5,135,142.5,147.5,,147.5,100,105,110,,110,165,175,177.5,,177.5,435,SBD,Raw,16
Tyler Atkinson,NC,,,M,Open,80.69,82.5,132.5,137.5,-142.5,,137.5,-82.5,82.5,-92.5,,82.5,125,132.5,140,,140,360,SBD,Raw,17
Carl Riggleman,VA,,,M,Open,76.29,82.5,,,112.5,,112.5,,,75,,75,,,142.5,,142.5,330,SBD,Raw,18
Tim Stokes,IA,,,M,Open,79.38,82.5,-185,197.5,-200,,197.5,-130,-130,-130,,,-187.5,,,,,,SBD,Raw,DQ
Silas Schneider,AZ,,,M,Teen 12-13,77.93,82.5,90,95,97.5,,97.5,52.5,60,65,,65,95,102.5,107.5,,107.5,270,SBD,Raw,1
Alex Fielder,PA,,,M,Teen 14-15,79.56,82.5,157.5,165,-170,,165,82.5,90,95,,95,200,207.5,-227.5,,207.5,467.5,SBD,Raw,1
Daniel Hernandez,AZ,,,M,Teen 14-15,79.61,82.5,95,100,115,,115,85,92.5,97.5,,97.5,180,195,-200,,195,407.5,SBD,Raw,2
Brendan Primodie,PA,,,M,Teen 16-17,80.97,82.5,125,135,-142.5,,135,80,-90,90,,90,155,170,175,,175,400,SBD,Raw,1
Joshua Sweeney,NY,,,M,Teen 16-17,77.02,82.5,-77.5,92.5,105,,105,82.5,-92.5,92.5,,92.5,170,197.5,-205,,197.5,395,SBD,Raw,2
Tyler Atkinson,NC,,,M,Teen 16-17,80.69,82.5,132.5,137.5,-142.5,,137.5,-82.5,82.5,-92.5,,82.5,125,132.5,140,,140,360,SBD,Raw,3
Anthony Bioyles,AZ,,,M,Teen 16-17,80.74,82.5,142.5,-150,-150,,142.5,-102.5,,,,,,,,,,,SBD,Raw,DQ
Miguel Santana,NJ,,,M,Teen 18-19,78.02,82.5,155,170,-182.5,,170,102.5,110,-117.5,,110,187.5,202.5,217.5,,217.5,497.5,SBD,Raw,1
Kevin Williams,NC,,,M,Teen 18-19,81.69,82.5,140,145,147.5,,147.5,100,110,115,,115,165,175,-190,,175,437.5,SBD,Raw,2
Keith Schneider,OH,,,M,Juniors 20-24,80.06,82.5,180,-195,202.5,,202.5,110,-118,-120,,110,220,235,242.5,,242.5,555,SBD,Raw,1
John Welch #2,IL,,,M,Juniors 20-24,80.97,82.5,165,182.5,-190,,182.5,110,117.5,-122.5,,117.5,225,237.5,245,,245,545,SBD,Raw,2
Jeff Butts,WV,,,M,Juniors 20-24,81.56,82.5,,,182.5,,182.5,,,142.5,,142.5,,,170,,170,495,SBD,Raw,3
James Maines,NC,,,M,Juniors 20-24,80.38,82.5,125,137,145,,145,95,102,-107.5,,102,170,185,210,,210,457,SBD,Raw,4
Andrew Williams,VA,,,M,Juniors 20-24,78.83,82.5,,,157.5,,157.5,,,102.5,,102.5,,,192.5,,192.5,452.5,SBD,Raw,5
David Boone,NC,,,M,Juniors 20-24,79.56,82.5,135,142.5,147.5,,147.5,100,105,110,,110,165,175,177.5,,177.5,435,SBD,Raw,6
Jason Pifer,NC,,,M,Juniors 20-24,82.01,82.5,102.5,117.5,130,,130,85,95,105,,105,145,165,187.5,,187.5,422.5,SBD,Raw,7
Manuel Viegas,AZ,,,M,Juniors 20-24,80.29,82.5,145,-157.5,-157.5,,145,70,80,85,,85,165,185,-192.5,,185,415,SBD,Raw,8
Marck Lapezynski,IL,,,M,Juniors 20-24,77.38,82.5,115,127.5,140,,140,92.5,97.5,100,,100,155,165,-170,,165,405,SBD,Raw,9
Chad Stewart,MA,,,M,Juniors 20-24,79.38,82.5,120,-122.5,-125,,120,80,85,-90,,85,175,182.5,190,,190,395,SBD,Raw,10
Brian Shumway,PA,,,M,Juniors 20-24,81.42,82.5,152.5,160,-165,,160,-110,-120,-120,,,185,-202.5,202.5,,202.5,,SBD,Raw,DQ
Michael Parrish,IL,,,M,Seniors 25-29,81.65,82.5,165,175,-182.5,,175,115,-120,-122.5,,115,190,207.5,220,,220,510,SBD,Raw,1
Brent Carter,NY,,,M,Seniors 25-29,78.52,82.5,,,137.5,,137.5,,,102.5,,102.5,,,165,,165,405,SBD,Raw,2
Jonathan Jazwinski,AZ,,,M,Seniors 30-34,82.1,82.5,160,175,-180,,175,127.5,140,-145,,140,197.5,215,-222.5,,215,530,SBD,Raw,1
Aaron Brown,AZ,,,M,Seniors 30-34,78.47,82.5,-150,150,-157.5,,150,-92.5,92.5,97.5,,97.5,172.5,182.5,190,,190,437.5,SBD,Raw,2
Michael Carson,PA,,,M,Submasters 35-39,81.78,82.5,152.5,165,167.5,,167.5,120,-130,130,,130,195,212.5,215,,215,512.5,SBD,Raw,1
Brian McIntyre,VA,,,M,Submasters 35-39,80.29,82.5,132.5,137.5,147.5,,147.5,130,132.5,137.5,,137.5,172.5,182.5,195,,195,480,SBD,Raw,2
Jason Foust,NE,,,M,Submasters 35-39,,82.5,,,,,,,,,,,,,,,,,SBD,Raw,DQ
William Lamberti,IL,,,M,Masters 40-44,79.83,82.5,152.5,157.5,-160,,157.5,-95,97.5,-100,,97.5,197.5,205,,,205,460,SBD,Raw,1
Scott Runyan,NE,,,M,Masters 45-49,80.06,82.5,137.5,152.5,-165,,152.5,102.5,117.5,-127.5,,117.5,137.5,162.5,172.5,,172.5,442.5,SBD,Raw,1
Harold Shellhammer,PA,,,M,Masters 55-59,80.29,82.5,127.5,-137.5,-137.5,,127.5,-105,105,112.5,,112.5,170,-180,182.5,,182.5,422.5,SBD,Raw,1
William Deloney,,,,M,Masters 60-64,80.74,82.5,130,135,-142.5,,135,132.5,137.5,140,,140,157.5,-170,,,157.5,432.5,SBD,Raw,1
Brig Seaver,NY,,,M,Masters 60-64,77.84,82.5,100,105,112.5,,112.5,82.5,85,-90,,85,145,152.5,165,,165,362.5,SBD,Raw,2
Joe Orengia,PA,,,M,Masters 65-69,80.29,82.5,127.5,-135,135,,135,97.5,102.5,-105,,102.5,185,202.35,207.5,,207.5,445,SBD,Raw,1
Ronnie Powell,NC,,,M,Masters 65-69,80.1,82.5,102.5,-120,120,,120,102.5,115,-125,,115,165,182.5,-205,,182.5,417.5,SBD,Raw,2
Victor Biryukov,,Russia,,M,Open,88.77,90,255,-273,273,,273,155,172.5,-177.5,,172.5,260,275,-301,,275,720.5,SBD,Raw,G
Corey Hadzick,PA,,,M,Open,86.18,90,205,215,-222.5,,215,135,-140,-140,,135,240,247.5,-250,,247.5,597.5,SBD,Raw,1
David Dibble,PA,,,M,Open,89.22,90,187.5,197.5,205,,205,140,145,150,,150,232.5,-240,-240,,232.5,587.5,SBD,Raw,2
John King,NC,,,M,Open,89.36,90,170,187.5,-200,,187.5,130,-140,140,,140,215,235,250,,250,577.5,SBD,Raw,3
Donovan Muldrow,IL,,,M,Open,84.14,90,190,195,-200,,195,132.5,-145,,,132.5,240,-250,-260,,240,567.5,SBD,Raw,4
Edward Betza,PA,,,M,Open,89.58,90,-175,-175,182.5,,182.5,130,137.5,142.5,,142.5,227.5,242.5,-261,,242.5,567.5,SBD,Raw,5
Matt Fox,PA,,,M,Open,89.99,90,172.5,185,192.5,,192.5,127.5,140,145,,145,200,215,227.5,,227.5,565,SBD,Raw,6
Ryan Delman,NJ,,,M,Open,88.36,90,175,190,195,,195,130,-140,-140,,130,205,227.5,235,,235,560,SBD,Raw,7
Jesse Hodges,LA,,,M,Open,88.5,90,185,190,192.5,,192.5,137.5,140,145,,145,200,210,215,,215,552.5,SBD,Raw,8
Mario Toborov,NC,,,M,Open,89.36,90,150,165,-180,,165,142.5,147.5,-150,,147.5,200,215.5,225,,225,537.5,SBD,Raw,9
Scott Oleson,MA,,,M,Open,84.59,90,135,-150,150,,150,115,-125,-125,,115,185,-200,-202.5,,185,450,SBD,Raw,10
Gabe Hills,NY,,,M,Open,88.18,90,142.5,147.5,-155,,147.5,102.5,-117.5,117.5,,117.5,180,-210,-210,,180,445,SBD,Raw,11
Grant Schoenewerk,NC,,,M,Open,88.18,90,152.5,160,162.5,,162.5,90,-97.5,,,90,175,,,,175,427.5,SBD,Raw,12
Bennie Lindsey,NC,,,M,Open,87.91,90,130,-150,-160,,130,92.5,-95,-95,,92.5,182.5,200,-215,,200,422.5,SBD,Raw,13
Andres Bermudez,NJ,,,M,Teen 14-15,87.77,90,107.5,125,137.5,,137.5,62.5,80,85,,85,117.5,137.5,150,,150,372.5,SBD,Raw,1
Cody Judge,NC,,,M,Teen 14-15,89.18,90,102.5,117.5,122.5,,122.5,62.5,72.5,-77.5,,72.5,120,132.5,145,,145,340,SBD,Raw,2
Robbie Karstendiek,PA,,,M,Teen 16-17,87.36,90,197.5,-215,215,217.5,215,127.5,132.5,137.5,,137.5,245,260,-277.5,,260,612.5,SBD,Raw,1
Grant Schoenewerk,NC,,,M,Teen 16-17,88.18,90,152.5,160,162.5,,162.5,90,-97.5,,,90,175,,,,175,427.5,SBD,Raw,2
Bennie Lindsey,NC,,,M,Teen 16-17,87.91,90,130,-150,-160,,130,92.5,-95,-95,,92.5,182.5,200,-215,,200,422.5,SBD,Raw,3
Chris Stefenack,NC,,,M,Teen 16-17,88.68,90,140,150,152.5,,152.5,100,-110,-110,,100,160,170,-200,,170,422.5,SBD,Raw,4
Bradley Sherman,VA,,,M,Teen 16-17,89.87,90,,,107.5,,107.5,,,105,,105,,,175,,175,387.5,SBD,Raw,5
Dustin Brooks #2,VA,,,M,Teen 18-19,89.54,90,182.5,192.5,197.5,,197.5,122.5,-130,,,122.5,227.5,232.5,-242.5,,232.5,552.5,SBD,Raw,1
Randall Harrison,PA,,,M,Teen 18-19,88.36,90,-162.5,-162.5,162.5,,162.5,110,115,-120,,115,187.5,-195,195,,195,472.5,SBD,Raw,2
James Prince,NC,,,M,Teen 18-19,88.18,90,132.5,-140,-140,,132.5,100,112.5,120,,120,180,200,-215,,200,452.5,SBD,Raw,3
Tyler Kouskoris,NC,,,M,Teen 18-19,86.27,90,130,140,150,,150,85,95,110,,110,175,185,190,,190,450,SBD,Raw,4
John King,NC,,,M,Juniors 20-24,89.36,90,170,187.5,-200,,187.5,130,-140,140,,140,215,235,250,,250,577.5,SBD,Raw,1
Matthew Orebaugh,VA,,,M,Juniors 20-24,88.45,90,,,182.5,,182.5,,,150,,150,,,240,,240,572.5,SBD,Raw,2
Stephen Cauley,VA,,,M,Juniors 20-24,86.68,90,,,180,,180,,,145,,145,,,235,,235,560,SBD,Raw,3
Chase Elliott,NC,,,M,Juniors 20-24,84.82,90,-142.5,142.5,-155,,142.5,142.5,-150,150,,150,205,220,-230,,220,512.5,SBD,Raw,4
Tim Vinick,NC,,,M,Juniors 20-24,89.49,90,150,155,157.5,,157.5,100,110,115,,115,190,195,200,,200,472.5,SBD,Raw,5
Gilbert King,NC,,,M,Juniors 20-24,89.81,90,110,125,137.5,,137.5,102.5,112.5,-117.5,,112.5,165,187.5,210,,210,460,SBD,Raw,6
Neil Walker,MA,,,M,Juniors 20-24,89.77,90,-127.5,127.5,132.5,,132.5,-120,-120,120,,120,205,-232.5,-232.5,,205,457.5,SBD,Raw,7
Christian Gray,NJ,,,M,Juniors 20-24,89.18,90,115,135,145,,145,110,115,120,,120,165,175,180,,180,445,SBD,Raw,8
Brendan Riley,VA,,,M,Juniors 20-24,86.7,90,,,142.5,,142.5,,,90,,90,,,192.5,,192.5,425,SBD,Raw,9
Robert Saunders,NC,,,M,Juniors 20-24,89.09,90,-145,145,-155,,145,102,-112.5,-112.5,,102,-185,-200,-200,,,,SBD,Raw,DQ
Donovan Muldrow,IL,,,M,Seniors 25-29,84.14,90,190,195,-200,,195,132.5,-145,,,132.5,240,-250,-260,,240,567.5,SBD,Raw,1
Adam Greely,AZ,,,M,Seniors 30-34,88.99,90,-182.5,190,197.5,,197.5,150,157.5,165,,165,202.5,215,227.5,,227.5,590,SBD,Raw,1
Mario Toborov,NC,,,M,Seniors 30-34,89.36,90,150,165,-180,,165,142.5,147.5,-150,,147.5,200,215.5,225,,225,537.5,SBD,Raw,2
David Dibble,PA,,,M,Submasters 35-39,89.22,90,187.5,197.5,205,,205,140,145,150,,150,232.5,-240,-240,,232.5,587.5,SBD,Raw,1
Jesse Hodges,LA,,,M,Submasters 35-39,88.5,90,185,190,192.5,,192.5,137.5,140,145,,145,200,210,215,,215,552.5,SBD,Raw,2
Edward Betza,PA,,,M,Masters 45-49,89.58,90,-175,-175,182.5,,182.5,130,137.5,142.5,,142.5,227.5,242.5,-261,,242.5,567.5,SBD,Raw,1
Donald Silveus,VA,,,M,Masters 45-49,87.45,90,,,155,,155,,,115,,115,,,172.5,,172.5,442.5,SBD,Raw,2
Mike Hemmig,PA,,,M,Masters 45-49,86.77,90,130,132.5,140,,140,97.5,102.5,-110,,102.5,185,195,-197.5,,195,437.5,SBD,Raw,3
Mark Fadke,IL,,,M,Masters 55-59,88.22,90,160,175,182.5,,182.5,110,117.5,-120,,117.5,125,127.5,130,,130,430,SBD,Raw,1
Bugs Bayer,PA,,,M,Masters 65-69,88.77,90,200,-220,220,,220,92.5,100,103,,103,220,-242.5,,,220,543,SBD,Raw,1
Alan Dean Foster,AZ,,,M,Masters 65-69,88,90,92.5,105,-112.5,,105,130,135,-137.5,,135,125,132.5,140,,140,380,SBD,Raw,2
Peter Jezyk,AZ,,,M,Masters 70-74,83.01,90,115,-125,-127.5,,115,37.5,43.5,,,43.5,137.5,145,-155,,145,303.5,SBD,Raw,1
Shaun Trimarco,IL,,,M,Open,95.71,100,215,230,240,,240,135,142.5,147.5,,147.5,265,-287.5,287.5,,287.5,675,SBD,Raw,1
Marshall Dornink,NY,,,M,Open,97.3,100,-230,232.5,-235,,232.5,-165,167.5,-175,,167.5,257.5,267.5,-275,,267.5,667.5,SBD,Raw,2
Tim Lester,VA,,,M,Open,99.79,100,205,215,-230,,215,127.5,137.5,-145,,137.5,265,275,-287.5,,275,627.5,SBD,Raw,3
Michael Richards,VA,,,M,Open,97.7,100,,,205,,205,,,165,,165,,,252.5,,252.5,622.5,SBD,Raw,4
Tim Sparks,AZ,,,M,Open,98.66,100,202.5,,,,202.5,120,-135,-135,,120,285,,,,285,607.5,SBD,Raw,5
Giovanni Giuliano,IL,,,M,Open,98.88,100,175,190,200,,200,147.5,-163,,,147.5,250,260,,,260,607.5,SBD,Raw,6
Nicholas Schneider,PA,,,M,Open,93.17,100,192.5,-217.5,-217.5,,192.5,120,130,-135,,130,225,242.5,-255,,242.5,565,SBD,Raw,7
Cody Axon,NE,,,M,Open,99.11,100,165,185,-197.5,,185,-135,140,-152.5,,140,225,-237.5,237.5,,237.5,562.5,SBD,Raw,8
Robert Crandall,,,,M,Open,95.03,100,180,192,206,,206,120,135,-140,,135,180,200,210,,210,551,SBD,Raw,9
Chase Riggins,NC,,,M,Open,92.71,100,147.5,160,-170,,160,130,137.5,145,,145,170,182.5,195,,195,500,SBD,Raw,10
Ian McCrae,MD,,,M,Open,97.43,100,,,167.5,,167.5,,,110,,110,,,205,,205,482.5,SBD,Raw,12
Tim Slate,AZ,,,M,Open,93.3,100,102.5,120,132.5,,132.5,75,80,85,,85,115,137.5,-160,,137.5,355,SBD,Raw,13
Sean Skdzielewski,NJ,,,M,Open,,100,,,,,,,,,,,,,,,,,SBD,Raw,DQ
Keegan Levesque,NY,,,M,Teen 16-17,93.85,100,205,215,230,,230,-167.5,185,192.5,,192.5,217.5,240,-272.5,,240,662.5,SBD,Raw,1
Damian Velez,NJ,,,M,Teen 18-19,90.58,100,125,150,175,,175,90,97.5,105,,105,187.5,220,235,,235,515,SBD,Raw,1
Dimitrie Felton,NC,,,M,Teen 18-19,97.52,100,-145,145,-175,,145,-125,125,-130,,125,192.5,205,215,,215,485,SBD,Raw,3
Zachery Marsh,NY,,,M,Teen 18-19,97.07,100,-122.5,135,-160,,135,-80,92.5,-97.5,,92.5,150,177.5,-202.5,,177.5,405,SBD,Raw,4
Preston Stickle,NC,,,M,Teen 18-19,97.07,100,-107.5,-107.5,107.5,,107.5,85,90,-92.5,,90,142.5,152.5,160,,160,357.5,SBD,Raw,5
Cody Axon,NE,,,M,Juniors 20-24,99.11,100,165,185,-197.5,,185,-135,140,-152.5,,140,225,-237.5,237.5,,237.5,562.5,SBD,Raw,1
Zachary Danvers,NY,,,M,Juniors 20-24,93.35,100,170,-180,180,,180,120,130,-142.5,,130,172.5,187.5,200,,200,510,SBD,Raw,2
Mathew Rice,NY,,,M,Juniors 20-24,95.75,100,140,150,185,,185,92.5,97.5,-110,,97.5,222.5,-232.5,-260,,222.5,505,SBD,Raw,3
Tim Lester,VA,,,M,Seniors 25-29,99.79,100,205,215,-230,,215,127.5,137.5,-145,,137.5,265,275,-287.5,,275,627.5,SBD,Raw,1
Nicholas Schneider,PA,,,M,Seniors 25-29,93.17,100,192.5,-217.5,-217.5,,192.5,120,130,-135,,130,225,242.5,-255,,242.5,565,SBD,Raw,2
Robert Crandall,AZ,,,M,Seniors 25-29,95.03,100,180,192,206,,206,120,135,-140,,135,180,200,210,,210,551,SBD,Raw,3
Shaun Trimarco,IL,,,M,Seniors 30-34,95.71,100,215,230,240,,240,135,142.5,147.5,,147.5,265,-287.5,287.5,,287.5,675,SBD,Raw,1
Paul Rambeau,AZ,,,M,Seniors 30-34,96.62,100,145,155,170,,170,120,127.5,132.5,,132.5,200,215,227.5,,227.5,530,SBD,Raw,2
Jason Hall,AZ,,,M,Seniors 30-34,98.75,100,140,150,160,,160,115,120,-125,,120,190,205,213.5,,213.5,493.5,SBD,Raw,3
Brandon Johnson,NC,,,M,Submasters 35-39,97.61,100,175,190,200,,200,105,117.5,-127.5,,117.5,215,235,250,,250,567.5,SBD,Raw,1
Tim Sparks,AZ,,,M,Masters 40-44,98.66,100,202.5,,,,202.5,120,-135,-135,,120,285,,,,285,607.5,SBD,Raw,1
Giovanni Giuliano,IL,,,M,Masters 40-44,98.88,100,175,190,200,,200,147.5,-163,,,147.5,250,260,,,260,607.5,SBD,Raw,2
Robert Leach,IL,,,M,Masters 40-44,97.3,100,155,167.5,180,,180,110,122.5,130,,130,155,167.5,182.5,,182.5,492.5,SBD,Raw,3
Joe Semeister,PA,,,M,Masters 40-44,92.58,100,115,125,132.5,,132.5,105,110,115,,115,162.5,172.5,182.5,,182.5,430,SBD,Raw,4
Tim Slate,AZ,,,M,Masters 40-44,93.3,100,102.5,120,132.5,,132.5,75,80,85,,85,115,137.5,-160,,137.5,355,SBD,Raw,5
Steve Evaretts,NE,,,M,Masters 50-54,98.43,100,190,-200,200,,200,142.5,-147.5,147.5,,147.5,232.5,242.5,,,242.5,590,SBD,Raw,1
Ray Berry,NC,,,M,Masters 50-54,98.79,100,142.5,160,170,,170,142.5,153.5,155,,155,142.5,160,182.5,,182.5,507.5,SBD,Raw,2
Kelly Parson,WI,,,M,Masters 50-54,97.52,100,140,145,-155,,145,95,102,-107.5,,102,147.5,165,175,,175,422,SBD,Raw,3
Clyde Ryce,PA,,,M,Masters 55-59,,100,,,,,,,,,,,,,,,,,SBD,Raw,DQ
Charles Lapan,VA,,,M,Masters 65-69,99.16,100,60,,,,60,125,-135,-135,,125,120,135,140,145,140,325,SBD,Raw,1
David Chadwick,VA,,,M,Law/Fire/Military,97.25,100,157.5,-170,-170,,157.5,112.5,122.5,-137.5,,122.5,202.5,215,227.5,,227.5,507.5,SBD,Raw,1
Tim Slate,AZ,,,M,Law/Fire/Military,93.3,100,102.5,120,132.5,,132.5,75,80,85,,85,115,137.5,-160,,137.5,355,SBD,Raw,2
Jason Wahl,VA,,,M,Open,108.86,110,270,282.5,295,,295,160,-170,-170,,160,272.5,295,-302.5,,295,750,SBD,Raw,1
Nick Fagone,MA,,,M,Open,106.37,110,217.5,232.5,250,,250,165,175,-182.5,,175,272.5,-292.5,-292.5,,272.5,697.5,SBD,Raw,2
Robert Schleder,AZ,,,M,Open,109.32,110,242.5,,,,242.5,142.5,152.5,,,152.5,267.5,280,,,280,675,SBD,Raw,3
Jim Morrow,AZ,,,M,Open,107.46,110,202.5,212.5,217.5,,217.5,167.5,182.5,-185,,182.5,262.5,272.5,-277.5,,272.5,672.5,SBD,Raw,4
Austin Curtis,IL,,,M,Open,107.27,110,192.5,197.5,205,,205,165,172.5,-180,,172.5,242.5,260,272.5,,272.5,650,SBD,Raw,5
Nate Matthews,OH,,,M,Open,105.1,110,102.5,147.5,162.5,,162.5,172.5,182.5,-190,,182.5,272.5,287.5,292.5,-301,292.5,637.5,SBD,Raw,6
Ed Kutin,NJ,,,M,Open,107.18,110,190,-210,210,,210,150,157.5,-162.5,,157.5,255,265,-272.5,,265,632.5,SBD,Raw,7
Skyler Woolard,NC,,,M,Open,108.5,110,207.5,232.5,-245,,232.5,135,-150,150,,150,250,-265,-265,,250,632.5,SBD,Raw,8
Dave Schneider,OH,,,M,Open,104.78,110,202.5,220,-232.5,,220,125,132.5,140,,140,250,270,-285,,270,630,SBD,Raw,9
Cary Soloyna,NY,,,M,Open,101.15,110,182.5,210,,,210,135,142.5,150,,150,252.5,-280,-280,,252.5,612.5,SBD,Raw,10
Richard Jenks,PA,,,M,Open,107.37,110,195,220,-232.5,,220,115,122.5,130,,130,215,255,-271,,255,605,SBD,Raw,11
Brad Davis,VA,,,M,Open,108.86,110,175,195,210,,210,125,147.5,-150,,147.5,220,235,-255,,235,592.5,SBD,Raw,12
Neal Woolard,NC,,,M,Open,108.41,110,190,205,-220,,205,-130,135,-147.5,,135,220,250,-272.5,,250,590,SBD,Raw,13
Blaze DeHart,AZ,,,M,Open,107.41,110,165,177.5,190,,190,120,-133,-146,,120,225,245,252.5,,252.5,562.5,SBD,Raw,14
Kevin Costin,IL,,,M,Open,101.38,110,182.5,195,-205,,195,135,140,-145,,140,190,200,212.5,,212.5,547.5,SBD,Raw,15
Steve Nusca,PA,,,M,Open,108.18,110,160,-170,-170,,160,150,-160,160,,160,205,215,-227.5,,215,535,SBD,Raw,16
Jacob Moore,AZ,,,M,Open,108.41,110,200,212.5,,,212.5,-115,-115,115,,115,200,,,,200,527.5,SBD,Raw,17
Nick Roman,NY,,,M,Open,109.59,110,150,-162.5,167.5,,167.5,110,-118,120,,120,200,-215,215,,215,502.5,SBD,Raw,18
Derek Graybill,AZ,,,M,Open,90.72,100,145,155,-165,,155,105,-113,-115,,105,210,220,230,,230,490,SBD,Raw,11
Anthony Priore,IL,,,M,Open,109.77,110,142.5,155,167.5,,167.5,92.5,97.5,100,,100,185,215,-235,,215,482.5,SBD,Raw,19
Austin Brown,NC,,,M,Open,107.86,110,142.5,152.5,167.5,,167.5,85,92.5,-102.5,,92.5,185,195,212.5,,212.5,472.5,SBD,Raw,20
Peter Herrington,NC,,,M,Open,108.41,110,137.5,-142.5,-142.5,,137.5,-125,125,-132.5,,125,192.5,197.5,205,,205,467.5,SBD,Raw,21
Thomas Matlock,AZ,,,M,Open,104.33,110,115,137.5,,,137.5,115,132.5,,,132.5,170,192.5,,,192.5,462.5,SBD,Raw,22
Zack Zubek,PA,,,M,Open,109.18,110,142.5,152.5,-160,,152.5,77.5,82.5,87.5,,87.5,170,182.5,-190,,182.5,422.5,SBD,Raw,23
Gene Lawrence,AZ,,,M,Open,109.77,110,87.5,-95,95,97.5,95,102.5,107.5,-115,,107.5,150,161,-162.5,,161,363.5,SBD,Raw,24
Jacob Moore,AZ,,,M,Teen 16-17,108.41,110,200,212.5,,,212.5,-115,-115,115,,115,200,,,,200,527.5,SBD,Raw,1
Nick Roman,NY,,,M,Teen 16-17,109.59,110,150,-162.5,167.5,,167.5,110,-118,120,,120,200,-215,215,,215,502.5,SBD,Raw,2
Austin Brown,NC,,,M,Teen 16-17,107.86,110,142.5,152.5,167.5,,167.5,85,92.5,-102.5,,92.5,185,195,212.5,,212.5,472.5,SBD,Raw,3
Derek Graybill,AZ,,,M,Teen 18-19,90.72,100,145,155,-165,,155,105,-113,-115,,105,210,220,230,,230,490,SBD,Raw,2
Zack Zubek,PA,,,M,Teen 18-19,109.18,110,142.5,152.5,-160,,152.5,77.5,82.5,87.5,,87.5,170,182.5,-190,,182.5,422.5,SBD,Raw,1
Skyler Woolard,NC,,,M,Juniors 20-24,108.5,110,207.5,232.5,-245,,232.5,135,-150,150,,150,250,-265,-265,,250,632.5,SBD,Raw,1
Devon Jones,VA,,,M,Juniors 20-24,105.41,110,,,210,,210,,,157.5,,157.5,,,237.5,,237.5,605,SBD,Raw,2
Brad Davis,VA,,,M,Juniors 20-24,108.86,110,175,195,210,,210,125,147.5,-150,,147.5,220,235,-255,,235,592.5,SBD,Raw,3
Blaze DeHart,AZ,,,M,Juniors 20-24,107.41,110,165,177.5,190,,190,120,-133,-146,,120,225,245,252.5,,252.5,562.5,SBD,Raw,4
Robert Schleder,AZ,,,M,Seniors 30-34,109.32,110,242.5,,,,242.5,142.5,152.5,,,152.5,267.5,280,,,280,675,SBD,Raw,1
Austin Curtis,IL,,,M,Seniors 30-34,107.27,110,192.5,197.5,205,,205,165,172.5,-180,,172.5,242.5,260,272.5,,272.5,650,SBD,Raw,2
Joseph Visconti,VA,,,M,Seniors 30-34,104.69,110,,,175,,175,,,190,,190,,,250,,250,615,SBD,Raw,3
Peter Herrington,NC,,,M,Seniors 30-34,108.41,110,137.5,-142.5,-142.5,,137.5,-125,125,-132.5,,125,192.5,197.5,205,,205,467.5,SBD,Raw,4
Jim Morrow,AZ,,,M,Submasters 35-39,107.46,110,202.5,212.5,217.5,,217.5,167.5,182.5,-185,,182.5,262.5,272.5,-277.5,,272.5,672.5,SBD,Raw,1
Cary Soloyna,NY,,,M,Submasters 35-39,101.15,110,182.5,210,,,210,135,142.5,150,,150,252.5,-280,-280,,252.5,612.5,SBD,Raw,2
Neal Woolard,NC,,,M,Submasters 35-39,108.41,110,190,205,-220,,205,-130,135,-147.5,,135,220,250,-272.5,,250,590,SBD,Raw,3
John Mays,VA,,,M,Masters 40-44,104.87,110,,,182.5,,182.5,,,145,,145,,,285,,285,612.5,SBD,Raw,1
Ed Kutin,NJ,,,M,Masters 45-49,107.18,110,190,-210,210,,210,150,157.5,-162.5,,157.5,255,265,-272.5,,265,632.5,SBD,Raw,1
Nate Matthews,OH,,,M,Masters 50-54,105.1,110,102.5,147.5,162.5,,162.5,172.5,182.5,-190,,182.5,272.5,287.5,292.5,-301,292.5,637.5,SBD,Raw,1
James Prendergast,NY,,,M,Masters 50-54,107.18,110,115,137.5,160,,160,115,-138,,,115,137.5,-182.5,-182.5,,137.5,412.5,SBD,Raw,2
Dwight Kemper,NY,,,M,Masters 50-54,101.42,110,-72.5,100,-147.5,,100,62.5,-80,-80,,62.5,112.5,120,137.5,,137.5,300,SBD,Raw,3
Dave Schneider,OH,,,M,Masters 55-59,104.78,110,202.5,220,-232.5,,220,125,132.5,140,,140,250,270,-285,,270,630,SBD,Raw,1
Richard Jenks,PA,,,M,Masters 55-59,107.37,110,195,220,-232.5,,220,115,122.5,130,,130,215,255,-271,,255,605,SBD,Raw,2
Thomas Matlock,AZ,,,M,Masters 60-64,104.33,110,115,137.5,,,137.5,115,132.5,,,132.5,170,192.5,,,192.5,462.5,SBD,Raw,1
Ira Brooks,VA,,,M,Masters 65-69,108.59,110,102.5,115,147.5,,147.5,92.5,102.5,107.7,,107.7,107.5,122.5,170,,170,425.2,SBD,Raw,1
Gene Lawrence,AZ,,,M,Masters 70-74,109.77,110,87.5,-95,95,97.5,95,102.5,107.5,-115,,107.5,150,161,-162.5,,161,363.5,SBD,Raw,1
Jason Wahl,VA,,,M,Law/Fire/Military,108.86,110,270,282.5,295,,295,160,-170,-170,,160,272.5,295,-302.5,,295,750,SBD,Raw,1
Robert Schleder,AZ,,,M,Law/Fire/Military,109.32,110,242.5,,,,242.5,142.5,152.5,,,152.5,267.5,280,,,280,675,SBD,Raw,2
Mitch Davis,IL,,,M,Open,120.2,125,230,247.5,-262.5,,247.5,-177.5,-177.5,177.5,,177.5,297.5,307.5,-320,,307.5,732.5,SBD,Raw,1
David Dashell,VA,,,M,Open,123.56,125,222.5,237.5,250,,250,177.5,190,-195,,190,245,265,275,,275,715,SBD,Raw,2
Nate Woodard,VA,,,M,Open,123.42,125,,,255,,255,,172.5,-182.5,,172.5,,,272.5,,272.5,700,SBD,Raw,3
Ray Ebner,PA,,,M,Open,111.77,125,245,255,-262.5,,255,162.5,170,175,,175,260,-267.5,-267.5,,260,690,SBD,Raw,4
Brian Budzinski,IL,,,M,Open,122.02,125,245,-257.5,-257.5,,245,162.5,172.5,-180,,172.5,242.5,262.5,272.5,,272.5,690,SBD,Raw,5
Dennis Raybuck,PA,,,M,Open,122.38,125,237.5,247.5,-257.5,,247.5,147.5,155,-160,,155,272.5,-282.5,-282.5,,272.5,675,SBD,Raw,6
Tab Brown,WV,,,M,Open,124.78,125,,,222.5,,222.5,,,165,,165,,,255,,255,642.5,SBD,Raw,7
Jeremy Selting,,,,M,Open,117.66,125,190,200,220,,220,125,140,-147.5,,140,247.5,262.5,-275,,262.5,622.5,SBD,Raw,8
Gary Dudash,NJ,,,M,Open,123.24,125,215,227.5,232.5,,232.5,155,165,-172.5,,165,197.5,215,222.5,,222.5,620,SBD,Raw,9
Sharif Issa,VA,,,M,Open,124.33,125,,,205,,205,,,150,,150,,,257.5,,257.5,612.5,SBD,Raw,10
Terry Davis,IL,,,M,Open,118.16,125,170,187.5,205,,205,142.5,150,-160.5,,150,227.5,240,252.5,,252.5,607.5,SBD,Raw,11
Jacob Hammerly,AZ,,,M,Open,114.31,125,185,195,210,,210,105,120,125,,125,230,252.5,-265,,252.5,587.5,SBD,Raw,12
Bill Ogden,PA,,,M,Open,119.57,125,145,152.5,160,,160,165,172.5,-177.5,,172.5,205,220,237.5,,237.5,570,SBD,Raw,13
Gene Berry,NC,,,M,Open,119.84,125,190,205,-217.5,,205,130,160,-168,,160,195,205,-210,,205,570,SBD,Raw,14
Paul DeSimeone,MA,,,M,Open,122.97,125,-182.5,-190,192.5,,192.5,125,135,140,,140,227.5,,,,227.5,560,SBD,Raw,15
Alex DeSoto,AZ,,,M,Open,117.21,125,165,-182.5,,,165,87.5,100,-110,,100,232.5,-245,-245,,232.5,497.5,SBD,Raw,16
Angelo Campini,NY,,,M,Open,114.4,125,145,-155,157.5,,157.5,-132.5,137.5,142.5,,142.5,145,155,165,,165,465,SBD,Raw,17
Tom Stoddard,NY,,,M,Open,121.52,125,-247.5,247.5,-277.5,,247.5,182.5,200,-212.5,,200,,,,,,,SBD,Raw,DQ
Trey Manning,NC,,,M,Open,112.94,125,275,290,302.5,,302.5,-182.5,-182.5,-182.5,,,272.5,295,-307.5,,295,,SBD,Raw,DQ
Zachary Strouse,PA,,,M,Teen 14-15,114.4,125,197.5,-202.5,202.5,,202.5,97.5,102.5,105,,105,220,235,245,,245,552.5,SBD,Raw,1
David Howell,NC,,,M,Teen 14-15,116.57,125,142.5,165,182.5,,182.5,100,107.5,110,,110,205,230,-242.5,,230,522.5,SBD,Raw,2
Alex DeSoto,AZ,,,M,Teen 14-15,117.21,125,165,-182.5,,,165,87.5,100,-110,,100,232.5,-245,-245,,232.5,497.5,SBD,Raw,3
Troy Carter,,,,M,Teen 16-17,115.21,125,107.5,125,-150,,125,92.5,102.5,-115,,102.5,140,150,182.5,,182.5,410,SBD,Raw,1
Drew Naghibzad,AZ,,,M,Juniors 20-24,123.38,125,235,265,282.5,,282.5,175,190,-200,,190,265,300,-320,,300,772.5,SBD,Raw,1
Mitch Davis,IL,,,M,Seniors 25-29,120.2,125,230,247.5,-262.5,,247.5,-177.5,-177.5,177.5,,177.5,297.5,307.5,-320,,307.5,732.5,SBD,Raw,1
Tab Brown,WV,,,M,Seniors 30-34,124.78,125,,,222.5,,222.5,,,165,,165,,,255,,255,642.5,SBD,Raw,1
Jeremy Selting,AZ,,,M,Seniors 30-34,117.66,125,190,200,220,,220,125,140,-147.5,,140,247.5,262.5,-275,,262.5,622.5,SBD,Raw,2
Jacob Hammerly,AZ,,,M,Seniors 30-34,114.31,125,185,195,210,,210,105,120,125,,125,230,252.5,-265,,252.5,587.5,SBD,Raw,3
Paul DeSimeone,MA,,,M,Seniors 30-34,122.97,125,-182.5,-190,192.5,,192.5,125,135,140,,140,227.5,,,,227.5,560,SBD,Raw,4
Brian Budzinski,IL,,,M,Masters 40-44,122.02,125,245,-257.5,-257.5,,245,162.5,172.5,-180,,172.5,242.5,262.5,272.5,,272.5,690,SBD,Raw,1
Dennis Raybuck,PA,,,M,Masters 40-44,122.38,125,237.5,247.5,-257.5,,247.5,147.5,155,-160,,155,272.5,-282.5,-282.5,,272.5,675,SBD,Raw,2
Gary Dudash,NJ,,,M,Masters 40-44,123.24,125,215,227.5,232.5,,232.5,155,165,-172.5,,165,197.5,215,222.5,,222.5,620,SBD,Raw,3
Ray Ebner,PA,,,M,Masters 45-49,111.77,125,245,255,-262.5,,255,162.5,170,175,,175,260,-267.5,-267.5,,260,690,SBD,Raw,1
Buch Dayhoff,PA,,,M,Masters 45-49,118.16,125,187.5,205,215,,215,120,-130,130,,130,215,222.5,227.5,,227.5,572.5,SBD,Raw,2
Angelo Campini,NY,,,M,Masters 45-49,114.4,125,145,-155,157.5,,157.5,-132.5,137.5,142.5,,142.5,145,155,165,,165,465,SBD,Raw,3
Bill Ogden,PA,,,M,Masters 50-54,119.57,125,145,152.5,160,,160,165,172.5,-177.5,,172.5,205,220,237.5,,237.5,570,SBD,Raw,1
Gene Berry,NC,,,M,Masters 50-54,119.84,125,190,205,-217.5,,205,130,160,-168,,160,195,205,-210,,205,570,SBD,Raw,2
Terry Davis,IL,,,M,Masters 55-59,118.16,125,170,187.5,205,,205,142.5,150,-160.5,,150,227.5,240,252.5,,252.5,607.5,SBD,Raw,1
Ed Stine,VA,,,M,Masters 60-64,116.21,125,,,182.5,,182.5,,,150,,150,,,207.5,,207.5,540,SBD,Raw,1
David Dashell,VA,,,M,Law/Fire/Military,123.56,125,222.5,237.5,250,,250,177.5,190,-195,,190,245,265,275,,275,715,SBD,Raw,1
Brian Barnes,IL,,,M,Open,136.08,140,-272.5,272.5,-295,,272.5,182.5,195,-205,,195,272.5,285,300,,300,767.5,SBD,Raw,1
Doug Mignot,PA,,,M,Open,136.17,140,260,275,295,,295,182.5,195,200,,200,-260,260,-277.5,,260,755,SBD,Raw,2
Brandon Hall,AZ,,,M,Open,138.35,140,240,250,272.5,,272.5,157.5,-175,,,157.5,255,275,282.5,,282.5,712.5,SBD,Raw,3
Jeff Lawson #3,PA,,,M,Open,125.46,140,205,220,230,,230,137.5,147.5,-152.5,,147.5,250,265,-278,,265,642.5,SBD,Raw,4
Ronnie Biggs,NC,,,M,Open,127.28,140,205,227.5,240,,240,155,160,167.5,,167.5,205,220,-230,,220,627.5,SBD,Raw,5
Raymond Clasing Sr,MD,,,M,Open,126.37,140,160,175,182.5,190.5,182.5,180,185,187.5,191,187.5,210,220,-227.5,,220,590,SBD,Raw,6
Ray Smith,NC,,,M,Open,138.16,140,160,-180,185,,185,125,135,-140,,135,190,205,220,,220,540,SBD,Raw,7
Ron Simmons,VA,,,M,Open,134.33,140,,,160,,160,,,155,,155,,,190,,190,505,SBD,Raw,8
Brandon Hall,,,,M,Seniors 30-34,138.35,140,240,250,272.5,,272.5,157.5,-175,,,157.5,255,275,282.5,,282.5,712.5,SBD,Raw,1
Doug Mignot,PA,,,M,Masters 45-49,136.17,140,260,275,295,,295,182.5,195,200,,200,-260,260,-277.5,,260,755,SBD,Raw,1
Jeff Lawson #3,PA,,,M,Masters 45-49,125.46,140,205,220,230,,230,137.5,147.5,-152.5,,147.5,250,265,-278,,265,642.5,SBD,Raw,2
Ronnie Biggs,NC,,,M,Masters 45-49,127.28,140,205,227.5,240,,240,155,160,167.5,,167.5,205,220,-230,,220,627.5,SBD,Raw,3
Raymond Clasing Sr,MD,,,M,Masters 50-54,126.37,140,160,175,182.5,190.5,182.5,180,185,187.5,191,187.5,210,220,-227.5,,220,590,SBD,Raw,1
Ray Smith,NC,,,M,Masters 50-54,138.16,140,160,-180,185,,185,125,135,-140,,135,190,205,220,,220,540,SBD,Raw,2
Ron Simmons,VA,,,M,Masters 50-54,134.33,140,,,160,,160,,,155,,155,,,190,,190,505,SBD,Raw,3
Raymond Clasing Sr,MD,,,M,Law/Fire/Military,126.37,140,160,175,182.5,190.5,182.5,180,185,187.5,191,187.5,210,220,-227.5,,220,590,SBD,Raw,1
Ryan Brent,VA,,,M,Open,185.56,140+,,,215,,215,,,182.5,,182.5,,,235,,235,632.5,SBD,Raw,1
Jacob Everhart,VA,,,M,Open,176.72,140+,,,187.5,,187.5,,,182.5,,182.5,,,257.5,,257.5,627.5,SBD,Raw,2
Fred Seeburger,NY,,,M,Open,140.02,140+,137.5,170,200,205,200,100,125,140,155,140,160,210,227,233,227,567,SBD,Raw,3
Dan Bunch,NE,,,M,Open,151.5,140+,170,190,197.5,,197.5,122.5,-135,-135,,122.5,220,230,240,,240,560,SBD,Raw,4
Jake Carter #2,VA,,,M,Open,144.06,140+,,,157.5,,157.5,,,112.5,,112.5,,,185,,185,455,SBD,Raw,5
Mike Burke,PA,,,M,Open,140.57,140+,-185,,,,,132.5,137.5,142.5,,142.5,142.5,165,185,,185,,SBD,Raw,DQ
Ryan Brent,VA,,,M,Juniors 20-24,185.56,140+,,,215,,215,,,182.5,,182.5,,,235,,235,632.5,SBD,Raw,1
Jake Carter #2,VA,,,M,Juniors 20-24,144.06,140+,,,157.5,,157.5,,,112.5,,112.5,,,185,,185,455,SBD,Raw,2
Jacob Everhart,VA,,,M,Seniors 25-29,176.72,140+,,,187.5,,187.5,,,182.5,,182.5,,,257.5,,257.5,627.5,SBD,Raw,1
Dan Bunch,NE,,,M,Masters 45-49,151.5,140+,170,190,197.5,,197.5,122.5,-135,-135,,122.5,220,230,240,,240,560,SBD,Raw,1
Fred Seeburger,NY,,,M,Masters 50-54,140.02,140+,137.5,170,200,205,200,100,125,140,155,140,160,210,227,233,227,567,SBD,Raw,1
Charles Hellickson,IA,,,M,Masters 65-69,152.63,140+,57.5,-60,-60,,57.5,-62.5,-62.5,-62.5,,,112.5,115,117.5,125,117.5,,SBD,Raw,DQ
Jordan Johnston,VA,,,F,Youth,37.69,40,,,,,,22.5,,,,22.5,,,,,,22.5,B,Raw,1
Kendall Johnston,VA,,,F,Youth,33.16,35,,,,,,20,,,,20,,,,,,20,B,Raw,1
Natalie Brown,IN,,,F,Open,47.63,48,,,,,,42.5,-45,,,42.5,,,,,,42.5,B,Raw,1
Nicole Dirienzo,VA,,,F,Open,45.36,48,,,,,,27.5,,,,27.5,,,,,,27.5,B,Raw,2
Natalie Brown,IN,,,F,Seniors 30-34,47.63,48,,,,,,42.5,-45,,,42.5,,,,,,42.5,B,Raw,1
Nicole Dirienzo,VA,,,F,Seniors 30-34,45.36,48,,,,,,27.5,,,,27.5,,,,,,27.5,B,Raw,2
Julianna Pastorius,NC,,,F,Submasters 35-39,46.81,48,,,,,,30,-40,-40,,30,,,,,,30,B,Raw,1
Candice Brooks,NE,,,F,Open,49.9,52,,,,,,40,-47.5,-47.5,,40,,,,,,40,B,Raw,1
Sarah Sabalos,AZ,,,F,Open,51.8,52,,,,,,-40,-40,40,,40,,,,,,40,B,Raw,2
Kelly Shea,NC,,,F,Teen 16-17,50.89,52,,,,,,40,42.5,-45,,42.5,,,,,,42.5,B,Raw,1
Sarah Sabalos,AZ,,,F,Submasters 35-39,51.8,52,,,,,,-40,-40,40,,40,,,,,,40,B,Raw,1
Kim Johnson,NC,,,F,Open,55.34,56,,,,,,52.5,60,65,,65,,,,,,65,B,Raw,1
Dorean Sherwood,NY,,,F,Open,55.93,56,,,,,,47.5,50,52.5,,52.5,,,,,,52.5,B,Raw,2
Jennie Newbern,NC,,,F,Open,54.61,56,,,,,,37.5,45,-47.5,,45,,,,,,45,B,Raw,3
Beth-El Algarin,MN,,,F,Youth,54.88,56,,,,,,50,57.5,-60,,57.5,,,,,,57.5,B,Raw,1
Allie Feras,DC,,,F,Juniors 20-24,55.84,56,,,,,,45,,,,45,,,,,,45,B,Raw,1
Jennie Newbern,NC,,,F,Seniors 30-34,54.61,56,,,,,,37.5,45,-47.5,,45,,,,,,45,B,Raw,1
Dorean Sherwood,NY,,,F,Masters 40-44,55.93,56,,,,,,47.5,50,52.5,,52.5,,,,,,52.5,B,Raw,1
Jennifer Higgins,AZ,,,F,Open,58.92,60,,,,,,50,52.5,56,,56,,,,,,56,B,Raw,1
Katie Sharp,NE,,,F,Open,56.93,60,,,,,,50,-57.5,-57.5,,50,,,,,,50,B,Raw,2
Jamie Pica,NH,,,F,Open,59.87,60,,,,,,,,40,,40,,,,,,40,B,Raw,3
Elizabeth Becker,MN,,,F,Teen 14-15,59.19,60,,,,,,42.5,-45.5,-45.5,,42.5,,,,,,42.5,B,Raw,1
Kayla Irwin,PA,,,F,Teen 18-19,58.38,60,,,,,,42.5,47.5,50,53.5,50,,,,,,50,B,Raw,1
Kelly Fey,IL,,,F,Juniors 20-24,57.15,60,,,,,,32.5,37.5,-42.5,,37.5,,,,,,37.5,B,Raw,1
Ana Alas,VA,,,F,Submasters 35-39,59.87,60,,,,,,57.5,,,,57.5,,,,,,57.5,B,Raw,1
Jennifer Higgins,AZ,,,F,Masters 40-44,58.92,60,,,,,,50,52.5,56,,56,,,,,,56,B,Raw,1
Kate Rupert,NC,,,F,Masters 40-44,59.87,60,,,,,,50,-55,55,,55,,,,,,55,B,Raw,2
Stephanie Burant,NH,,,F,Masters 40-44,59.87,60,,,,,,,,50,,50,,,,,,50,B,Raw,3
Kelly Wescott,NC,,,F,Masters 50-54,59.87,60,,,,,,65,67.5,72.5,,72.5,,,,,,72.5,B,Raw,1
AnneMarie Kemmerer,PA,,,F,Masters 55-59,59.87,60,,,,,,50,55,-57.5,,55,,,,,,55,B,Raw,1
Judy Wolf,MA,,,F,Masters 60-64,59.87,60,,,,,,,,57.5,,57.5,,,,,,57.5,B,Raw,1
Laura Monroe,NY,,,F,Open,66.81,67.5,,,,,,65,67.5,70,73,70,,,,,,70,B,Raw,1
Laura Clancy,VA,,,F,Open,66.59,67.5,,,,,,62.5,,,,62.5,,,,,,62.5,B,Raw,2
Tierney Wallace,NY,,,F,Open,66.86,67.5,,,,,,60,62.5,-67.5,,62.5,,,,,,62.5,B,Raw,3
Indya Sheehan,MA,,,F,Open,67.36,67.5,,,,,,57.5,-62.5,62.5,,62.5,,,,,,62.5,B,Raw,4
Larissa McCrae,MD,,,F,Open,65.82,67.5,,,,,,50,,,,50,,,,,,50,B,Raw,5
Nicole Martin,VA,,,F,Open,63.23,67.5,,,,,,42.5,,,,42.5,,,,,,42.5,B,Raw,6
Tierney Wallace,NY,,,F,Juniors 20-24,66.86,67.5,,,,,,60,62.5,-67.5,,62.5,,,,,,62.5,B,Raw,1
Laura Monroe,NY,,,F,Seniors 25-29,66.81,67.5,,,,,,65,67.5,70,73,70,,,,,,70,B,Raw,1
Laura Clancy,VA,,,F,Masters 45-49,66.59,67.5,,,,,,62.5,,,,62.5,,,,,,62.5,B,Raw,1
Doris Santos,PA,,,F,Masters 55-59,64.95,67.5,,,,,,37.5,-42.5,-42.5,,37.5,,,,,,37.5,B,Raw,1
Bonnie Kershaw,NH,,,F,Masters 60-64,67.13,67.5,,,,,,,,40,,40,,,,,,40,B,Raw,1
Jan Wezelman,AZ,,,F,Masters 60-64,64.64,67.5,,,,,,27.5,30,32.5,,32.5,,,,,,32.5,B,Raw,2
Ashley Szczepaniec,VA,,,F,Open,74.57,75,,,,,,72.5,,,,72.5,,,,,,72.5,B,Raw,1
Liz Couture,MA,,,F,Open,74.84,75,,,,,,,,70,,70,,,,,,70,B,Raw,2
Liz Couture,MA,,,F,Seniors 25-29,74.84,75,,,,,,,,70,,70,,,,,,70,B,Raw,1
Alicia Butch,NY,,,F,Submasters 35-39,74.57,75,,,,,,37.5,-45,45,,45,,,,,,45,B,Raw,1
Julie Doherty,NC,,,F,Masters 40-44,72.57,75,,,,,,45,-52.5,-52.5,,45,,,,,,45,B,Raw,1
Susanne Spero,MA,,,F,Masters 50-54,74.84,75,,,,,,,,70,,70,,,,,,70,B,Raw,1
Kathy Sharp,NE,,,F,Masters 55-59,72.8,75,,,,,,42.5,-47.5,-47.5,,42.5,,,,,,42.5,B,Raw,1
Geneva Koutas,VA,,,F,Masters 60-64,72.39,75,,,,,,45,52.5,-57.5,,52.5,,,,,,52.5,B,Raw,1
Carol Bowden,NH,,,F,Masters 60-64,74.84,75,,,,,,,,42.5,,42.5,,,,,,42.5,B,Raw,2
Amanda Throne,IL,,,F,Open,80.29,82.5,,,,,,52.5,60,-65,,60,,,,,,60,B,Raw,1
Brooke Bonney,NY,,,F,Teen 14-15,80.92,82.5,,,,,,60,67.5,-75,,67.5,,,,,,67.5,B,Raw,1
Amanda Throne,IL,,,F,Seniors 25-29,80.29,82.5,,,,,,52.5,60,-65,,60,,,,,,60,B,Raw,1
Terri Korba,NY,,,F,Masters 45-49,82.37,82.5,,,,,,52.5,55,-57.5,,55,,,,,,55,B,Raw,1
Heather Moyers,OH,,,F,Submasters 35-39,89.81,90,,,,,,70,,,,70,,,,,,70,B,Raw,1
Michelle Carlsen,NY,,,F,Open,119.39,90+,,,,,,95,97.5,-100,,97.5,,,,,,97.5,B,Raw,1
Kacie Sharp,NE,,,F,Open,100.7,90+,,,,,,85,92.5,95,,95,,,,,,95,B,Raw,2
Angela O'Connor,NE,,,F,Open,91.4,90+,,,,,,67.5,70,-75,,70,,,,,,70,B,Raw,3
Maryann Reid,MA,,,F,Open,,90+,,,,,,,,55,,55,,,,,,55,B,Raw,4
Stephanie Winchip,NY,,,F,Teen 14-15,95.57,90+,,,,,,45,57.5,-60,,57.5,,,,,,57.5,B,Raw,1
Angela O'Connor,NE,,,F,Seniors 30-34,91.4,90+,,,,,,67.5,70,-75,,70,,,,,,70,B,Raw,1
Maryann Reid,MA,,,F,Submasters 35-39,,90+,,,,,,,,55,,55,,,,,,55,B,Raw,1
Michelle Cortellessa,NY,,,F,Masters 40-44,93.12,90+,,,,,,-65,-67.5,-67.5,,,,,,,,,B,Raw,DQ
Michelle Doherty,NH,,,F,Masters 45-49,,90+,,,,,,,,80,,80,,,,,,80,B,Raw,1
Laurie Thackeray,NH,,,F,Masters 45-49,,90+,,,,,,,,80,,80,,,,,,80,B,Raw,2
Michelle Carlsen,NY,,,F,Masters 50-54,119.39,90+,,,,,,95,97.5,-100,,97.5,,,,,,97.5,B,Raw,1
Matthias Algarin,MN,,,M,Youth,39.01,40,,,,,,-42.5,42.5,-45,,42.5,,,,,,42.5,B,Raw,1
Tyler Corriveau,MN,,,M,Youth,38.78,40,,,,,,27.5,30,-32.5,,30,,,,,,30,B,Raw,2
Kevin Croley,PA,,,M,Youth,45.99,48,,,,,,27.5,30,-35,,30,,,,,,30,B,Raw,1
Andrew Hedrich,IL,,,M,Youth,38.78,40,,,,,,27.5,-32.5,-32.5,,27.5,,,,,,27.5,B,Raw,3
Sean Croley,PA,,,M,Youth,46.99,48,,,,,,20,-22.5,22.5,,22.5,,,,,,22.5,B,Raw,2
Cherokee Widner,VA,,,M,Teen 12-13,50.98,52,,,,,,62.5,,,,62.5,,,,,,62.5,B,Raw,1
Evan Pittman,FL,,,M,Teen 12-13,50.62,52,,,,,,45,50,-55,,50,,,,,,50,B,Raw,2
Eric Smason,IL,,,M,Teen 16-17,50.8,52,,,,,,-45.5,-45.5,57.5,,57.5,,,,,,57.5,B,Raw,1
Vin Voeun,AZ,,,M,Open,54.43,56,,,,,,100,105,110,-112.5,110,,,,,,110,B,Raw,1
Tristan Desoto,AZ,,,M,Teen 12-13,55.38,56,,,,,,35,40,42.5,,42.5,,,,,,42.5,B,Raw,1
Michael Little,NC,,,M,Teen 16-17,53.07,56,,,,,,67.5,-72.5,72.5,,72.5,,,,,,72.5,B,Raw,1
Vin Voeun,AZ,,,M,Submasters 35-39,54.43,56,,,,,,100,105,110,-112.5,110,,,,,,110,B,Raw,1
Gary Teeter,PA,,,M,Open,57.97,60,,,,,,97.5,105,110,-112.5,110,,,,,,110,B,Raw,1
Steven Salsgiver,MA,,,M,Open,,60,,,,,,,,,,,,,,,,,B,Raw,DQ
Jordan Byrnes,NY,,,M,Youth,59.65,60,,,,,,-45,45,47.5,-50,47.5,,,,,,47.5,B,Raw,1
Dakota Demare,MN,,,M,Youth,57.38,60,,,,,,20,-25,-25,,20,,,,,,20,B,Raw,2
Tomas Saedan,VA,,,M,Teen 12-13,58.06,60,,,,,,55,60,-62.5,,60,,,,,,60,B,Raw,1
Seamus Drury,NC,,,M,Teen 16-17,59.01,60,,,,,,60,70,80,,80,,,,,,80,B,Raw,1
Brett Kunkel,PA,,,M,Teen 16-17,57.7,60,,,,,,60,-65,-65,,60,,,,,,60,B,Raw,2
Robert Melton,NC,,,M,Teen 18-19,58.2,60,,,,,,75,-90,90,-92.5,90,,,,,,90,B,Raw,1
Cory Sellers,NC,,,M,Juniors 20-24,57.88,60,,,,,,100,-110,-110,,100,,,,,,100,B,Raw,1
Gary Teeter,PA,,,M,Masters 45-49,57.97,60,,,,,,97.5,105,110,-112.5,110,,,,,,110,B,Raw,1
Emerson Lynn,VT,,,M,Open,67.13,67.5,,,,,,,,136.5,,136.5,,,,,,136.5,B,Raw,1
Pat Clark,IA,,,M,Open,66.22,67.5,,,,,,-125,125,-135,,125,,,,,,125,B,Raw,2
Jason Leavitt,VA,,,M,Open,64.91,67.5,,,,,,,,120,,120,,,,,,120,B,Raw,3
Tyler Miller,VA,,,M,Open,64.59,67.5,,,,,,,,90,,90,,,,,,90,B,Raw,4
Chris Burnett,AZ,,,M,Teen 16-17,67.13,67.5,,,,,,97.5,-102.5,-102.5,,97.5,,,,,,97.5,B,Raw,1
Tyler Miller,VA,,,M,Teen 18-19,64.59,67.5,,,,,,,,90,,90,,,,,,90,B,Raw,1
Trevor McCain,NJ,,,M,Juniors 20-24,64.95,67.5,,,,,,92.5,102.5,107.5,,107.5,,,,,,107.5,B,Raw,1
Pat Clark,IA,,,M,Seniors 25-29,66.22,67.5,,,,,,-125,125,-135,,125,,,,,,125,B,Raw,1
Tony Aleman,,El Salvador,,M,Submasters 35-39,67.13,67.5,,,,,,102.5,107.5,-115,,107.5,,,,,,107.5,B,Raw,1
Jason Leavitt,VA,,,M,Masters 45-49,64.91,67.5,,,,,,,,120,,120,,,,,,120,B,Raw,1
Larry Morris Jr,VA,,,M,Masters 50-54,66.72,67.5,,,,,,,,80,,80,,,,,,80,B,Raw,1
Emerson Lynn,VT,,,M,Masters 60-64,67.13,67.5,,,,,,,,136.5,,136.5,,,,,,136.5,B,Raw,1
David Lyons,NY,,,M,Open,74.53,75,,,,,,145,155,160,-165,160,,,,,,160,B,Raw,1
Mike Ott,CA,,,M,Open,72.12,75,,,,,,125,137.5,145,,145,,,,,,145,B,Raw,2
Ryan Melton,VA,,,M,Teen 12-13,70.13,75,,,,,,,,85,,85,,,,,,85,B,Raw,1
Daniel Conant,NY,,,M,Teen 14-15,74.93,75,,,,,,77.5,92.5,-102.5,,92.5,,,,,,92.5,B,Raw,1
Gage Walter,NE,,,M,Teen 16-17,68.72,75,,,,,,75,85,-92.5,,85,,,,,,85,B,Raw,1
David Lyons,NY,,,M,Teen 18-19,74.53,75,,,,,,145,155,160,-165,160,,,,,,160,B,Raw,1
Clay Caputo,IL,,,M,Teen 18-19,73.94,75,,,,,,-125,-125,-125,,,,,,,,,B,Raw,DQ
Johnathon Bohnert,PA,,,M,Juniors 20-24,74.16,75,,,,,,110,120,127.5,,127.5,,,,,,127.5,B,Raw,1
Mike Ott,CA,,,M,Seniors 25-29,72.12,75,,,,,,125,137.5,145,,145,,,,,,145,B,Raw,1
Jeff Fox,NC,,,M,Masters 50-54,74.57,75,,,,,,117.5,125,127.5,,127.5,,,,,,127.5,B,Raw,1
Christian Kozub,VA,,,M,Masters 50-54,73.3,75,,,,,,,,110,,110,,,,,,110,B,Raw,2
Fred Wescott,NC,,,M,Masters 55-59,71.67,75,,,,,,117.5,125,127.5,,127.5,,,,,,127.5,B,Raw,1
Jerry Folkers,NE,,,M,Masters 60-64,74.16,75,,,,,,115,-117.5,-117.5,,115,,,,,,115,B,Raw,1
Brian Friary,MA,,,M,Masters 65-69,74.84,75,,,,,,,,105,,105,,,,,,105,B,Raw,1
Donald Clay Judd,AZ,,,M,Masters 70-74,73.94,75,,,,,,50,55,57.5,,57.5,,,,,,57.5,B,Raw,1
Joe Weissenberger,AZ,,,M,Masters 75-79,74.62,75,,,,,,57.5,60,62.5,,62.5,,,,,,62.5,B,Raw,1
Art Virta,IL,,,M,Masters 80+,68.72,75,,,,,,62.5,-70,-75,,62.5,,,,,,62.5,B,Raw,1
Mike Ott,CA,,,M,Law/Fire/Military,72.12,75,,,,,,125,137.5,145,,145,,,,,,145,B,Raw,1
Chris Walter,NE,,,M,Open,81.42,82.5,,,,,,177.5,180,-182.5,,180,,,,,,180,B,Raw,1
Matthew Moore,VA,,,M,Open,80.38,82.5,,,,,,,,175,177.5,175,,,,,,175,B,Raw,2
Dominic Ambrosano,PA,,,M,Open,79.88,82.5,,,,,,150,155,157.5,,157.5,,,,,,157.5,B,Raw,3
Tim Groff,NH,,,M,Open,82.1,82.5,,,,,,,,155,,155,,,,,,155,B,Raw,4
Michael Carson,PA,,,M,Open,81.78,82.5,,,,,,120,-130,130,,130,,,,,,130,B,Raw,5
Kevin Boyer,PA,,,M,Open,77.38,82.5,,,,,,102.5,110,120,,120,,,,,,120,B,Raw,6
Chris Walter,NE,,,M,Masters 40-44,81.42,82.5,,,,,,177.5,180,-182.5,,180,,,,,,180,B,Raw,1
Matthew Moore,VA,,,M,Masters 40-44,80.38,82.5,,,,,,,,175,177.5,175,,,,,,175,B,Raw,2
Jake Freedman,NH,,,M,Masters 40-44,82.1,82.5,,,,,,,,137.5,,137.5,,,,,,137.5,B,Raw,3
William Lamberti,IL,,,M,Masters 40-44,79.83,82.5,,,,,,-95,97.5,-100,,97.5,,,,,,97.5,B,Raw,4
Tom Harris,NY,,,M,Masters 45-49,78.56,82.5,,,,,,125,127.5,-135,,127.5,,,,,,127.5,B,Raw,1
James Ellis #3,NC,,,M,Masters 50-54,81.28,82.5,,,,,,122.5,130,132.5,,132.5,,,,,,132.5,B,Raw,1
Harry Orr,NC,,,M,Masters 55-59,79.92,82.5,,,,,,-137.5,137.5,-147.5,,137.5,,,,,,137.5,B,Raw,1
Larry Shaffer,PA,,,M,Masters 55-59,79.88,82.5,,,,,,117.5,125,127.5,,127.5,,,,,,127.5,B,Raw,2
Charles Cole,PA,,,M,Masters 55-59,80.69,82.5,,,,,,-115,115,117.5,,117.5,,,,,,117.5,B,Raw,3
Harold Shellhammer,PA,,,M,Masters 55-59,80.47,82.5,,,,,,-105,105,112.5,,112.5,,,,,,112.5,B,Raw,4
William Deloney,AZ,,,M,Masters 60-64,80.74,82.5,,,,,,132.5,137.5,140,,140,,,,,,140,B,Raw,1
David Laszewski,NY,,,M,Masters 60-64,82.33,82.5,,,,,,95,100,-102.5,,100,,,,,,100,B,Raw,2
Joe Sanders,NC,,,M,Masters 65-69,81.19,82.5,,,,,,117.5,-122.5,-122.5,,117.5,,,,,,117.5,B,Raw,1
Anthony Iovine III,NY,,,M,Special Olympics,77.52,82.5,,,,,,82.5,85,-88,,85,,,,,,85,B,Raw,1
Carl Riggleman,VA,,,M,Special Olympics,76.2,82.5,,,,,,,,75,,75,,,,,,75,B,Raw,2
Jeff McDaniel,PA,,,M,Open,87.18,90,,,,,,182.5,190,-195,,190,,,,,,190,B,Raw,1
Michael Johnson,AZ,,,M,Open,88,90,,,,,,160,-165,165,,165,,,,,,165,B,Raw,2
Travis Buffy,PA,,,M,Open,89.58,90,,,,,,147.5,157.5,-160,,157.5,,,,,,157.5,B,Raw,3
Keith Harbaugh,PA,,,M,Open,88.54,90,,,,,,142.5,147.5,150,,150,,,,,,150,B,Raw,4
Robert Ludwig #2,PA,,,M,Open,88.59,90,,,,,,137.5,147.5,-152.5,,147.5,,,,,,147.5,B,Raw,5
Stephen Piganto,FL,,,M,Open,89.22,90,,,,,,135,140,142.5,,142.5,,,,,,142.5,B,Raw,6
Joel Sanchez #7,MA,,,M,Open,89.81,90,,,,,,,,102.5,,102.5,,,,,,102.5,B,Raw,7
Kevin Rice,PA,,,M,Open,,90,,,,,,,,,,,,,,,,,B,Raw,DQ
Cordell McKeever,AZ,,,M,Teen 14-15,88,90,,,,,,77.5,82.5,-87.5,,82.5,,,,,,82.5,B,Raw,1
Travis Buffy,PA,,,M,Juniors 20-24,89.58,90,,,,,,147.5,157.5,-160,,157.5,,,,,,157.5,B,Raw,1
Dylan Smith #16,VA,,,M,Juniors 20-24,87,90,,,,,,,,147.5,,147.5,,,,,,147.5,B,Raw,2
Christian Grau,NJ,,,M,Juniors 20-24,88.06,90,,,,,,,,125,,125,,,,,,125,B,Raw,3
Christian Gray,NJ,,,M,Juniors 20-24,89.18,90,,,,,,110,115,120,,120,,,,,,120,B,Raw,4
Tyler Sandell,VA,,,M,Juniors 20-24,89.13,90,,,,,,-157.5,-157.5,-157.5,,,,,,,,,B,Raw,DQ
Michael Johnson,AZ,,,M,Seniors 25-29,88,90,,,,,,160,-165,165,,165,,,,,,165,B,Raw,1
David Jones #13,PA,,,M,Masters 45-49,88.99,90,,,,,,132.5,-140,-140,,132.5,,,,,,132.5,B,Raw,1
Stephen Piganto,FL,,,M,Masters 50-54,89.22,90,,,,,,135,140,142.5,,142.5,,,,,,142.5,B,Raw,1
Mark MacGregor,PA,,,M,Masters 50-54,88.77,90,,,,,,-125,-125,-125,,,,,,,,,B,Raw,DQ
Keith Harbaugh,PA,,,M,Masters 55-59,88.54,90,,,,,,142.5,147.5,150,,150,,,,,,150,B,Raw,1
Alan Dean Foster,AZ,,,M,Masters 65-69,88,90,,,,,,130,135,-137.5,,135,,,,,,135,B,Raw,1
Peter Jezyk,AZ,,,M,Masters 70-74,83.01,90,,,,,,37.5,43.5,,,43.5,,,,,,43.5,B,Raw,1
Keith Harbaugh,PA,,,M,Law/Fire/Military,88.54,90,,,,,,142.5,147.5,150,,150,,,,,,150,B,Raw,1
Robert Casey,IL,,,M,Open,97.07,100,,,,,,175,187.5,197.5,200,197.5,,,,,,197.5,B,Raw,1
Ken Thurberg,CA,,,M,Open,98.88,100,,,,,,165,187.5,-190,,187.5,,,,,,187.5,B,Raw,2
Jeremy Meyer,NE,,,M,Open,97.07,100,,,,,,180,-182.5,-187.5,,180,,,,,,180,B,Raw,3
Tim Henriques,VA,,,M,Open,98.88,100,,,,,,,,175,,175,,,,,,175,B,Raw,4
Craig Perry,VA,,,M,Open,99.84,100,,,,,,,,175,,175,,,,,,175,B,Raw,5
Clint DeMoss,AZ,,,M,Open,97.98,100,,,,,,147.5,155,-157.5,,155,,,,,,155,B,Raw,6
Kenny Phillips,OK,,,M,Open,97.98,100,,,,,,155,-162.5,-162.5,,155,,,,,,155,B,Raw,7
Charles Moseback,PA,,,M,Open,98.38,100,,,,,,-150,-155,155,,155,,,,,,155,B,Raw,8
Sean Kelleher,NY,,,M,Open,98.79,100,,,,,,-150,-150,150,,150,,,,,,150,B,Raw,9
Larry Candelaria,AZ,,,M,Open,94.08,100,,,,,,140,145,-150,,145,,,,,,145,B,Raw,10
John Moore,VA,,,M,Open,92.99,100,,,,,,,,112.5,,112.5,,,,,,112.5,B,Raw,12
Joe Bittner,IA,,,M,Open,97.52,100,,,,,,95,-102.5,-112.5,,95,,,,,,95,B,Raw,13
Craig Pellerin,,Canada,,M,Open,95.48,100,,,,,,-145,145,,,145,,,,,,145,B,Raw,11
Keegan Levesque,NY,,,M,Teen 16-17,93.85,100,,,,,,,185,192.5,,192.5,,,,,,192.5,B,Raw,1
Mathew Herbert,AZ,,,M,Teen 18-19,99.02,100,,,,,,65,70,75,,75,,,,,,75,B,Raw,1
Charles Moseback,PA,,,M,Juniors 20-24,98.38,100,,,,,,-150,-155,155,,155,,,,,,155,B,Raw,1
Robert Casey,IL,,,M,Seniors 30-34,97.07,100,,,,,,175,187.5,197.5,200,197.5,,,,,,197.5,B,Raw,1
Jeremy Meyer,NE,,,M,Seniors 30-34,97.07,100,,,,,,180,-182.5,-187.5,,180,,,,,,180,B,Raw,2
George Shudinis,AZ,,,M,Seniors 30-34,98.88,100,,,,,,138,142.5,148.5,,148.5,,,,,,148.5,B,Raw,3
Larry Candelaria,AZ,,,M,Seniors 30-34,94.08,100,,,,,,140,145,-150,,145,,,,,,145,B,Raw,4
Eric Peterson,IL,,,M,Masters 40-44,96.16,100,,,,,,160,165,-167.5,,165,,,,,,165,B,Raw,1
Craig Pellerin,,Canada,,M,Masters 40-44,95.48,100,,,,,,-145,145,,,145,,,,,,145,B,Raw,2
Ken Thurberg,CA,,,M,Masters 45-49,98.88,100,,,,,,165,187.5,-190,,187.5,,,,,,187.5,B,Raw,1
Gary Galloway,VA,,,M,Masters 45-49,98.61,100,,,,,,,,165,,165,,,,,,165,B,Raw,2
Clint DeMoss,AZ,,,M,Masters 45-49,97.98,100,,,,,,147.5,155,-157.5,,155,,,,,,155,B,Raw,3
Rodger Foltz,IL,,,M,Masters 45-49,97.07,100,,,,,,142.5,147.5,-152.5,,147.5,,,,,,147.5,B,Raw,4
Ray Linduski,NY,,,M,Masters 45-49,94.8,100,,,,,,137.5,142.5,145,,145,,,,,,145,B,Raw,5
David Earls,OH,,,M,Masters 50-54,99.16,100,,,,,,165,177.5,-182.5,,177.5,,,,,,177.5,B,Raw,1
Sean Kelleher,NY,,,M,Masters 50-54,98.79,100,,,,,,-150,-150,150,,150,,,,,,150,B,Raw,2
Kelly Parson,WI,,,M,Masters 50-54,97.52,100,,,,,,95,102,-107.5,,102,,,,,,102,B,Raw,3
Craig Perry,VA,,,M,Masters 55-59,99.84,100,,,,,,,,175,,175,,,,,,175,B,Raw,1
Mike McDonald,NY,,,M,Masters 55-59,93.89,100,,,,,,112.5,120,127.5,,127.5,,,,,,127.5,B,Raw,2
Michael Hawkins #3,AZ,,,M,Masters 60-64,99.29,100,,,,,,-132.5,-132.5,,,,,,,,,,B,Raw,DQ
Kenny Phillips,OK,,,M,Masters 65-69,97.98,100,,,,,,155,-162.5,-162.5,,155,,,,,,155,B,Raw,1
Charles Lapan,VA,,,M,Masters 65-69,99.16,100,,,,,,125,-135,-135,,125,,,,,,125,B,Raw,2
John Moore,VA,,,M,Masters 70-74,92.99,100,,,,,,,,112.5,,112.5,,,,,,112.5,B,Raw,1
Jeremy Meyer,NE,,,M,Law/Fire/Military,97.07,100,,,,,,180,-182.5,-187.5,,180,,,,,,180,B,Raw,1
Lysander Roberson,CA,,,M,Open,105.69,110,,,,,,215,-227.5,-227.5,,215,,,,,,215,B,Raw,1
Lance Grush,NE,,,M,Open,109.32,110,,,,,,182.5,195,-200,,195,,,,,,195,B,Raw,2
Kyle Nordstrom,IA,,,M,Open,107.73,110,,,,,,167.5,-175,-175,,167.5,,,,,,167.5,B,Raw,3
Thomas Matlock,AZ,,,M,Open,104.33,110,,,,,,115,132.5,,,132.5,,,,,,132.5,B,Raw,4
Anthony Burnham,MA,,,M,Open,109.77,110,,,,,,,,130,,130,,,,,,130,B,Raw,5
Gene Lawrence,AZ,,,M,Open,109.77,110,,,,,,102.5,107.5,-115,,107.5,,,,,,107.5,B,Raw,6
Matt Cronin,VA,,,M,Juniors 20-24,109.36,110,,,,,,,,182.5,,182.5,,,,,,182.5,B,Raw,1
Joseph Visconti,VA,,,M,Seniors 30-34,104.69,110,,,,,,,,190,,190,,,,,,190,B,Raw,1
Lance Grush,NE,,,M,Masters 40-44,109.32,110,,,,,,182.5,195,-200,,195,,,,,,195,B,Raw,1
Carl Amstone,VA,,,M,Masters 40-44,105.05,110,,,,,,,,147.5,,147.5,,,,,,147.5,B,Raw,2
Josh Stanhope,NH,,,M,Masters 40-44,109.77,110,,,,,,,,142.5,,142.5,,,,,,142.5,B,Raw,3
Anthony Burnham,MA,,,M,Masters 45-49,109.77,110,,,,,,,,130,,130,,,,,,130,B,Raw,1
Nate Matthews,OH,,,M,Masters 50-54,105.1,110,,,,,,172.5,182.5,-190,,182.5,,,,,,182.5,B,Raw,1
Mark Engle Sr,IN,,,M,Masters 50-54,106.82,110,,,,,,170,175,180,,180,,,,,,180,B,Raw,2
Bob Feeney,PA,,,M,Masters 55-59,107.27,110,,,,,,130,135,137.5,,137.5,,,,,,137.5,B,Raw,1
Scott Bixler,MD,,,M,Masters 55-59,103.87,110,,,,,,,,130,,130,,,,,,130,B,Raw,2
Steve Pattison,PA,,,M,Masters 55-59,106.37,110,,,,,,102.5,107.5,-112.5,,107.5,,,,,,107.5,B,Raw,3
Thomas Matlock,AZ,,,M,Masters 60-64,104.33,110,,,,,,115,132.5,,,132.5,,,,,,132.5,B,Raw,2
Jerry Comstock,NC,,,M,Masters 65-69,108.95,110,,,,,,-162.5,162.5,165,,165,,,,,,165,B,Raw,1
Gerald Burk,PA,,,M,Masters 65-69,109.59,110,,,,,,140,145,150,,150,,,,,,150,B,Raw,2
Gene Lawrence,AZ,,,M,Masters 70-74,109.77,110,,,,,,102.5,107.5,-115,,107.5,,,,,,107.5,B,Raw,1
Lysander Roberson,CA,,,M,Law/Fire/Military,105.69,110,,,,,,215,-227.5,-227.5,,215,,,,,,215,B,Raw,1
Mark Engle Jr,IN,,,M,Open,119.75,125,,,,,,192.5,205,-225,,205,,,,,,205,B,Raw,1
Tom Stoddard,NY,,,M,Open,121.52,125,,,,,,182.5,200,-212.5,,200,,,,,,200,B,Raw,2
Kevin Hutchinson,IN,,,M,Open,119.52,125,,,,,,192.5,-195,-195,,192.5,,,,,,192.5,B,Raw,3
Jack Lee,AL,,,M,Open,113.17,125,,,,,,170,175,-180,,175,,,,,,175,B,Raw,4
Sergio De Soto,AZ,,,M,Open,115.44,125,,,,,,122.5,,,,122.5,,,,,,122.5,B,Raw,5
Gilbert Hernandez,AZ,,,M,Teen 18-19,110.68,125,,,,,,125,-136,-137.5,,125,,,,,,125,B,Raw,1
Mark Engle Jr,IN,,,M,Seniors 25-29,119.75,125,,,,,,192.5,205,-225,,205,,,,,,205,B,Raw,1
Sergio De Soto,AZ,,,M,Submasters 35-39,115.44,125,,,,,,122.5,,,,122.5,,,,,,122.5,B,Raw,1
David Mullen,PA,,,M,Masters 40-44,110.77,125,,,,,,155,-160,-160,,155,,,,,,155,B,Raw,1
Kevin Hutchinson,IN,,,M,Masters 55-59,119.52,125,,,,,,192.5,-195,-195,,192.5,,,,,,192.5,B,Raw,1
Laroy Getz,IN,,,M,Masters 55-59,113.17,125,,,,,,125,132.5,-145,,132.5,,,,,,132.5,B,Raw,2
Tim McKeever,AZ,,,M,Masters 60-64,109.68,110,,,,,,147.5,152.5,155,,155,,,,,,155,B,Raw,1
Ed Lucas,AZ,,,M,Masters 60-64,119.16,125,,,,,,105,110,-115,,110,,,,,,110,B,Raw,1
Ed Stine,VA,,,M,Masters 65-69,116.48,125,,,,,,,,150,,150,,,,,,150,B,Raw,1
John Robinson,PA,,,M,Open,138.39,140,,,,,,202.5,220,230,,230,,,,,,230,B,Raw,1
Brian Barnes,IL,,,M,Open,136.08,140,,,,,,182.5,195,-205,,195,,,,,,195,B,Raw,2
Bruce Darley,AZ,,,M,Open,137.44,140,,,,,,150,-162.5,165,,165,,,,,,165,B,Raw,3
John Robinson,PA,,,M,Masters 45-49,138.39,140,,,,,,202.5,220,230,,230,,,,,,230,B,Raw,1
Robert Gains,VA,,,M,Masters 45-49,139.43,140,,,,,,,,205,207.5,205,,,,,,205,B,Raw,2
Bruce Darley,AZ,,,M,Masters 45-49,137.44,140,,,,,,150,-162.5,165,,165,,,,,,165,B,Raw,3
Grant Heller,AZ,,,M,Masters 45-49,127.87,140,,,,,,-145,157.5,160,,160,,,,,,160,B,Raw,4
Glenn Macica,NY,,,M,Masters 50-54,135.9,140,,,,,,185,-197.5,-202.5,,185,,,,,,185,B,Raw,1
Ron Simmons,VA,,,M,Masters 50-54,134.33,140,,,,,,,,155,,155,,,,,,155,B,Raw,2
Pedro Mejias,VA,,,M,Open,193.23,140+,,,,,,,,282.5,287.5,282.5,,,,,,282.5,B,Raw,1
Gregory Rodriguez,NH,,,M,Open,,140+,,,,,,,,185,,185,,,,,,185,B,Raw,2
Wyatt Lozano,NY,,,M,Juniors 20-24,163.84,140+,,,,,,215.5,-227,-227,,215.5,,,,,,215.5,B,Raw,1
Pedro Mejias,VA,,,M,Seniors 30-34,193.23,140+,,,,,,,,282.5,287.5,282.5,,,,,,282.5,B,Raw,1
John Grenz,WI,,,M,Masters 40-44,142.2,140+,,,,,,210,-230,-230,,210,,,,,,210,B,Raw,1
Michael Madigan,CO,,,M,Masters 55-59,145.15,140+,,,,,,185,-190,190,191,190,,,,,,190,B,Raw,1
Charles Hellickson,IA,,,M,Masters 65-69,152.63,140+,,,,,,-62.5,-62.5,-62.5,,,,,,,,,B,Raw,DQ
Savannah Sparks,AZ,,,F,Open,39.92,40,,,,,,,,,,,60,67.5,70,,70,70,D,Raw,1
Chloe Eckard,AZ,,,F,Youth,24.95,30,,,,,,,,,,,20,25,27.5,,27.5,27.5,D,Raw,1
Savannah Sparks,AZ,,,F,Teen 12-13,39.92,40,,,,,,,,,,,60,67.5,70,,70,70,D,Raw,1
Tasha Jordan,AZ,,,F,Open,46.77,48,,,,,,,,,,,102.5,-106,106,,106,106,D,Raw,1
Tasha Jordan,AZ,,,F,Seniors 25-29,46.77,48,,,,,,,,,,,102.5,-106,106,,106,106,D,Raw,1
Susan Liechti,IL,,,F,Masters 60-64,49.21,52,,,,,,,,,,,50,60,70,,70,70,D,Raw,1
Dorean Sherwood,NY,,,F,Open,55.93,56,,,,,,,,,,,115,122.5,127.5,133,127.5,127.5,D,Raw,1
Tia Wiseman,AZ,,,F,Juniors 20-24,55.34,56,,,,,,,,,,,92.5,95,97.5,,97.5,97.5,D,Raw,1
Cassidy Bauer,MA,,,F,Juniors 20-24,55.79,56,,,,,,,,,,,,,70,72.5,70,70,D,Raw,2
Dorean Sherwood,NY,,,F,Masters 40-44,55.93,56,,,,,,,,,,,115,122.5,127.5,133,127.5,127.5,D,Raw,1
Cassidy Bauer,MA,,,F,Special Olympics,55.79,56,,,,,,,,,,,,,70,72.5,70,70,D,Raw,1
Jamie Pica,NH,,,F,Open,59.87,60,,,,,,,,,,,,,107.5,,107.5,107.5,D,Raw,1
Elizabeth Becker,MN,,,F,Teen 14-15,59.19,60,,,,,,,,,,,80,92.5,97.5,105,97.5,97.5,D,Raw,1
Kelly Fey,IL,,,F,Juniors 20-24,57.15,60,,,,,,,,,,,65,72.5,82.5,,82.5,82.5,D,Raw,1
Stephanie Burant,NH,,,F,Masters 40-44,59.87,60,,,,,,,,,,,,,87.5,,87.5,87.5,D,Raw,1
Tierney Wallace,NY,,,F,Open,66.86,67.5,,,,,,,,,,,152.5,-160,-160,,152.5,152.5,D,Raw,1
Tierney Wallace,NY,,,F,Juniors 20-24,66.86,67.5,,,,,,,,,,,152.5,-160,-160,,152.5,152.5,D,Raw,1
Jan Wezelman,AZ,,,F,Masters 60-64,64.64,67.5,,,,,,,,,,,85,90,92.5,,92.5,92.5,D,Raw,1
Bonnie Kershaw,NH,,,F,Masters 60-64,67.13,67.5,,,,,,,,,,,,,77.5,84.5,77.5,77.5,D,Raw,2
Renee Lawton,AZ,,,F,Open,71.62,75,,,,,,,,,,,130,137.5,147.5,150,147.5,147.5,D,Raw,1
Liz Couture,MA,,,F,Open,74.84,75,,,,,,,,,,,,,145,,145,145,D,Raw,2
Evelyn Aracia,AZ,,,F,Open,68.36,75,,,,,,,,,,,110,120,-125,,120,120,D,Raw,3
Renee Lawton,AZ,,,F,Juniors 20-24,71.62,75,,,,,,,,,,,130,137.5,147.5,150,147.5,147.5,D,Raw,1
Evelyn Aracia,AZ,,,F,Juniors 20-24,68.36,75,,,,,,,,,,,110,120,-125,,120,120,D,Raw,2
Liz Couture,MA,,,F,Seniors 25-29,74.84,75,,,,,,,,,,,,,145,,145,145,D,Raw,1
Debi Kesper,MA,,,F,Masters 45-49,74.84,75,,,,,,,,,,,,,140,,140,140,D,Raw,1
Suzanne Spero,MA,,,F,Masters 50-54,74.84,75,,,,,,,,,,,,,160,,160,160,D,Raw,1
Lanette Poteete-Young,IL,,,F,Masters 55-59,74.16,75,,,,,,,,,,,65,85,90,,90,90,D,Raw,1
Carol Bowden,NH,,,F,Masters 60-64,74.84,75,,,,,,,,,,,,,77.5,,77.5,77.5,D,Raw,1
Karen Harding,MA,,,F,Masters 65-69,74.84,75,,,,,,,,,,,,,137.5,,137.5,137.5,D,Raw,1
Heather Moyers,OH,,,F,Submasters 35-39,89.81,90,,,,,,,,,,,,,145,,145,145,D,Raw,1
Maryann Reid,MA,,,F,Open,,90+,,,,,,,,,,,,,170,182.5,170,170,D,Raw,1
Jordan Kolodziejcak,MA,,,F,Teen 16-17,,90+,,,,,,,,,,,,,137.5,,137.5,137.5,D,Raw,1
Maryann Reid,MA,,,F,Submasters 35-39,,90+,,,,,,,,,,,,,170,182.5,170,170,D,Raw,1
Laurie Thackeray,NH,,,F,Masters 45-49,,90+,,,,,,,,,,,,,147.5,,147.5,147.5,D,Raw,1
Michelle Doherty,NH,,,F,Masters 45-49,,90+,,,,,,,,,,,,,145,,145,145,D,Raw,2
Michelle Carlsen,NY,,,F,Masters 50-54,119.39,90+,,,,,,,,,,,-135,-135,135,,135,135,D,Raw,1
Emily Clarke,NY,,,F,Special Olympics,106.96,90+,,,,,,,,,,,95,100,-107.5,,100,100,D,Raw,1
Andrew Hedrich,IL,,,M,Youth,38.78,40,,,,,,,,,,,57.5,60,67.5,,67.5,67.5,D,Raw,1
Kevin Croley,PA,,,M,Youth,45.99,48,,,,,,,,,,,52.5,57.5,62.5,,62.5,62.5,D,Raw,1
Tyson Gillott,FL,,,M,Youth,32.21,35,,,,,,,,,,,25,52.5,57.5,,57.5,57.5,D,Raw,1
Rylee Garcia,AZ,,,M,Youth,32.66,35,,,,,,,,,,,42.5,47.5,52.5,,52.5,52.5,D,Raw,2
Kevin Polanco,AZ,,,M,Youth,30.62,35,,,,,,,,,,,25,30,42.5,,42.5,42.5,D,Raw,3
Nick Hartmann,PA,,,M,Teen 14-15,35.47,40,,,,,,,,,,,85,95,100,,100,100,D,Raw,1
Cherokee Widner,VA,,,M,Teen 12-13,50.98,52,,,,,,,,,,,,,95,,95,95,D,Raw,1
Eric Smason,IL,,,M,Teen 16-17,50.8,52,,,,,,,,,,,115,130,137.5,-153,137.5,137.5,D,Raw,1
Tristan Desoto,AZ,,,M,Open,55.38,56,,,,,,,,,,,105,-107.5,107.5,,107.5,107.5,D,Raw,1
Tristan Desoto,AZ,,,M,Teen 12-13,55.38,56,,,,,,,,,,,105,-107.5,107.5,,107.5,107.5,D,Raw,1
Vin Voeun,AZ,,,M,Submasters 35-39,54.43,56,,,,,,,,,,,145,150,155,,155,155,D,Raw,1
Richard Litten,NC,,,M,Open,58.51,60,,,,,,,,,,,150,160,175,,175,175,D,Raw,1
Davis Lee,NJ,,,M,Youth,58.47,60,,,,,,,,,,,70,80.5,85,,85,85,D,Raw,1
Jordan Byrnes,NY,,,M,Youth,59.65,60,,,,,,,,,,,62.5,70,75,-88,75,75,D,Raw,2
Dakota Demare,MN,,,M,Youth,57.38,60,,,,,,,,,,,30,40,50,,50,50,D,Raw,3
Thomas Saedan,VA,,,M,Teen 12-13,58.06,60,,,,,,,,,,,65,85,115,,115,115,D,Raw,1
Richard Litten,NC,,,M,Teen 16-17,58.51,60,,,,,,,,,,,150,160,175,,175,175,D,Raw,1
Brett Kunkel,PA,,,M,Teen 16-17,57.7,60,,,,,,,,,,,112.5,125,-137.5,,125,125,D,Raw,2
Robert Melton,NC,,,M,Teen 18-19,58.24,60,,,,,,,,,,,125,150,-160,,150,150,D,Raw,1
George James,MD,,,M,Open,67.36,67.5,,,,,,,,,,,195,207.5,210,,210,210,D,Raw,1
Tyler Miller,VA,,,M,Open,64.59,67.5,,,,,,,,,,,,,205,,205,205,D,Raw,2
Marcus Gillott,FL,,,M,Teen 12-13,64.86,67.5,,,,,,,,,,,70,97.5,105,,105,105,D,Raw,1
Nicholas Sutton,PA,,,M,Teen 14-15,64.86,67.5,,,,,,,,,,,105,115,122.5,,122.5,122.5,D,Raw,1
Tyler Miller,VA,,,M,Teen 18-19,64.59,67.5,,,,,,,,,,,,,205,,205,205,D,Raw,1
Calvin Law,VA,,,M,Juniors 20-24,66.59,67.5,,,,,,,,,,,210,-220,-220,,210,210,D,Raw,1
George James,MD,,,M,Submasters 35-39,67.36,67.5,,,,,,,,,,,195,207.5,210,,210,210,D,Raw,1
John Jones #5,NE,,,M,Masters 55-59,67.13,67.5,,,,,,,,,,,175,182.5,190,192.5,190,190,D,Raw,1
Vahanna Dorcis,AZ,,,M,Open,73.94,75,,,,,,,,,,,220,235,,,235,235,D,Raw,1
Alex Medina,NC,,,M,Open,74.03,75,,,,,,,,,,,172.5,-180,-180,,172.5,172.5,D,Raw,2
Chad Nelson,NC,,,M,Open,74.53,75,,,,,,,,,,,155,160,165,,165,165,D,Raw,3
Ryan Melton,VA,,,M,Teen 12-13,70.13,75,,,,,,,,,,,,,105,,105,105,D,Raw,1
Chad Nelson,NC,,,M,Teen 16-17,74.53,75,,,,,,,,,,,155,160,165,,165,165,D,Raw,1
Clay Caputo,IL,,,M,Teen 18-19,73.94,75,,,,,,,,,,,185,205,225,-248,225,225,D,Raw,1
Johnathon Bohnert,PA,,,M,Juniors 20-24,74.16,75,,,,,,,,,,,225,250,-262.5,,250,250,D,Raw,1
Vahanna Dorcis,AZ,,,M,Seniors 25-29,73.94,75,,,,,,,,,,,220,235,,,235,235,D,Raw,1
Alex Medina,NC,,,M,Seniors 30-34,74.03,75,,,,,,,,,,,172.5,-180,-180,,172.5,172.5,D,Raw,1
Ken Hedrich,IL,,,M,Masters 40-44,74.84,75,,,,,,,,,,,160,170,182.5,,182.5,182.5,D,Raw,1
David Jones #7,IL,,,M,Masters 50-54,73.03,75,,,,,,,,,,,172.5,182.5,187.5,,187.5,187.5,D,Raw,1
Bill Sanders,MA,,,M,Open,82.1,82.5,,,,,,,,,,,,,250,,250,250,D,Raw,1
Brian Espino,NY,,,M,Open,82.46,82.5,,,,,,,,,,,180,200,222.5,,222.5,222.5,D,Raw,2
Michael Carson,PA,,,M,Open,81.78,82.5,,,,,,,,,,,195,212.5,215,,215,215,D,Raw,3
Brent Cannata,NH,,,M,Open,82.1,82.5,,,,,,,,,,,,,200,,200,200,D,Raw,4
Chase Stewart,NY,,,M,Open,78.74,82.5,,,,,,,,,,,162.5,172.5,182.5,-185,182.5,182.5,D,Raw,5
Jeff Inman,VA,,,M,Open,78.97,82.5,,,,,,,,,,,,,182.5,,182.5,182.5,D,Raw,6
Joshua Corbit,NC,,,M,Open,78.06,82.5,,,,,,,,,,,150,165,-170,,165,165,D,Raw,7
Cody Elliott,NC,,,M,Teen 16-17,76.48,82.5,,,,,,,,,,,165,-170,-172.5,,165,165,D,Raw,1
Joshua Corbit,NC,,,M,Teen 16-17,78.06,82.5,,,,,,,,,,,150,165,-170,,165,165,D,Raw,2
Patrick Carr,VA,,,M,Juniors 20-24,80.29,82.5,,,,,,,,,,,,,197.5,,197.5,197.5,D,Raw,1
Jeff Inman,VA,,,M,Seniors 25-29,78.97,82.5,,,,,,,,,,,,,182.5,,182.5,182.5,D,Raw,1
Tom Harris,NY,,,M,Masters 45-49,78.56,82.5,,,,,,,,,,,182.5,195,200,,200,200,D,Raw,1
Charles Cole,PA,,,M,Masters 55-59,80.47,82.5,,,,,,,,,,,-172.5,172.5,-182.5,,172.5,172.5,D,Raw,1
David Laszewski,NY,,,M,Masters 60-64,82.33,82.5,,,,,,,,,,,150,160,172.5,,172.5,172.5,D,Raw,1
Joe Orengia,PA,,,M,Masters 65-69,80.47,82.5,,,,,,,,,,,185,202.5,207.5,,207.5,207.5,D,Raw,1
Chase Stewart,NY,,,M,Special Olympics,78.74,82.5,,,,,,,,,,,162.5,172.5,182.5,-185,182.5,182.5,D,Raw,1
Anthony Iovine III,NY,,,M,Special Olympics,77.52,82.5,,,,,,,,,,,135,145,150,,150,150,D,Raw,2
Victor Biryukov,,Russia,,M,Open,88.77,90,,,,,,,,,,,260,275,-301,,275,275,D,Raw,1
David Dibble,PA,,,M,Open,89.22,90,,,,,,,,,,,232.5,-240,-240,,232.5,232.5,D,Raw,2
Robert Ludwig #2,PA,,,M,Open,88.59,90,,,,,,,,,,,192.5,207.5,215,,215,215,D,Raw,3
Neil Walker,MA,,,M,Open,89.77,90,,,,,,,,,,,205,-232.5,-232.5,,205,205,D,Raw,4
Joel Sanchez #7,MA,,,M,Open,89.81,90,,,,,,,,,,,,,187.5,,187.5,187.5,D,Raw,5
Scott Oleson,MA,,,M,Open,84.59,90,,,,,,,,,,,185,-200,-202.5,,185,185,D,Raw,6
Kevin Ryce,PA,,,M,Open,,90,,,,,,,,,,,,,,,,,D,Raw,DQ
Peter Hodan,AZ,,,M,Teen 14-15,87.54,90,,,,,,,,,,,175,195,212.5,,212.5,212.5,D,Raw,1
Robbie Karstendiek,PA,,,M,Teen 16-17,87.36,90,,,,,,,,,,,245,260,-272.5,,260,260,D,Raw,1
Christian Grau,NJ,,,M,Juniors 20-24,88.04,90,,,,,,,,,,,,,185,,185,185,D,Raw,1
Christian Gray,NJ,,,M,Juniors 20-24,89.18,90,,,,,,,,,,,165,175,180,,180,180,D,Raw,2
Chad Stewart,MA,,,M,Juniors 20-24,,90,,,,,,,,,,,,,,,,,D,Raw,DQ
David Dibble,PA,,,M,Submasters 35-39,89.22,90,,,,,,,,,,,232.5,-240,-240,,232.5,232.5,D,Raw,1
Giovanni Iadonisi,PA,,,M,Masters 40-44,88.59,90,,,,,,,,,,,187.5,195,-202.5,,195,195,D,Raw,1
David Jones #13,PA,,,M,Masters 45-49,88.99,90,,,,,,,,,,,-185,187.5,190,,190,190,D,Raw,1
Stephen Koldenhoven,IL,,,M,Masters 45-49,88.9,90,,,,,,,,,,,-145,-145,,,,,D,Raw,DQ
Mark Nosky,IL,,,M,Masters 55-59,85.96,90,,,,,,,,,,,165,175,182.5,,182.5,182.5,D,Raw,1
Michael Grasso,NY,,,M,Masters 65-69,87.82,90,,,,,,,,,,,205,-217.5,,,205,205,D,Raw,1
Frank Kelly,IL,,,M,Masters 70-74,86.18,90,,,,,,,,,,,62.5,70,77.5,,77.5,77.5,D,Raw,1
Stephen Koldenhoven,IL,,,M,Law/Fire/Military,88.9,90,,,,,,,,,,,-145,-145,,,,,D,Raw,DQ
Ryan Paradise,MA,,,M,Open,99.79,100,,,,,,,,,,,,,310,,310,310,D,Raw,1
Tim Henriques,VA,,,M,Open,98.88,100,,,,,,,,,,,,,287.5,,287.5,287.5,D,Raw,2
Tim Lester,VA,,,M,Open,99.79,100,,,,,,,,,,,265,275,-287.5,,275,275,D,Raw,3
Ron Yim,NE,,,M,Open,92.99,100,,,,,,,,,,,215,227.5,240,,240,240,D,Raw,4
Robert Casey,IL,,,M,Open,97.07,100,,,,,,,,,,,195,227.5,-272.5,,227.5,227.5,D,Raw,5
DeWann McCollum,NC,,,M,Open,94.98,100,,,,,,,,,,,160,195,202.5,,202.5,202.5,D,Raw,6
Larry Candelaria,AZ,,,M,Open,94.08,100,,,,,,,,,,,147.5,162.5,182.5,,182.5,182.5,D,Raw,7
Kenny Phillips,OK,,,M,Open,97.98,100,,,,,,,,,,,182.5,-202.5,,,182.5,182.5,D,Raw,8
Clint DeMoss,AZ,,,M,Open,97.98,100,,,,,,,,,,,175,-180,-187.5,,175,175,D,Raw,9
Scott Deuel,NC,,,M,Open,98.7,100,,,,,,,,,,,140,150,160,,160,160,D,Raw,10
Cam LaForge,MA,,,M,Teen 16-17,99.79,100,,,,,,,,,,,,,273,,273,273,D,Raw,1
DeWann McCollum,NC,,,M,Teen 16-17,94.98,100,,,,,,,,,,,160,195,202.5,,202.5,202.5,D,Raw,2
Mathew Herbert,AZ,,,M,Teen 18-19,99.02,100,,,,,,,,,,,165,-172.5,180,,180,180,D,Raw,1
Eri Ruiz,AZ,,,M,Juniors 20-24,97.07,100,,,,,,,,,,,200,242.5,250,,250,250,D,Raw,1
Robert Casey,IL,,,M,Seniors 30-34,97.07,100,,,,,,,,,,,195,227.5,-272.5,,227.5,227.5,D,Raw,1
Larry Candelaria,AZ,,,M,Seniors 30-34,94.08,100,,,,,,,,,,,147.5,162.5,182.5,,182.5,182.5,D,Raw,2
Eric Tuthill,AZ,,,M,Submasters 35-39,99.79,100,,,,,,,,,,,215,227.5,-237.5,,227.5,227.5,D,Raw,1
Al Bianchi,MA,,,M,Masters 40-44,99.79,100,,,,,,,,,,,,,292.5,,292.5,292.5,D,Raw,1
Gary Galloway,VA,,,M,Masters 45-49,98.61,100,,,,,,,,,,,,,265,,265,265,D,Raw,1
Clint DeMoss,AZ,,,M,Masters 45-49,97.98,100,,,,,,,,,,,175,-180,-187.5,,175,175,D,Raw,2
Scott Deuel,NC,,,M,Masters 45-49,98.7,100,,,,,,,,,,,140,150,160,,160,160,D,Raw,3
Ken Mattson,MA,,,M,Masters 55-59,99.79,100,,,,,,,,,,,,,230,,230,230,D,Raw,1
Kenny Phillips,OK,,,M,Masters 65-69,97.98,100,,,,,,,,,,,182.5,-202.5,,,182.5,182.5,D,Raw,1
Nick Fagone,MA,,,M,Open,106.37,110,,,,,,,,,,,272.5,-292.5,-292.5,,272.5,272.5,D,Raw,1
Kyle Nordstrom,IA,,,M,Open,107.73,110,,,,,,,,,,,227.5,240,-250,,240,240,D,Raw,2
Wayne Jones,PA,,,M,Open,103.78,110,,,,,,,,,,,237.5,,,,237.5,237.5,D,Raw,3
Zack Zubek,PA,,,M,Open,109.18,110,,,,,,,,,,,170,182.5,-190,,182.5,182.5,D,Raw,4
Anthony Burnham,MA,,,M,Open,109.77,110,,,,,,,,,,,,,177.5,,177.5,177.5,D,Raw,5
Gene Lawrence,AZ,,,M,Open,109.77,110,,,,,,,,,,,150,161,-162.5,,161,161,D,Raw,6
Jacob Moore,AZ,,,M,Teen 16-17,108.41,110,,,,,,,,,,,200,,,,200,200,D,Raw,1
Matt Cronin,VA,,,M,Juniors 20-24,109.36,110,,,,,,,,,,,,,267.5,,267.5,267.5,D,Raw,1
Ken McCree,AZ,,,M,Submasters 35-39,117.48,125,,,,,,,,,,,227.5,232.5,237.5,,237.5,237.5,D,Raw,1
Josh Stanhope,NH,,,M,Masters 40-44,109.77,110,,,,,,,,,,,,,237.5,,237.5,237.5,D,Raw,1
Wayne Jones,PA,,,M,Masters 45-49,103.78,110,,,,,,,,,,,237.5,,,,237.5,237.5,D,Raw,1
Frank Sowa,VA,,,M,Masters 55-59,104.42,110,,,,,,,,,,,252.5,267.5,276,,276,276,D,Raw,1
Steve Pattison,PA,,,M,Masters 55-59,106.37,110,,,,,,,,,,,125,142.5,157.5,,157.5,157.5,D,Raw,2
Bob Hill,PA,,,M,Masters 60-64,107.77,110,,,,,,,,,,,205,215,-222.5,,215,215,D,Raw,1
Tom Matlock,AZ,,,M,Masters 60-64,104.33,110,,,,,,,,,,,170,192.5,,,192.5,192.5,D,Raw,2
Gene Lawrence,AZ,,,M,Masters 70-74,109.77,110,,,,,,,,,,,150,161,-162.5,,161,161,D,Raw,1
Paul DeSimone,MA,,,M,Open,122.97,125,,,,,,,,,,,227.5,,,,227.5,227.5,D,Raw,1
Sergio De Soto,AZ,,,M,Open,115.44,125,,,,,,,,,,,225,,,,225,225,D,Raw,2
Gilbert Hernandez,AZ,,,M,Teen 18-19,110.68,125,,,,,,,,,,,172.5,186,-197.5,,186,186,D,Raw,1
Sergio De Soto,AZ,,,M,Submasters 35-39,115.44,125,,,,,,,,,,,225,,,,225,225,D,Raw,2
Terry Inman,VA,,,M,Masters 55-59,121.15,125,,,,,,,,,,,,,205,,205,205,D,Raw,1
Brandon Hall,AZ,,,M,Open,138.35,140,,,,,,,,,,,255,275,282.5,,282.5,282.5,D,Raw,1
Bob Borofsky,NH,,,M,Open,139.71,140,,,,,,,,,,,,,182.5,,182.5,182.5,D,Raw,2
Brandon Hall,AZ,,,M,Seniors 30-34,138.35,140,,,,,,,,,,,255,275,282.5,,282.5,282.5,D,Raw,1
Robert Gains,VA,,,M,Masters 45-49,139.43,140,,,,,,,,,,,,,275,,275,275,D,Raw,1
Jeff Lawson #3,PA,,,M,Masters 45-49,125.46,140,,,,,,,,,,,250,265,-278,,265,265,D,Raw,2
Glenn Macica,NY,,,M,Masters 50-54,135.9,140,,,,,,,,,,,-230,237.5,242.5,,242.5,242.5,D,Raw,1
Gregory Rodriguez,NH,,,M,Open,,140+,,,,,,,,,,,,,250,,250,250,D,Raw,1
Charles Hellickson,IA,,,M,Masters 65-69,152.63,140+,,,,,,,,,,,112.5,115,117.5,125,117.5,117.5,D,Raw,1
Charles Smith,NY,,,M,Special Olympics,150.77,140+,,,,,,,,,,,100,105,-107.5,,105,105,D,Raw,1
