Place,Name,CyrillicName,BirthYear,BodyweightKg,Best3SquatKg,Best3BenchKg,Best3DeadliftKg,TotalKg,WeightClassKg,Event,Equipment,Division,Sex,BirthDate
1,Natalya Gorbachyova,Наталья Горбачёва,1997,41.6,75,37.5,95,207.5,43,SBD,Single-ply,Sub-Juniors,F,
1,Natalya Sevalova,Наталья Севалова,1998,45.15,110,40,105,255,47,SBD,Single-ply,Sub-Juniors,F,
2,Elina Gumbatova,Элина Гумбатова,2001,46.4,62.5,37.5,70,170,47,SBD,Single-ply,Sub-Juniors,F,
DQ,Anastasiya Chavkina,Анастасия Чавкина,1998,48.5,,,,,52,SBD,Single-ply,Sub-Juniors,F,
1,Lada Bessonova,Лада Бессонова,2000,49.85,100,60,102.5,262.5,52,SBD,Single-ply,Sub-Juniors,F,
1,Vera Pronina,Вера Пронина,1998,52.55,95,40,95,230,57,SBD,Single-ply,Sub-Juniors,F,
2,Kristina Ironova,Кристина Иронова,1999,56.8,95,35,100,230,57,SBD,Single-ply,Sub-Juniors,F,
1,Anastasiya Ladnyuk,Анастасия Ладнюк,1999,61.65,145,75,150,370,63,SBD,Single-ply,Sub-Juniors,F,
2,Yuliya Romanenkova,Юлия Романенкова,1999,59.65,115,57.5,107.5,280,63,SBD,Single-ply,Sub-Juniors,F,
3,Anastasiya Akimtseva,Анастасия Акимцева,1999,60.35,105,62.5,105,272.5,63,SBD,Single-ply,Sub-Juniors,F,
1,Anna Bessonova,Анна Бессонова,1998,64.9,120,45,125,290,72,SBD,Single-ply,Sub-Juniors,F,
1,Daria Efimtseva,Дарья Ефимцева,2000,104.35,172.5,110,152.5,435,84+,SBD,Single-ply,Sub-Juniors,F,
1,Mariya Burova,Мария Бурова,1995,46.55,100,72.5,120,292.5,47,SBD,Single-ply,Juniors,F,
1,Margarita Zakhodyaeva,Маргарита Заходяева,1993,56.55,105,50,110,265,57,SBD,Single-ply,Juniors,F,
1,Natalya Kruchinina,Наталья Кручинина,1992,62.7,130,67.5,125,322.5,63,SBD,Single-ply,Juniors,F,
1,Antonina Denisova,Антонина Денисова,1994,68.15,185,95,165,445,72,SBD,Single-ply,Juniors,F,
1,Mariya Anikeeva,Мария Аникеева,1994,75.05,75,45,92.5,212.5,84,SBD,Single-ply,Juniors,F,
1,Nadezhda Ananina,Надежда Ананьина,1996,89.9,115,55,120,290,84+,SBD,Single-ply,Juniors,F,
1,Ilya Marichev,Илья Маричев,2001,44.6,120,72.5,112.5,305,48,SBD,Single-ply,Sub-Juniors,M,
2,Oleg Kuznetsov,Олег Кузнецов,1999,43.1,75,47.5,77.5,200,48,SBD,Single-ply,Sub-Juniors,M,
1,Aleksandr Tokarchuk,Александр Токарчук,2000,52.8,157.5,95,157.5,410,53,SBD,Single-ply,Sub-Juniors,M,
2,Yaroslav Ogorodniy,Ярослав Огородний,2001,49.9,100,47.5,112.5,260,53,SBD,Single-ply,Sub-Juniors,M,
1,Daniil Moroz,Даниил Мороз,2001,54.2,160,67.5,175,402.5,59,SBD,Single-ply,Sub-Juniors,M,
2,Dmitriy Koldashov,Дмитрий Колдашов,1998,58.35,150,95,157.5,402.5,59,SBD,Single-ply,Sub-Juniors,M,
3,Nikita Gavrin,Никита Гаврин,1997,58.1,155,80,145,380,59,SBD,Single-ply,Sub-Juniors,M,
4,Yuriy Gelbel,Юрий Гельбель,2001,56.45,125,70,145,340,59,SBD,Single-ply,Sub-Juniors,M,
5,Maksim Efremov,Максим Ефремов,1997,57,100,70,150,320,59,SBD,Single-ply,Sub-Juniors,M,
DQ,Ivan Kotlyuba,Иван Котлюба,1997,55.35,130,-60,,,59,SBD,Single-ply,Sub-Juniors,M,
1,Roman Streltsov,Роман Стрельцов,1997,63.5,165,107.5,167.5,440,66,SBD,Single-ply,Sub-Juniors,M,
2,Nikita Vishnyakov,Никита Вишняков,2001,66,165,100,160,425,66,SBD,Single-ply,Sub-Juniors,M,
3,Nikita Khlopkov,Никита Хлопков,1998,62.85,150,85,155,390,66,SBD,Single-ply,Sub-Juniors,M,
DQ,Vyacheslav Pereezchikov,Вячеслав Переезчиков,2000,60.8,-160,,,,66,SBD,Single-ply,Sub-Juniors,M,
1,Andrey Khalyavin,Андрей Халявин,1997,73.6,200,155,215,570,74,SBD,Single-ply,Sub-Juniors,M,
2,Andrey Fomin,Андрей Фомин,1997,72.15,185,125,222.5,532.5,74,SBD,Single-ply,Sub-Juniors,M,
3,Anar Ermakov,Анар Ермаков,1998,71.7,180,140,182.5,502.5,74,SBD,Single-ply,Sub-Juniors,M,
4,Ruslan Potolov,Руслан Потолов,2001,71.9,190,110,190,490,74,SBD,Single-ply,Sub-Juniors,M,
DQ,Yuriy Aliev,Юрий Алиев,1997,70.2,-180,,,,74,SBD,Single-ply,Sub-Juniors,M,
1,Mikhail Deryugin,Михаил Дерюгин,1998,80.55,225,150,215,590,83,SBD,Single-ply,Sub-Juniors,M,
2,Dmitriy Alyanykh,Дмитрий Альяных,1997,77.35,202.5,145,185,532.5,83,SBD,Single-ply,Sub-Juniors,M,
3,Damir Muzafarov,Дамир Музафаров,1998,79.35,180,120,205,505,83,SBD,Single-ply,Sub-Juniors,M,
4,Dmitriy Davydov,Дмитрий Давыдов,1999,75.75,180,140,180,500,83,SBD,Single-ply,Sub-Juniors,M,
5,Gleb Bogatyryov,Глеб Богатырёв,1997,81.1,170,100,180,450,83,SBD,Single-ply,Sub-Juniors,M,
DQ,Nikita Korabelnikov,Никита Корабельников,1997,80.35,215,-150,,,83,SBD,Single-ply,Sub-Juniors,M,
1,Nikita Karpov,Никита Карпов,1997,89.9,247.5,137.5,247.5,632.5,93,SBD,Single-ply,Sub-Juniors,M,
2,Nikita Arkhipov,Никита Архипов,1998,90.3,227.5,145,237.5,610,93,SBD,Single-ply,Sub-Juniors,M,
3,Daniil Khakin,Даниил Хакин,1998,84.9,235,140,220,595,93,SBD,Single-ply,Sub-Juniors,M,
4,Mark Shichkov,Марк Шичков,1997,91.55,230,130,200,560,93,SBD,Single-ply,Sub-Juniors,M,
1,Aleksandr Vakhrushin,Александр Вахрушин,1998,94.55,230,140,220,590,105,SBD,Single-ply,Sub-Juniors,M,
1,Sergey Gerasimov,Сергей Герасимов,1993,57.8,150,90,152.5,392.5,59,SBD,Single-ply,Juniors,M,
1,Aleksandr Dulepov,Александр Дулепов,1993,66,240,170,225,635,66,SBD,Single-ply,Juniors,M,
2,Maksim Sazonov,Максим Сазонов,1993,65,200,125,200,525,66,SBD,Single-ply,Juniors,M,
3,Kirill Kerimov,Кирилл Керимов,1995,62.4,190,120,170,480,66,SBD,Single-ply,Juniors,M,
4,Maksim Vologin,Максим Вологин,1996,64.1,165,125,185,475,66,SBD,Single-ply,Juniors,M,
1,Vladislav Slaykovskiy,Владислав Слайковский,1996,71.55,262.5,197.5,250,710,74,SBD,Single-ply,Juniors,M,
2,Valentin Ryutin,Валентин Рютин,1995,73.7,240,142.5,260,642.5,74,SBD,Single-ply,Juniors,M,
3,Vasiliy Gorichev,Василий Горичев,1992,73.1,200,140,222.5,562.5,74,SBD,Single-ply,Juniors,M,
4,Timur Pereverzin,Тимур Переверзин,1993,72.6,200,147.5,212.5,560,74,SBD,Single-ply,Juniors,M,
5,Konstantin Cherevko,Константин Черевко,1995,73.3,210,130,205,545,74,SBD,Single-ply,Juniors,M,
6,Ivan Prikhodko,Иван Приходько,1994,73.05,212.5,147.5,177.5,537.5,74,SBD,Single-ply,Juniors,M,
1,Kirill Aseev,Кирилл Асеев,1992,82.7,272.5,170,305,747.5,83,SBD,Single-ply,Juniors,M,
2,Vladislav Kovalyov,Владислав Ковалёв,1996,82.7,275,155,265,695,83,SBD,Single-ply,Juniors,M,
3,Evgeniy Vasin,Евгений Васин,1993,78.75,272.5,175,225,672.5,83,SBD,Single-ply,Juniors,M,
4,Roman Kripak,Роман Крипак,1995,80.45,227.5,175,250,652.5,83,SBD,Single-ply,Juniors,M,
5,Nikolay Isaev,Николай Исаев,1996,82.65,260,152.5,235,647.5,83,SBD,Single-ply,Juniors,M,
6,Aleksandr Bykov,Александр Быков,1992,79.6,240,150,230,620,83,SBD,Single-ply,Juniors,M,
7,Andrey Blinov,Андрей Блинов,1996,82.3,220,145,230,595,83,SBD,Single-ply,Juniors,M,
1,Mikhail Krivolap,Михаил Криволап,1994,91.1,290,212.5,275,777.5,93,SBD,Single-ply,Juniors,M,
2,Andrey Ozerov,Андрей Озеров,1995,93,260,190,250,700,93,SBD,Single-ply,Juniors,M,
3,Aleksandr Kapitanov,Александр Капитанов,1996,87.25,245,170,235,650,93,SBD,Single-ply,Juniors,M,
4,Leonid Pereezchikov,Леонид Переезчиков,1994,89.25,220,170,240,630,93,SBD,Single-ply,Juniors,M,
5,Yuriy Osipenko,Юрий Осипенко,1995,91.1,230,180,210,620,93,SBD,Single-ply,Juniors,M,
6,Andrey Akhromeev,Андрей Ахромеев,1996,89,235,165,190,590,93,SBD,Single-ply,Juniors,M,
7,Aleksey Davydov,Алексей Давыдов,1996,92.45,210,160,210,580,93,SBD,Single-ply,Juniors,M,
1,Igor Makarov,Игорь Макаров,1993,101.1,280,180,270,730,105,SBD,Single-ply,Juniors,M,
2,Kirill Kuznetsov,Кирилл Кузнецов,1994,98.5,260,175,240,675,105,SBD,Single-ply,Juniors,M,
3,Artyom Grechishnikov,Артём Гречишников,1995,103.05,260,160,220,640,105,SBD,Single-ply,Juniors,M,
4,Vladislav Nesterov,Владислав Нестеров,1995,101.35,240,170,205,615,105,SBD,Single-ply,Juniors,M,
5,Timofey Ivanov,Тимофей Иванов,1995,100.25,215,165,230,610,105,SBD,Single-ply,Juniors,M,
1,Andrey Savinkov,Андрей Савинков,1992,111.55,280,225,320,825,120,SBD,Single-ply,Juniors,M,
2,Sergey Yazykov,Сергей Языков,1995,119.5,315,225,285,825,120,SBD,Single-ply,Juniors,M,
3,Vasiliy Maslov,Василий Маслов,1992,117.15,260,190,260,710,120,SBD,Single-ply,Juniors,M,
DQ,Dmitriy Ostoyach,Дмитрий Остояч,1993,115.7,,,,,120,SBD,Single-ply,Juniors,M,
1,Olga Volynskaya,Ольга Волынская,1999,41.85,70,47.5,92.5,210,43,SBD,Raw,Sub-Juniors,F,
1,Alyona Lisova,Алёна Лисова,1999,44.5,50,27.5,75,152.5,47,SBD,Raw,Sub-Juniors,F,
1,Tatyana Nabatchikova,Татьяна Набатчикова,1999,51.3,97.5,60,130,287.5,52,SBD,Raw,Sub-Juniors,F,
2,Alina Khorsheva,Алина Хоршева,1998,49.35,75,40,85,200,52,SBD,Raw,Sub-Juniors,F,
3,Kseniya Kukushkina,Ксения Кукушкина,2000,50.95,57.5,42.5,92.5,192.5,52,SBD,Raw,Sub-Juniors,F,
4,Ekaterina Motova,Екатерина Мотова,1997,51.4,72.5,37.5,82.5,192.5,52,SBD,Raw,Sub-Juniors,F,
5,Marina Trifonova,Марина Трифонова,1997,50.2,62.5,42.5,85,190,52,SBD,Raw,Sub-Juniors,F,
1,Valentina Eryomina,Валентина Ерёмина,1998,54.65,75,42.5,100,217.5,57,SBD,Raw,Sub-Juniors,F,
2,Viktoriya Gorlyshkova,Виктория Горлышкова,1997,55.2,60,50,90,200,57,SBD,Raw,Sub-Juniors,F,
1,Anna Chueva,Анна Чуева,2000,63,105,52.5,107.5,265,63,SBD,Raw,Sub-Juniors,F,
2,Kseniya Petrova,Ксения Петрова,1998,61.75,87.5,47.5,125,260,63,SBD,Raw,Sub-Juniors,F,
3,Yana Balueva,Яна Балуева,2000,61.7,85,50,107.5,242.5,63,SBD,Raw,Sub-Juniors,F,
1,Alyona Alekseeva,Алёна Алексеева,1998,63.25,82.5,45,120,247.5,72,SBD,Raw,Sub-Juniors,F,
2,Svetlana Ivanovskaya,Светлана Ивановская,2000,66.85,40,35,90,165,72,SBD,Raw,Sub-Juniors,F,
1,Ekaterina Legenkaya,Екатерина Легенькая,1998,74.25,95,55,120,270,84,SBD,Raw,Sub-Juniors,F,
1,Daria Efimtseva,Дарья Ефимцева,2000,103.8,130,77.5,135,342.5,84+,SBD,Raw,Sub-Juniors,F,
2,Alina Fetisova,Алина Фетисова,1997,86.9,110,62.5,137.5,310,84+,SBD,Raw,Sub-Juniors,F,
3,Mariya Mishina,Мария Мишина,1999,88.9,95,52.5,110,257.5,84+,SBD,Raw,Sub-Juniors,F,
DQ,Natalya Ageeva,Наталья Агеева,1998,118.7,,,,,84+,SBD,Raw,Sub-Juniors,F,
1,Natalya Komleva,Наталья Комлева,1993,45.1,52.5,30,75,157.5,47,SBD,Raw,Juniors,F,
1,Viktoriya Belukhina,Виктория Белухина,1996,50.35,50,35,77.5,162.5,52,SBD,Raw,Juniors,F,
1,Viktoriya Evskaya,Виктория Евская,1995,55.15,90,45,95,230,57,SBD,Raw,Juniors,F,
DQ,Darya Baranova,Дарья Баранова,1996,,,,,,57,SBD,Raw,Juniors,F,
1,Natalya Kruchinina,Наталья Кручинина,1992,62.7,85,65,110,260,63,SBD,Raw,Juniors,F,
2,Yuliya Luzhnova,Юлия Лужнова,1994,61.2,85,50,85,220,63,SBD,Raw,Juniors,F,
1,Ekaterina Yashkina,Екатерина Яшкина,1992,64.15,117.5,90,150,357.5,72,SBD,Raw,Juniors,F,
2,Khadizhat Kallaeva,Хадижат Каллаева,1995,69.8,100,55,130,285,72,SBD,Raw,Juniors,F,
1,Vlada Mamykina,Влада Мамыкина,1996,74.85,95,57.5,110,262.5,84,SBD,Raw,Juniors,F,
1,Anastasiya Smirnova,Анастасия Смирнова,1995,84.2,65,50,100,215,84+,SBD,Raw,Juniors,F,
1,Oleg Kuznetsov,Олег Кузнецов,1999,42.9,65,45,75,185,48,SBD,Raw,Sub-Juniors,M,
1,Denis Pavlov,Денис Павлов,1998,52.15,110,82.5,145,337.5,53,SBD,Raw,Sub-Juniors,M,
2,Evgeniy Akulov,Евгений Акулов,2000,51.7,92.5,55,135,282.5,53,SBD,Raw,Sub-Juniors,M,
3,Denis Semyonov,Денис Семёнов,1999,51.8,87.5,70,120,277.5,53,SBD,Raw,Sub-Juniors,M,
4,Aleksandr Logotskiy,Александр Логоцкий,1998,52.8,85,55,125,265,53,SBD,Raw,Sub-Juniors,M,
5,Nikolay Grishin,Николай Гришин,1999,50.05,97.5,55,90,242.5,53,SBD,Raw,Sub-Juniors,M,
6,Pavel Belous,Павел Белоус,2001,51.35,80,67.5,95,242.5,53,SBD,Raw,Sub-Juniors,M,
1,Artush Kazaryan,Артуш Казарян,1997,58.05,107.5,92.5,145,345,59,SBD,Raw,Sub-Juniors,M,
2,Aleksandr Zarubov,Александр Зарубов,1999,58.6,120,70,150,340,59,SBD,Raw,Sub-Juniors,M,
3,Sergey Panov,Сергей Панов,1998,58.3,100,70,165,335,59,SBD,Raw,Sub-Juniors,M,
4,Yuriy Gelbel,Юрий Гельбель,2001,57.3,120,70,135,325,59,SBD,Raw,Sub-Juniors,M,
5,Artyom Gromov,Артём Громов,2000,58,75,55,110,240,59,SBD,Raw,Sub-Juniors,M,
1,Danila Denisov,Данила Денисов,1997,62.75,150,107.5,180,437.5,66,SBD,Raw,Sub-Juniors,M,
2,Nikita Vishnyakov,Никита Вишняков,2001,65.95,145,92.5,170,407.5,66,SBD,Raw,Sub-Juniors,M,
3,Danil Krasnobaev,Данил Краснобаев,1998,65.5,142.5,100,162.5,405,66,SBD,Raw,Sub-Juniors,M,
4,Nikita Shemyakin,Никита Шемякин,1997,64.45,140,95,162.5,397.5,66,SBD,Raw,Sub-Juniors,M,
5,Andrey Larkin,Андрей Ларкин,1997,65.75,145,85,162.5,392.5,66,SBD,Raw,Sub-Juniors,M,
6,Etibar Novruzov,Этибар Новрузов,1998,64.6,130,85,172.5,387.5,66,SBD,Raw,Sub-Juniors,M,
7,Pavel Fokin,Павел Фокин,1997,65.8,125,92.5,140,357.5,66,SBD,Raw,Sub-Juniors,M,
8,Lilian Zhylteanu,Лилиан Жылтеану,1999,63.65,110,72.5,152.5,335,66,SBD,Raw,Sub-Juniors,M,
9,Denis Popovkin,Денис Поповкин,2000,62.5,95,80,125,300,66,SBD,Raw,Sub-Juniors,M,
DQ,Dmitriy Kagilev,Дмитрий Кагилев,1998,63.35,130,-97.5,,,66,SBD,Raw,Sub-Juniors,M,
1,Andrey Khalyavin,Андрей Халявин,1997,73.75,175,137.5,205,517.5,74,SBD,Raw,Sub-Juniors,M,
2,Dmitriy Ilyasov,Дмитрий Илясов,1999,71.7,180,105,220,505,74,SBD,Raw,Sub-Juniors,M,
3,Ivan Brazhnikov,Иван Бражников,1998,71.1,160,87.5,202.5,450,74,SBD,Raw,Sub-Juniors,M,
4,Mikhail Tachkov,Михаил Тачков,1997,73.6,135,120,195,450,74,SBD,Raw,Sub-Juniors,M,
5,Dmitriy Nikitin,Дмитрий Никитин,1998,73.3,170,90,180,440,74,SBD,Raw,Sub-Juniors,M,
6,Ruslan Fayzulaev,Руслан Файзулаев,1997,69.6,142.5,102.5,177.5,422.5,74,SBD,Raw,Sub-Juniors,M,
7,Anton Dorodnov,Антон Дороднов,2000,73.6,135,95,165,395,74,SBD,Raw,Sub-Juniors,M,
8,Ruslan Potolov,Руслан Потолов,2001,70.7,130,85,170,385,74,SBD,Raw,Sub-Juniors,M,
9,Mikhail Khrunov,Михаил Хрунов,2000,72.65,120,75,150,345,74,SBD,Raw,Sub-Juniors,M,
1,Ilya Kozlov,Илья Козлов,1998,82,230,122.5,247.5,600,83,SBD,Raw,Sub-Juniors,M,
2,Pavel Chikov,Павел Чиков,1999,80.7,210,97.5,220,527.5,83,SBD,Raw,Sub-Juniors,M,
3,Nikita Genze,Никита Гензе,1997,81.65,175,122.5,190,487.5,83,SBD,Raw,Sub-Juniors,M,
4,Nikita Sementsov,Никита Семенцов,1999,76.45,140,87.5,185,412.5,83,SBD,Raw,Sub-Juniors,M,
5,Ivan Grudinkin,Иван Грудинкин,1999,75.95,130,97.5,135,362.5,83,SBD,Raw,Sub-Juniors,M,
DQ,Anton Nekrasov,Антон Некрасов,1998,77.05,160,110,-190,,83,SBD,Raw,Sub-Juniors,M,
DQ,Aleksandr Solovov,Александр Соловов,1997,82.15,165,95,-200,,83,SBD,Raw,Sub-Juniors,M,
1,Andrey Moiseev,Андрей Моисеев,1998,92.3,240,155,240,635,93,SBD,Raw,Sub-Juniors,M,
2,Denis Shalimov,Денис Шалимов,1997,90.5,220,155,220,595,93,SBD,Raw,Sub-Juniors,M,
3,Vitaliy Kalnoy,Виталий Кальной,1997,86.85,205,135,215,555,93,SBD,Raw,Sub-Juniors,M,
4,Ilya Mayorov,Илья Майоров,1998,91.8,155,90,182.5,427.5,93,SBD,Raw,Sub-Juniors,M,
1,Dmitriy Gadzhiev,Дмитрий Гаджиев,1997,94.55,190,140,255,585,105,SBD,Raw,Sub-Juniors,M,
2,Nikolay Panin,Николай Панин,1998,104.2,225,140,220,585,105,SBD,Raw,Sub-Juniors,M,
3,Sergey Esaulov,Сергей Эсаулов,1998,97.45,187.5,155,215,557.5,105,SBD,Raw,Sub-Juniors,M,
4,Denis Shevtsov,Денис Шевцов,1998,95.85,175,125,215,515,105,SBD,Raw,Sub-Juniors,M,
5,Nikita Sivkov,Никита Сивков,1999,104.15,180,110,200,490,105,SBD,Raw,Sub-Juniors,M,
1,Aleksey Chapaev,Алексей Чапаев,1997,117.25,220,135,225,580,120,SBD,Raw,Sub-Juniors,M,
2,Ilya Tarasov,Илья Тарасов,1997,116.45,205,122.5,225,552.5,120,SBD,Raw,Sub-Juniors,M,
3,Pavel Prutsakov,Павел Пруцаков,1997,111.65,202.5,140,205,547.5,120,SBD,Raw,Sub-Juniors,M,
4,Ivan Kotenok,Иван Котенок,1999,110.55,190,120,200,510,120,SBD,Raw,Sub-Juniors,M,
1,Aleksandr Dmitriev,Александр Дмитриев,1997,147.2,260,110,220,590,120+,SBD,Raw,Sub-Juniors,M,
2,Stanislav Pogorelko,Станислав Погорелко,1997,129.55,150,135,180,465,120+,SBD,Raw,Sub-Juniors,M,
1,Artyom Komarov,Артём Комаров,1996,52.9,105,67.5,115,287.5,53,SBD,Raw,Juniors,M,
1,Evgeniy Balgurin,Евгений Балгурин,1996,64.9,125,100,165,390,66,SBD,Raw,Juniors,M,
1,Aleksey Nikulin #3,Алексей Никулин,1996,72.25,215,135,225,575,74,SBD,Raw,Juniors,M,
2,Evgeniy Kopyryulin,Евгений Копырюлин,1992,74,187.5,140,225,552.5,74,SBD,Raw,Juniors,M,
3,Sergey Tsyupko,Сергей Цюпко,1996,72.05,190,120,217.5,527.5,74,SBD,Raw,Juniors,M,
4,Pavel Gladkov,Павел Гладков,1995,72.95,175,112.5,195,482.5,74,SBD,Raw,Juniors,M,
1,Evgeniy Ryabchikov,Евгений Рябчиков,1993,82.4,245,130,300,675,83,SBD,Raw,Juniors,M,
2,Denis Nesterov,Денис Нестеров,1996,80.25,215,132.5,260,607.5,83,SBD,Raw,Juniors,M,
3,Aleksey Boldyrev,Алексей Болдырев,1993,78,200,140,220,560,83,SBD,Raw,Juniors,M,
4,Georgiy Shanin,Георгий Шанин,1994,76.85,115,80,150,345,83,SBD,Raw,Juniors,M,
1,Andrey Kharitov,Андрей Харитов,1995,90.85,210,130,250,590,93,SBD,Raw,Juniors,M,
2,Valentin Efremov,Валентин Ефремов,1996,86.4,200,135,225,560,93,SBD,Raw,Juniors,M,
1,Dmitriy Moshnin,Дмитрий Мошнин,1995,93.15,200,140,225,565,105,SBD,Raw,Juniors,M,
1,Pavel Grudinin,Павел Грудинин,1995,117.9,257.5,145,275,677.5,120,SBD,Raw,Juniors,M,
1,Egor Pogodin,Егор Погодин,1994,133.5,310,210,290,810,120+,SBD,Raw,Juniors,M,
