Division,WeightClassKg,Place,Name,Team,BodyweightKg,Best3SquatKg,Best3BenchKg,Best3DeadliftKg,TotalKg,Equipment,Event,Sex,BirthDate
Girls,47.85,1,Geneva Reyes,Kyle Lehman,47.81,104.33,49.9,113.4,267.62,Single-ply,SBD,F,
Girls,47.85,2,Nexi Gutierrez,Kyle Lehman,47.45,92.99,43.09,104.33,240.4,Single-ply,SBD,F,
Girls,47.85,3,Valerie Garza,Kyle Lehman,47.72,72.57,40.82,79.38,192.78,Single-ply,SBD,F,
Girls,51.94,1,Rylie Dlouhy,Taylor,51.53,113.4,65.77,122.47,301.64,Single-ply,SBD,F,
Girls,51.94,2,Eviana Castillo,Kyle Lehman,51.26,104.33,49.9,104.33,258.55,Single-ply,SBD,F,
Girls,51.94,3,Kaylynn Martin,San Marcos,50.53,88.45,52.16,106.59,247.21,Single-ply,SBD,F,
Girls,51.94,4,McKeanne Saenz,San Marcos,50.89,92.99,47.63,97.52,238.14,Single-ply,SBD,F,
Girls,56.02,1,Ximena Castillo,Kyle Lehman,55.16,133.81,54.43,136.08,324.32,Single-ply,SBD,F,
Girls,56.02,2,Mia Rodriguez,Taylor,55.88,124.74,65.77,133.81,324.32,Single-ply,SBD,F,
Girls,56.02,3,Jasmine Jaimes,Kyle Lehman,53.89,136.08,52.16,124.74,312.98,Single-ply,SBD,F,
Girls,56.02,4,Gabriella Medellin,San Marcos,54.61,133.81,56.7,122.47,312.98,Single-ply,SBD,F,
Girls,56.02,5,Lisette Sabillon,San Marcos,55.34,115.67,56.7,136.08,308.44,Single-ply,SBD,F,
Girls,56.02,6,Leanna Lopez,San Marcos,55.16,74.84,31.75,77.11,183.7,Single-ply,SBD,F,
Girls,60.1,1,Valeria Barrera,Kyle Lehman,59.24,97.52,49.9,115.67,263.08,Single-ply,SBD,F,
Girls,60.1,2,Aaliyah Belcher,Taylor,57.42,95.25,52.16,108.86,256.28,Single-ply,SBD,F,
Girls,60.1,3,Ahjalei Davis,Taylor,60.06,90.72,52.16,102.06,244.94,Single-ply,SBD,F,
Girls,60.1,DQ,Victoria Gutierrez,San Marcos,58.69,,,,,Single-ply,SBD,F,
Girls,60.1,DQ,Katalina Postert,San Marcos,57.88,90.72,,,,Single-ply,SBD,F,
Girls,67.36,DQ,Maggie Ryines,Taylor,65.32,,,,,Single-ply,SBD,F,
Girls,67.36,DQ,Vanessa Rodriguez,San Marcos,67.04,,,,,Single-ply,SBD,F,
Girls,67.36,DQ,Bethany Robles,Taylor,60.51,97.52,,,,Single-ply,SBD,F,
Girls,75.07,1,Aniya Gutierrez,Kyle Lehman,74.48,142.88,81.65,117.93,342.46,Single-ply,SBD,F,
Girls,75.07,2,Laisha Perez,Kyle Lehman,69.49,124.74,65.77,133.81,324.32,Single-ply,SBD,F,
Girls,75.07,3,America Rojas,Taylor,69.31,102.06,54.43,117.93,274.42,Single-ply,SBD,F,
Girls,90.04,1,Abby Adame,Kyle Lehman,88.63,163.29,81.65,161.03,405.97,Single-ply,SBD,F,
Girls,90.04,2,Ashley Moreno,Kyle Lehman,88.54,113.4,65.77,129.27,308.44,Single-ply,SBD,F,
Girls,100.02,1,J'Lyssa Gonzales,San Marcos,90.99,163.29,83.91,156.49,403.7,Single-ply,SBD,F,
Girls,100.02,2,Ezra Mendez,San Marcos,94.17,151.95,72.57,158.76,383.29,Single-ply,SBD,F,
