Place,WeightClassKg,Tested,Sex,Event,Equipment,Name,CyrillicName,Division,BirthDate,BirthYear,BodyweightKg,Team,Squat1Kg,Squat2Kg,Squat3Kg,Best3SquatKg,Squat4Kg,Bench1Kg,Bench2Kg,Bench3Kg,Best3BenchKg,Bench4Kg,Deadlift1Kg,Deadlift2Kg,Deadlift3Kg,Best3DeadliftKg,Deadlift4Kg,TotalKg
1,44,Yes,F,SBD,Wraps,Ekaterina Romanova,Екатерина Романова,Amateur Teen 18-19,1990-08-28,,44,Преображение,55,-60,-60,55,,35,40,-45,40,,60,75,85,85,,180
1,48,Yes,F,SBD,Wraps,Natalya Aksyonova,Наталья Аксёнова,Amateur Open,1985-11-23,,46.7,Эдем,-60,70,-77.5,70,,40,-42.5,-45,40,,72.5,-87.5,-87.5,72.5,,182.5
1,52,Yes,F,SBD,Wraps,Yuliya Dmitrieva,Юлия Дмитриева,Amateur Open,1983-12-02,,51.7,Pro Fitness,55,60,-65,60,,35,-40,,35,,65,70,75,75,,170
1,56,Yes,F,SBD,Wraps,Lyubov Chemezova,Любовь Чемезова,Amateur Open,1986-02-04,,56,Екатеринбург,50,55,60,60,,30,35,-37.5,35,,60,70,-77.5,70,,165
1,67.5,Yes,F,SBD,Wraps,Alyona Sokolova,Алёна Соколова,Amateur Open,1978-09-02,,64.8,Преображение,85,95,100,100,,67.5,-72.5,-72.5,67.5,,110,125,132.5,132.5,,300
1,82.5,Yes,F,SBD,Wraps,Mariya Uporova,Мария Упорова,Amateur Teen 16-17,1993-09-22,,76.1,Талица,105,-110,,105,,55,60,62.5,62.5,,115,120,-125,120,,287.5
1,52,Yes,M,SBD,Wraps,Pavel Rushentsev,Павел Рушенцев,Amateur Teen 13-15,1994-11-11,,49.95,Асбест,70,75,80,80,,50,55,-60,55,,95,102.5,105,105,,240
1,52,Yes,M,SBD,Wraps,Denis Matveev,Денис Матвеев,Amateur Teen 16-17,1992-12-24,,49.1,Талица,95,100,,100,,-60,-60,60,60,,110,115,-120,115,,275
1,52,Yes,M,SBD,Wraps,Vitaliy Matveev,Виталий Матвеев,Amateur Teen 18-19,1991-07-25,,45.85,Талица,85,90,95,95,,55,-60,-60,55,,115,125,-130,125,,275
1,60,Yes,M,SBD,Wraps,Stepan Kocheshkov,Степан Кочешков,Amateur Teen 13-15,1994-04-29,,59.3,Талица,90,100,105,105,,60,65,70,70,,140,-145,145,145,,320
1,60,Yes,M,SBD,Wraps,Ivan Volkov,Иван Волков,Amateur Teen 16-17,1992-09-15,,59.2,Талица,-100,105,110,110,,90,95,-100,95,,130,145,-152.5,145,,350
1,67.5,Yes,M,SBD,Wraps,Konstantin Sidenkov,Константин Сиденков,Amateur Masters 40-44,1967-10-30,,65.55,Pro Fitness,100,-105,-105,100,,100,105,110,110,,120,130,140,140,,350
1,67.5,Yes,M,SBD,Wraps,Aleksandr Yatmanov,Александр Ятманов,Amateur Masters 45-49,1964-07-05,,67.15,Екатеринбург,170,175,-182.5,175,,105,110,-115,110,,170,,,170,,455
1,67.5,Yes,M,SBD,Wraps,Elmakhdi Ali Valid,Эльмахди Али Валид,Amateur Open,1979-06-07,,67.3,Эдем,-145,145,-155,145,,100,110,-115,110,,150,160,170,170,,425
1,67.5,Yes,M,SBD,Wraps,Stanislav Badretdinov,Станислав Бадретдинов,Amateur Teen 13-15,1994-10-01,,66.55,Талица,105,110,-115,110,,-60,65,70,70,,130,135,-140,135,,315
2,67.5,Yes,M,SBD,Wraps,Evgeniy Vdovkin,Евгений Вдовкин,Amateur Teen 13-15,1994-08-04,,65.4,Талица,110,-120,122.5,122.5,,60,-62.5,65,65,,110,120,-130,120,,307.5
1,67.5,Yes,M,SBD,Wraps,Pavel Shvetsov,Павел Швецов,Amateur Teen 18-19,1990-03-15,,67.2,Свердловская область,170,180,-185,180,,105,-115,120,120,,210,220,225,225,-230,525
1,75,Yes,M,SBD,Wraps,Dmitriy Malchenko,Дмитрий Мальченко,Amateur Juniors 20-23,1990-01-11,,72.35,ДЮСШ №19,130,140,145,145,,105,110,112.5,112.5,,165,172.5,180,180,,437.5
1,75,Yes,M,SBD,Wraps,Mikhail Manyugin,Михаил Манюгин,Amateur Masters 40-44,1969-07-10,,72.9,Красноуфимск,-135,145,155,155,,95,105,-112.5,105,,190,210,-230,210,,470
1,75,Yes,M,SBD,Wraps,Sergey Vedernikov,Сергей Ведерников,Amateur Teen 13-15,1994-03-03,,72.1,Талица,-115,115,122.5,122.5,,70,75,80,80,,140,145,,145,,347.5
2,75,Yes,M,SBD,Wraps,Mikhail Sidenkov,Михаил Сиденков,Amateur Teen 13-15,1994-05-05,,74.5,Pro Fitness,95,100,-105,100,,80,85,-90,85,,110,120,125,125,,310
1,82.5,Yes,M,SBD,Wraps,Artyom Akhkyamov,Артём Ахкямов,Amateur Juniors 20-23,1986-09-01,,81.25,Челябинская область,170,-180,180,180,,110,115,-120,115,,190,-227.5,-227.5,190,,485
2,82.5,Yes,M,SBD,Wraps,Vitaliy Alyoshin,Виталий Алёшин,Amateur Juniors 20-23,1987-10-16,,79.9,Эдем,-110,-110,110,110,,75,80,-85,80,,120,127.5,135,135,,325
1,82.5,Yes,M,SBD,Wraps,Konstantin Bazhin,Константин Бажин,Amateur Masters 40-44,1967-07-26,,76.4,Преображение,-95,95,100,100,,90,95,-100,95,,150,160,170,170,,365
1,82.5,Yes,M,SBD,Wraps,Valentin Shchapov,Валентин Щапов,Amateur Open,1979-02-23,,82.15,Berman Team,160,170,-175,170,,125,130,-135,130,,170,177.5,180,180,,480
2,82.5,Yes,M,SBD,Wraps,Konstantin Yushkov,Константин Юшков,Amateur Submasters 33-39,1974-06-08,,79.2,Факел,150,160,-170,160,,-135,-135,135,135,,170,180,-190,180,,475
3,82.5,Yes,M,SBD,Wraps,Ivan Shlykov,Иван Шлыков,Amateur Open,1981-04-30,,78.9,Асбест,95,100,105,105,,100,105,110,110,,145,150,155,155,,370
1,82.5,Yes,M,SBD,Wraps,Ivan Sidorov,Иван Сидоров,Amateur Teen 13-15,1994-02-22,,77.45,Челябинская область,140,150,155,155,,80,90,-95,90,,155,165,170,170,,415
1,82.5,Yes,M,SBD,Wraps,Yuriy Kobelyov,Юрий Кобелёв,Amateur Teen 16-17,1993-06-16,,82.45,Талица,110,120,-130,120,,80,85,-90,85,,160,170,-180,170,,375
1,90,Yes,M,SBD,Wraps,Denis Ishmukhametov,Денис Ишмухаметов,Amateur Juniors 20-23,1987-06-07,,87.95,Челябинская область,175,185,190,190,,110,115,-120,115,,210,242.5,,242.5,,547.5
2,90,Yes,M,SBD,Wraps,Stepan Babin,Степан Бабин,Amateur Juniors 20-23,1986-06-27,,84.5,Преображение,-110,110,120,120,,75,82.5,-90,82.5,,130,155,-172.5,155,,357.5
1,90,Yes,M,SBD,Wraps,Aleksey Kharauzov,Алексей Хараузов,Amateur Submasters 33-39,1973-10-25,,89.5,Атомная Сила,220,230,240,240,,180,192.5,-200,192.5,,240,260,267.5,267.5,,700
2,90,Yes,M,SBD,Wraps,Sergey Nechaev,Сергей Нечаев,Amateur Submasters 33-39,1971-07-20,,88.9,Спарта,180,,,180,,140,147.5,-152.5,147.5,,190,205,,205,,532.5
3,90,Yes,M,SBD,Wraps,Nikita Burkov,Никита Бурков,Amateur Open,1984-08-23,,87.4,Факел,-130,135,140,140,,105,110,115,115,,160,170,-172.5,170,,425
DQ,90,Yes,M,SBD,Wraps,Leonid Okorokov,Леонид Окороков,Amateur Open,1982-07-11,,86.3,Екатеринбург,-180,,,,,-130,,,,,-200,,,,,
DQ,90,Yes,M,SBD,Wraps,Vasiliy Shlykov,Василий Шлыков,Amateur Open,1980-02-22,,88.2,Екатеринбург,-150,-160,-160,,,-110,,,,,-180,,,,,
DQ,90,Yes,M,SBD,Wraps,Sergey Shlyapnikov,Сергей Шляпников,Amateur Open,1978-08-24,,89.4,Свердловская область,-170,,,,,-90,,,,,-170,,,,,
1,100,Yes,M,SBD,Wraps,Alexey Kuzmin,Алексей Кузьмин,Amateur Open,1980-08-31,,95.8,Факел,230,240,-250,240,,-160,-160,160,160,,220,-230,,220,,620
2,100,Yes,M,SBD,Wraps,Anton Lapin,Антон Лапин,Amateur Open,1985-03-16,,99.45,ДЮСШ №19,165,-172.5,172.5,172.5,,135,142.5,-145,142.5,,210,217.5,222.5,222.5,,537.5
1,100,Yes,M,SBD,Wraps,Evgeniy Talinkin,Евгений Талинкин,Amateur Teen 13-15,1995-01-09,,93.05,Талица,-125,130,135,135,,60,65,70,70,,145,,,145,,350
1,100,Yes,M,SBD,Wraps,Stanislav Moskalenko,Станислав Москаленко,Amateur Teen 16-17,1992-11-13,,99.4,Оренбургская область,200,220,230,230,,150,160,170,170,,200,230,-250,230,,630
DQ,100,Yes,M,SBD,Wraps,Roman Abramushkin,Роман Абрамушкин,Amateur Teen 16-17,1992-03-04,,94.85,Екатеринбург,-110,-115,-115,,,-125,,,,,-160,,,,,
DQ,110,Yes,M,SBD,Wraps,Ilya Nalimov,Илья Налимов,Amateur Juniors 20-23,1988-03-03,,108.15,ДЮСШ №19,-200,-202.5,-210,,,-145,,,,,-210,,,,,
1,110,Yes,M,SBD,Wraps,Samat Aytmagametov,Самат Айтмагаметов,Amateur Open,1984-05-16,,103.4,Оренбургская область,160,165,170,170,,-150,155,165,165,,-180,200,-210,200,,535
2,110,Yes,M,SBD,Wraps,Sergey Permyakov,Сергей Пермяков,Amateur Open,1981-12-19,,101.05,Преображение,140,150,157.5,157.5,,105,-115,-115,105,,150,170,185,185,,447.5
1,44,Yes,F,SBD,Multi-ply,Olga Nazemnova,Ольга Наземнова,Amateur Teen 13-15,1997-01-24,,28.7,Алапаевск,30,35,40,40,,25,27.5,,27.5,,35,40,45,45,,112.5
1,52,Yes,F,SBD,Multi-ply,Nadezhda Reutova,Надежда Реутова,Amateur Teen 16-17,1993-01-30,,52,Атомная Сила,-90,90,-110,90,,50,52.5,55,55,,100,110,-120,110,,255
1,56,Yes,F,SBD,Multi-ply,Yuliya Ermakova,Юлия Ермакова,Amateur Teen 13-15,1994-03-18,,54.6,Алапаевск,-85,85,95,95,-100.5,37.5,40,-45,40,,90,97.5,105,105,,240
1,56,Yes,F,SBD,Multi-ply,Anastasia Ladygina,Анастасия Ладыгина,Amateur Teen 18-19,1990-09-25,,54.8,Атомная Сила,-100,100,110,110,,50,55,-60,55,,100,110,120,120,,285
1,52,Yes,M,SBD,Multi-ply,Denis Prokhorov,Денис Прохоров,Amateur Youth,1997-07-01,,38.55,Рефтинский,55,60,65,65,,30,-35,-35,30,,55,65,70,70,,165
1,52,Yes,M,SBD,Multi-ply,Sergey Nikolaev,Сергей Николаев,Amateur Teen 16-17,1994-02-02,,51.8,Рефтинский,100,110,-115,110,,50,55,57.5,57.5,,100,110,117.5,117.5,,285
1,56,Yes,M,SBD,Multi-ply,Nikita Telegin,Никита Телегин,Amateur Teen 13-15,1995-02-01,,55.55,Алапаевск,-160,160,180,180,,97.5,105,-112.5,105,,150,-165,165,165,,450
1,56,Yes,M,SBD,Multi-ply,Vitaliy Mikhin,Виталий Михин,Amateur Teen 16-17,1993-11-12,,55.9,Атомная Сила,150,160,170,170,,95,100,-105,100,,170,192.5,,192.5,,462.5
2,56,Yes,M,SBD,Multi-ply,Yuriy Chulkov,Юрий Чулков,Amateur Teen 16-17,1992-04-30,,55.65,Рефтинский,-125,125,-135,125,,75,80,,80,,125,130,135,135,,340
1,60,Yes,M,SBD,Multi-ply,Aleksandr Sergeev #5,Александр Сергеев,Amateur Teen 18-19,,,56.95,Реж,130,-160,-160,130,,90,95,-100,95,,-150,150,-160,150,,375
1,67.5,Yes,M,SBD,Multi-ply,Andrey Kadochnikov,Андрей Кадочников,Amateur Juniors 20-23,1988-10-14,,66.05,Асбест,215,232.5,-240,232.5,,115,-132.5,132.5,132.5,,205,220,-227.5,220,,585
1,67.5,Yes,M,SBD,Multi-ply,Viktor Orlov,Виктор Орлов,Amateur Teen 16-17,1993-02-13,,64.95,Асбест,155,-167.5,167.5,167.5,,95,-100,100,100,,-170,170,192.5,192.5,,460
DQ,67.5,Yes,M,SBD,Multi-ply,Aleksandr Solodovnikov,Александр Солодовников,Amateur Teen 18-19,1991-05-30,,66.4,Тюменская область,-205,-215,-220,,,-115,,,,,-190,,,,,
1,75,Yes,M,SBD,Multi-ply,Evgeniy Chayka,Евгений Чайка,Amateur Teen 18-19,1990-02-19,,74.7,Реж,220,240,-252.5,240,,100,140,157.5,157.5,,190,-202.5,-202.5,190,,587.5
DQ,82.5,Yes,M,SBD,Multi-ply,Dmitriy Dmitriev #4,Дмитрий Дмитриев,Amateur Open,1982-09-05,,80.9,Pro Fitness,-210,-210,-210,,,-130,,,,,-205,,,,,
1,82.5,Yes,M,SBD,Multi-ply,Sergey Glazkov,Сергей Глазков,Amateur Teen 16-17,1992-07-11,,81.85,Рефтинский,225,240,-245,240,,125,135,140,140,,190,200,-205,200,,580
1,90,Yes,M,SBD,Multi-ply,Oleg Gasanov,Олег Гасанов,Amateur Open,1984-09-29,,87.85,Оренбургская область,240,-260,-260,240,,-140,140,-150,140,,180,-222.5,,180,,560
1,100,Yes,M,SBD,Multi-ply,Vasiliy Shtokolok,Василий Штоколок,Amateur Juniors 20-23,1988-05-23,,93.45,Алапаевск,150,165,-175,165,,120,130,135,135,,150,170,185,185,,485
DQ,100,Yes,M,SBD,Multi-ply,Aleksandr Chuev,Александр Чуев,Amateur Masters 40-44,1966-01-01,,98.8,Асбест,-345,-345,-370,,,-190,,,,,-280,,,,,
1,67.5,No,F,SBD,Wraps,Marina Medvedeva,Марина Медведева,Pro Submasters 33-39,1974-09-05,,64.55,Три Икс,120,130,140,140,,90,100,,100,,130,140,150,150,,390
1,52,No,M,SBD,Wraps,Valentin Bondarchuk,Валентин Бондарчук,Pro Teen 13-15,1995-11-08,,47.35,Оренбургская область,-80,80,90,90,,40,42.5,45,45,,80,95,100,100,,235
1,56,No,M,SBD,Wraps,Aleksandr Proknovskiy,Александр Прокновский,Pro Teen 13-15,1994-05-20,,55.6,Атомная Сила,70,-80,-90,70,,55,-60,-60,55,,110,120,-127.5,120,,245
1,67.5,No,M,SBD,Wraps,Vladimir Ustinov,Владимир Устинов,Pro Juniors 20-23,1986-03-16,,67.5,Атомная сила,190,200,-205.5,200,,130,-140.5,145,145,,200,215.5,220,220,225,565
1,90,No,M,SBD,Wraps,Valeriy Rusinov,Валерий Русинов,Pro Juniors 20-23,1986-04-27,,88.05,Ревда,170,180,190,190,,130,140,142.5,142.5,,220,-235,,220,,552.5
1,90,No,M,SBD,Wraps,Andrey Solovyov,Андрей Соловьёв,Pro Submasters 33-39,1972-11-05,,85.3,Pro Fitness,170,175,-180,175,,135,-140,-140,135,,-230,230,240,240,,550
1,100,No,M,SBD,Wraps,Dmitriy Nazarov,Дмитрий Назаров,Pro Juniors 20-23,1987-07-29,,99.1,Ревда,190,205,220,220,,145,155,162.5,162.5,,190,210,222.5,222.5,,605
1,100,No,M,SBD,Wraps,Aleksandr Babkin,Александр Бабкин,Pro Masters 50-54,1955-02-23,,94,Каменск-Уральский,-155,155,-172.5,155,,120,125,-130,125,,170,-190,190,190,,470
1,100,No,M,SBD,Wraps,Igor Zhemelinskikh,Игорь Жемелинских,Pro Open,1979-10-29,,97.9,Тюменская область,220,235,-242.5,235,,200,-205,,200,,170,200,230,230,,665
2,100,No,M,SBD,Wraps,Aleksandr Merkurev,Александр Меркурьев,Pro Open,1985-12-01,,100,Пермский край,-190,-200,200,200,,125,135,140,140,,230,-235,,230,,570
DQ,110,No,M,SBD,Wraps,Aleksandr Fedulov,Александр Федулов,Pro Masters 40-44,1966-10-01,,102.95,Факел,225,-240,,225,,-180,,,,,-240,,,,,
1,125,No,M,SBD,Wraps,Valeriy Bekker,Валерий Беккер,Pro Open,1980-12-07,,112.6,Ревда,-255,-255,260,260,,190,200,207.5,207.5,,285,300,305,305,,772.5
1,52,No,M,SBD,Multi-ply,Ilya Zubakin,Илья Зубакин,Pro Teen 13-15,1996-10-15,,49.15,Атомная Сила,-75,-75,75,75,,42.5,50,-52.5,50,,70,85,100,100,,225
1,56,No,M,SBD,Multi-ply,Artyom Filimonov,Артём Филимонов,Pro Teen 13-15,1994-04-05,,55.25,Атомная Сила,75,90,-105,90,,55,-62.5,62.5,62.5,,110,120,-135,120,,272.5
1,56,No,M,SBD,Multi-ply,Andrey Kudinov,Андрей Кудинов,Pro Teen 18-19,1992-02-05,,55.25,Оренбургская область,110,-130,-135,110,,70,-80,-80,70,,110,135,-145,135,,315
1,60,No,M,SBD,Multi-ply,Aleksandr Petukhov,Александр Петухов,Pro Teen 13-15,1994-04-01,,59.5,Каменск-Уральский,150,162.5,-172.5,162.5,,90,97.5,102.5,102.5,,162.5,172.5,-185,172.5,,437.5
1,67.5,No,M,SBD,Multi-ply,Denis Kachusov,Денис Качусов,Pro Teen 13-15,1995-02-16,,60.7,Каменск-Уральский,140,155,167.5,167.5,,80,90,95,95,,-150,150,170.5,170.5,,433
DQ,75,No,M,SBD,Multi-ply,Ivan Frolov,Иван Фролов,Pro Open,1984-02-17,,73.85,ХМАО,-200,,200,200,,130,-137.5,-140,130,,-190,-192.5,-192.5,,,
1,75,No,M,SBD,Multi-ply,Valeriy Chernetsov,Валерий Чернецов,Pro Teen 18-19,1992-02-06,,73,Свердловская область,190,-200,-200,190,,95,-100,-100,95,,-180,-180,180,180,,465
2,75,No,M,SBD,Multi-ply,Andrey Kokorin,Андрей Кокорин,Pro Teen 16-17,1993-02-12,,71.6,Атомная Сила,160,-170,-170,160,,85,-90,-90,85,,-160,160,,160,,405
1,82.5,No,M,SBD,Multi-ply,Evgeniy Bondarenko,Евгений Бондаренко,Pro Juniors 20-23,1989-07-12,,82.1,Свердловская область,-180,180,190,190,,100,107.5,-112.5,107.5,,190,215,-225,215,,512.5
1,82.5,No,M,SBD,Multi-ply,Mirambek Aliev,Мирамбек Алиев,Pro Teen 16-17,1993-11-01,,78.8,Оренбургская область,-150,150,170,170,,-95,-95,95,95,,150,-170,-170,150,,415
1,90,No,M,SBD,Multi-ply,Vladimir Kopchuk,Владимир Копчук,Pro Masters 50-54,1957-03-23,,86.6,Три Икс,220,-240,250,250,,-145,-145,145,145,155,200,-220,220,220,235,615
1,90,No,M,SBD,Multi-ply,Anton Borodin,Антон Бородин,Pro Open,1983-06-09,,86.75,Pro Fitness,240,245,250,250,,170,-177.5,177.5,177.5,,250,260,270,270,,697.5
2,90,No,M,SBD,Multi-ply,Vladimir Kopchuk,Владимир Копчук,Pro Open,1957-03-23,,86.6,Три Икс,220,-240,250,250,,-145,-145,145,145,,200,-220,220,220,,615
1,100,No,M,SBD,Multi-ply,Dmitriy Chertushkin,Дмитрий Чертушкин,Pro Masters 40-44,1965-08-15,,99.95,ДЮСШ №19,-230,235,,235,,190,,,190,,200,215,,215,,640
1,100,No,M,SBD,Multi-ply,Aleksey Kozlov #1,Алексей Козлов,Pro Submasters 33-39,1970-05-19,,98.35,Атомная Сила,320,350,-380,350,,210,220,230,230,,280,310,-330,310,,890
1,140+,No,M,SBD,Multi-ply,Nikolay Vinokurov,Николай Винокуров,Pro Masters 40-44,1966-01-05,,143.15,Асбест,280,320,360,360,,220,-260,-260,220,,280,310,330,330,,910
1,48,Yes,F,B,Raw,Olga Isakova,Ольга Исакова,Amateur Open,1994-07-20,,48,Преображение,,,,,,52.5,55,-57.5,55,,,,,,,55
2,48,Yes,F,B,Raw,Roza Ovechkina,Роза Овечкина,Amateur Open,1980-06-24,,46.95,Berman Team,,,,,,42.5,47.5,50,50,,,,,,,50
1,48,Yes,F,B,Raw,Olga Isakova,Ольга Исакова,Amateur Teen 13-15,1994-07-20,,48,Преображение,,,,,,52.5,55,-57.5,55,,,,,,,55
1,52,Yes,F,B,Raw,Zhanna Dorokhina,Жанна Дорохина,Amateur Masters 40-44,1968-11-11,,52,Спарта,,,,,,37.5,40,-42.5,40,,,,,,,40
1,52,Yes,F,B,Raw,Mariya Dyukova,Мария Дюкова,Amateur Open,1984-06-18,,51.05,Berman Team,,,,,,-55,60,-62.5,60,,,,,,,60
2,52,Yes,F,B,Raw,Olga Lebedeva,Ольга Лебедева,Amateur Submasters 33-39,1971-07-20,,50.35,Курганская область,,,,,,50,-52.5,-52.5,50,,,,,,,50
1,56,Yes,F,B,Raw,Elena Averyanova,Елена Аверьянова,Amateur Open,1981-04-10,,52.25,Berman Team,,,,,,35,-40,42.5,42.5,,,,,,,42.5
1,60,Yes,F,B,Raw,Irina Berman,Ирина Берман,Amateur Submasters 33-39,1975-05-06,,58.45,Berman Team,,,,,,65,-70,-70,65,,,,,,,65
2,60,Yes,F,B,Raw,Natalya Ignateva,Наталья Игнатьева,Amateur Submasters 33-39,1976-10-09,,57.3,Олимп,,,,,,-47.5,47.5,50,50,,,,,,,50
1,60,Yes,F,B,Raw,Darya Kashina,Дарья Кашина,Amateur Teen 16-17,1992-04-07,,56.65,Dream Team,,,,,,-45,45,-50,45,,,,,,,45
1,67.5,Yes,F,B,Raw,Evgeniya Volkova,Евгения Волкова,Amateur Juniors 20-23,1987-05-15,,65.85,Екатеринбург,,,,,,-77.5,77.5,-80,77.5,,,,,,,77.5
1,67.5,Yes,F,B,Raw,Larisa Dernova,Лариса Дернова,Amateur Submasters 33-39,1971-02-26,,67.5,УрГМА,,,,,,72.5,-77.5,-77.5,72.5,,,,,,,72.5
1,52,Yes,M,B,Raw,Aleksandr Medvedchuk,Александр Медведчук,Amateur Open,1986-01-01,,51.15,Тюменская область,,,,,,100,105,-110,105,,,,,,,105
2,52,Yes,M,B,Raw,Seyfulla Ramazanov,Сейфулла Рамазанов,Amateur Open,1982-08-25,,51.25,Красноуфимск,,,,,,-90,90,95,95,,,,,,,95
1,52,Yes,M,B,Raw,Maksim Dementev,Максим Дементьев,Amateur Teen 13-15,1995-04-11,,50.1,Атомная Сила,,,,,,60,65,-67.5,65,,,,,,,65
2,52,Yes,M,B,Raw,Kirill Russkikh,Кирилл Русских,Amateur Teen 13-15,1994-06-20,,51.4,Красноуфимск,,,,,,50,57.5,-62.5,57.5,,,,,,,57.5
3,52,Yes,M,B,Raw,Artyom Bulatov,Артём Булатов,Amateur Teen 13-15,1996-02-05,,52,Dream Team,,,,,,-45,45,-50,45,,,,,,,45
1,56,Yes,M,B,Raw,Ivan Kudryavtsev,Иван Кудрявцев,Amateur Teen 16-17,1993-05-18,,56,Курганская область,,,,,,97.5,105,110,110,-115,,,,,,110
1,60,Yes,M,B,Raw,Evgeniy Lizunov,Евгений Лизунов,Amateur Juniors 20-23,1987-08-20,,59.6,Пермский край,,,,,,102.5,-110,110,110,,,,,,,110
1,60,Yes,M,B,Raw,Nikita Menshchikov,Никита Меньщиков,Amateur Open,1983-03-08,,56.95,Dream Team,,,,,,-122.5,122.5,-127.5,122.5,,,,,,,122.5
2,60,Yes,M,B,Raw,Aleksandr Pitukhin,Александр Питухин,Amateur Open,1985-11-29,,59.35,Berman Team,,,,,,90,-100,-100,90,,,,,,,90
1,60,Yes,M,B,Raw,Maksim Nikonov,Максим Никонов,Amateur Teen 13-15,1994-07-14,,56.75,Атомная Сила,,,,,,70,75,-77.5,75,,,,,,,75
1,60,Yes,M,B,Raw,Artyom Fominykh,Артём Фоминых,Amateur Teen 18-19,1991-11-02,,58.2,Преображение,,,,,,80,87.5,-90,87.5,,,,,,,87.5
DQ,60,Yes,M,B,Raw,Viktor Putintsev,Виктор Путинцев,Amateur Teen 18-19,1991-04-05,,59.05,Камышлов,,,,,,-115,-115,-115,,,,,,,,
1,67.5,Yes,M,B,Raw,Sergey Morozov,Сергей Морозов,Amateur Juniors 20-23,1986-05-10,,66.6,Екатеринбург,,,,,,-120,120,-130,120,,,,,,,120
1,67.5,Yes,M,B,Raw,Evgeniy Chernyshov,Евгений Чернышов,Amateur Masters 40-44,1966-10-09,,67.3,Талица,,,,,,105,115,,115,,,,,,,115
1,67.5,Yes,M,B,Raw,Vladimir Stegantsev,Владимир Стеганцев,Amateur Open,1985-07-21,,63.85,Dream Team,,,,,,-130,135,137.5,137.5,,,,,,,137.5
2,67.5,Yes,M,B,Raw,Vil Sakhiulin,Виль Сахиулин,Amateur Open,1977-07-21,,66.6,Три Икс,,,,,,135,137.5,,137.5,,,,,,,137.5
1,67.5,Yes,M,B,Raw,Aleksandr Levkov,Александр Левков,Amateur Teen 13-15,1995-08-01,,61.35,Extreme Fitness Athletics,,,,,,-60,70,80,80,,,,,,,80
2,67.5,Yes,M,B,Raw,Aleksandr Chernykh,Александр Черных,Amateur Teen 13-15,1994-04-22,,66.55,Олимп,,,,,,77.5,80,-82.5,80,,,,,,,80
3,67.5,Yes,M,B,Raw,Nikita Khizyov,Никита Хизёв,Amateur Teen 13-15,1994-03-28,,66.8,Преображение,,,,,,-65,70,75,75,,,,,,,75
4,67.5,Yes,M,B,Raw,Sergey Aymetov,Сергей Айметов,Amateur Teen 13-15,1995-06-14,,63.7,Преображение,,,,,,-60,65,-70,65,,,,,,,65
5,67.5,Yes,M,B,Raw,Aleksandr Silantev,Александр Силантьев,Amateur Teen 13-15,1994-04-05,,60.4,Курганская область,,,,,,55,60,-65,60,,,,,,,60
1,67.5,Yes,M,B,Raw,Evgeniy Mikheev,Евгений Михеев,Amateur Teen 16-17,1992-07-02,,67.05,Berman Team,,,,,,80,85,-90,85,,,,,,,85
1,67.5,Yes,M,B,Raw,Aleksey Opalev,Алексей Опалев,Amateur Teen 18-19,1991-12-21,,66.3,Олимп,,,,,,97.5,102.5,-105,102.5,,,,,,,102.5
1,75,Yes,M,B,Raw,Sergey Poteryaev,Сергей Потеряев,Amateur Juniors 20-23,1987-12-29,,72,Пермский край,,,,,,-150,-150,150,150,157.5,,,,,,150
2,75,Yes,M,B,Raw,Aleksey Lapin,Алексей Лапин,Amateur Juniors 20-23,1986-05-22,,74.1,Асбест,,,,,,140,142.5,145,145,,,,,,,145
3,75,Yes,M,B,Raw,Evgeniy Yunosov,Евгений Юносов,Amateur Juniors 20-23,1987-05-30,,73.95,Екатеринбург,,,,,,125,130,-132.5,130,,,,,,,130
4,75,Yes,M,B,Raw,Vladimir Chashchin,Владимир Чащин,Amateur Juniors 20-23,1986-04-07,,72.4,Красноуфимск,,,,,,120,-125,125,125,,,,,,,125
DQ,75,Yes,M,B,Raw,Andrey Chumakov,Андрей Чумаков,Amateur Masters 45-49,1962-08-23,,75,Ревда,,,,,,-105,-110,-115,,,,,,,,
1,75,Yes,M,B,Raw,Aleksandr Baluev,Александр Балуев,Amateur Masters 50-54,1955-10-18,,73.8,Атомная Сила,,,,,,-120,125,127.5,127.5,,,,,,,127.5
1,75,Yes,M,B,Raw,Igor Dyachenko,Игорь Дьяченко,Amateur Open,1984-08-09,,73.55,Факел,,,,,,145,-155,160,160,,,,,,,160
2,75,Yes,M,B,Raw,Rinat Sultanov,Ринат Султанов,Amateur Open,1984-09-24,,73.95,Berman Team,,,,,,115,120,-125,120,,,,,,,120
3,75,Yes,M,B,Raw,Konstantin Izhikov,Константин Ижиков,Amateur Open,1982-11-27,,67.8,Свердловская область,,,,,,100,110,117.5,117.5,,,,,,,117.5
1,75,Yes,M,B,Raw,Kirill Kondrashov,Кирилл Кондрашов,Amateur Teen 16-17,1992-03-05,,72.6,Преображение,,,,,,115,120,-125,120,,,,,,,120
2,75,Yes,M,B,Raw,Dmitriy Beloglazov,Дмитрий Белоглазов,Amateur Teen 16-17,1993-07-16,,75,Асбест,,,,,,85,92.5,-97.5,92.5,,,,,,,92.5
1,82.5,Yes,M,B,Raw,Andrey Lomaev,Андрей Ломаев,Amateur Juniors 20-23,1987-01-01,,80.65,Сити-Фитнес,,,,,,127.5,132.5,140,140,,,,,,,140
2,82.5,Yes,M,B,Raw,Stanislav Nevezhin,Станислав Невежин,Amateur Juniors 20-23,1988-07-25,,80.9,Berman Team,,,,,,-122.5,125,-132.5,125,,,,,,,125
1,82.5,Yes,M,B,Raw,Aleksey Savosin,Алексей Савосин,Amateur Masters 40-44,1969-03-21,,81,Berman Team,,,,,,135,145,-152.5,145,,,,,,,145
1,82.5,Yes,M,B,Raw,Gennadiy Toporkov,Геннадий Топорков,Amateur Masters 45-49,1961-08-14,,81.75,Богданович,,,,,,110,115,125,125,,,,,,,125
1,82.5,Yes,M,B,Raw,Konstantin Tikhomirov,Константин Тихомиров,Amateur Masters 55-59,1952-07-26,,81.35,Челябинская область,,,,,,130,135,-140,135,,,,,,,135
1,82.5,Yes,M,B,Raw,Eldar Tsoriev,Эльдар Цориев,Amateur Masters 60-64,1946-02-17,,81.7,Факел,,,,,,125,-130,130,130,,,,,,,130
1,82.5,Yes,M,B,Raw,Valter Reyngold,Вальтер Рейнгольд,Amateur Masters 65-69,1942-07-04,,81.7,Berman Team,,,,,,60,70,-75,70,,,,,,,70
1,82.5,Yes,M,B,Raw,Andrey Galayda,Андрей Галайда,Amateur Submasters 33-39,1972-02-07,,82,Сити-Фитнес,,,,,,170,180,-187.5,180,,,,,,,180
2,82.5,Yes,M,B,Raw,Sergey Razzhivin,Сергей Разживин,Amateur Submasters 33-39,1975-05-30,,81.1,Рефтинский,,,,,,152.5,157.5,165,165,,,,,,,165
3,82.5,Yes,M,B,Raw,Nikolay Povalkin,Николай Повалкин,Amateur Open,1984-02-25,,81.6,Сити-Фитнес,,,,,,145,150,-155,150,,,,,,,150
4,82.5,Yes,M,B,Raw,Pyotr Borisov,Пётр Борисов,Amateur Open,1981-08-19,,81.6,Сити-Фитнес,,,,,,142.5,-150,-150,142.5,,,,,,,142.5
5,82.5,Yes,M,B,Raw,Valeriy Kleshnya,Валерий Клешня,Amateur Open,1981-02-21,,80.55,Реж,,,,,,132.5,140,-145,140,,,,,,,140
6,82.5,Yes,M,B,Raw,Nikita Dementev,Никита Дементьев,Amateur Open,1985-07-26,,82.1,Екатеринбург,,,,,,140,-150,-150,140,,,,,,,140
7,82.5,Yes,M,B,Raw,Ivan Demidenko,Иван Демиденко,Amateur Submasters 33-39,1976-12-20,,81.05,Berman Team,,,,,,132.5,137.5,-142.5,137.5,,,,,,,137.5
8,82.5,Yes,M,B,Raw,Pavel Shukshin,Павел Шукшин,Amateur Open,1980-08-03,,82.05,Асбест,,,,,,130,-132.5,-132.5,130,,,,,,,130
9,82.5,Yes,M,B,Raw,Vadim Zabrodin,Вадим Забродин,Amateur Open,1981-01-05,,76.9,Три Икс,,,,,,90,100,-110,100,,,,,,,100
DQ,82.5,Yes,M,B,Raw,Leonid Yakovlev,Леонид Яковлев,Amateur Open,1985-11-03,,81.3,Факел,,,,,,-150,-155,,,,,,,,,
1,82.5,Yes,M,B,Raw,Vladislav Yachnik,Владислав Ячник,Amateur Teen 13-15,1995-08-13,,78.95,Berman Team,,,,,,-70,70,-75,70,,,,,,,70
1,82.5,Yes,M,B,Raw,Nikita Rezitskiy,Никита Резицкий,Amateur Teen 16-17,1993-03-25,,80.3,Красноуфимск,,,,,,125,135,-150,135,,,,,,,135
2,82.5,Yes,M,B,Raw,Aleksandr Vasilev,Александр Васильев,Amateur Teen 16-17,1992-09-12,,75.35,Свердловская область,,,,,,110,115,122.5,122.5,,,,,,,122.5
3,82.5,Yes,M,B,Raw,Aleksey Pyanov,Алексей Пьянов,Amateur Teen 16-17,1992-11-26,,77.35,Асбест,,,,,,105,110,-115,110,115,,,,,,110
4,82.5,Yes,M,B,Raw,Viktor Glazkov,Виктор Глазков,Amateur Teen 16-17,1994-02-09,,79.6,Атомная Сила,,,,,,105,110,115,115,,,,,,,115
5,82.5,Yes,M,B,Raw,Kirill Melkozyorov,Кирилл Мелкозёров,Amateur Teen 16-17,1993-03-02,,76.2,Dream Team,,,,,,95,100,105,105,,,,,,,105
1,82.5,Yes,M,B,Raw,Roman Suntsov,Роман Сунцов,Amateur Teen 18-19,1991-09-14,,80.6,Екатеринбург,,,,,,105,-110,112.5,112.5,,,,,,,112.5
2,82.5,Yes,M,B,Raw,Argush Karapetyan,Аргуш Карапетян,Amateur Teen 18-19,1991-10-20,,80.1,Berman Team,,,,,,-100,102.5,110,110,,,,,,,110
1,90,Yes,M,B,Raw,Sergey Plakhotin,Сергей Плахотин,Amateur Juniors 20-23,1986-11-09,,89.05,Сити-Фитнес,,,,,,150,-157.5,157.5,157.5,165,,,,,,157.5
2,90,Yes,M,B,Raw,Vyacheslav Beltyukov,Вячеслав Бельтюков,Amateur Juniors 20-23,1987-09-09,,88.6,Екатеринбург,,,,,,135,140,-145,140,,,,,,,140
3,90,Yes,M,B,Raw,Vitaliy Tikhonov,Виталий Тихонов,Amateur Juniors 20-23,1988-10-15,,89.2,ДЮСШ №19,,,,,,132.5,137.5,-142.5,137.5,,,,,,,137.5
4,90,Yes,M,B,Raw,Andrey Gorelov,Андрей Горелов,Amateur Juniors 20-23,1986-05-03,,88.7,Berman Team,,,,,,110,120,125,125,,,,,,,125
5,90,Yes,M,B,Raw,Aleksey Sobolev,Алексей Соболев,Amateur Juniors 20-23,1986-05-20,,89.7,Эдем,,,,,,-120,125,-137.5,125,,,,,,,125
1,90,Yes,M,B,Raw,Pavel Galayda,Павел Галайда,Amateur Masters 40-44,1968-06-03,,89.55,Сити-Фитнес,,,,,,145,-150,-150,145,,,,,,,145
2,90,Yes,M,B,Raw,Vladimir Pleshakov,Владимир Плешаков,Amateur Masters 40-44,1965-09-03,,89.7,Спарта,,,,,,-125,125,130,130,,,,,,,130
1,90,Yes,M,B,Raw,Anatoliy Gorelov,Анатолий Горелов,Amateur Masters 45-49,1962-01-24,,88.35,Berman Team,,,,,,115,122.5,-127.5,122.5,,,,,,,122.5
DQ,90,Yes,M,B,Raw,Andrey Noritsyn,Андрей Норицын,Amateur Masters 40-44,1969-07-30,,89.75,Камышлов,,,,,,-155,-155,-155,,,,,,,,
DQ,90,Yes,M,B,Raw,Aleksandr Komkov,Александр Комков,Amateur Masters 50-54,1959-08-09,,85.8,Пермский край,,,,,,-145,-145,-145,,,,,,,,
1,90,Yes,M,B,Raw,Yuriy Stepanov,Юрий Степанов,Amateur Masters 60-64,1947-11-02,,87.55,Богданович,,,,,,-110,115,-120,115,,,,,,,115
1,90,Yes,M,B,Raw,Maksim Takhtay,Максим Тахтай,Amateur Open,1980-11-02,,88.45,Красноуфимск,,,,,,150,160,162.5,162.5,,,,,,,162.5
2,90,Yes,M,B,Raw,Pavel Kokorin,Павел Кокорин,Amateur Open,1980-09-14,,89.05,Факел,,,,,,155,-160,162.5,162.5,,,,,,,162.5
3,90,Yes,M,B,Raw,Vyacheslav Starchenkov,Вячеслав Старченков,Amateur Open,1984-12-31,,87.6,Челябинская область,,,,,,140,155,160,160,,,,,,,160
4,90,Yes,M,B,Raw,Aleksandr Koporulin,Александр Копорулин,Amateur Open,1989-09-16,,88.6,Сити-Фитнес,,,,,,145,150,-155,150,,,,,,,150
5,90,Yes,M,B,Raw,Rashid Sharipov,Рашид Шарипов,Amateur Open,1979-07-27,,89.9,Три Икс,,,,,,145,-155,-155,145,,,,,,,145
6,90,Yes,M,B,Raw,Sergey Badeev,Сергей Бадеев,Amateur Open,1978-03-27,,85.15,Динамо,,,,,,130,137.5,142.5,142.5,,,,,,,142.5
7,90,Yes,M,B,Raw,Anton Bachurin,Антон Бачурин,Amateur Open,1980-05-16,,83.35,Камышлов,,,,,,140,-145,-145,140,,,,,,,140
8,90,Yes,M,B,Raw,Denis Frolov,Денис Фролов,Amateur Open,1979-06-01,,88.75,Три Икс,,,,,,140,-145,-145,140,,,,,,,140
9,90,Yes,M,B,Raw,Aleksandr Mironov,Александр Миронов,Amateur Submasters 33-39,1974-02-15,,89,Екатеринбург,,,,,,-132.5,132.5,137.5,137.5,,,,,,,137.5
10,90,Yes,M,B,Raw,Maksim Pechyonkin,Максим Печёнкин,Amateur Open,1977-05-23,,89.35,Екатеринбург,,,,,,132.5,-155,-155,132.5,,,,,,,132.5
11,90,Yes,M,B,Raw,Andrey Sukhodoev,Андрей Суходоев,Amateur Submasters 33-39,1975-05-08,,89.55,Berman Team,,,,,,110,120,125,125,,,,,,,125
1,100,Yes,M,B,Raw,Ilya Pakhomov,Илья Пахомов,Amateur Juniors 20-23,1988-08-21,,98.45,Extreme Fitness Athletics,,,,,,170,-180,-180,170,,,,,,,170
2,100,Yes,M,B,Raw,Sergey Malyugin,Сергей Малюгин,Amateur Juniors 20-23,1986-09-03,,98.2,Преображение,,,,,,137.5,142.5,147.5,147.5,,,,,,,147.5
DQ,100,Yes,M,B,Raw,Aleksandr Yavorskikh,Александр Яворских,Amateur Juniors 20-23,1989-08-03,,98.75,Свердловская область,,,,,,-162.5,-162.5,-162.5,,,,,,,,
1,100,Yes,M,B,Raw,Dmitriy Karelin,Дмитрий Карелин,Amateur Masters 40-44,1968-09-27,,99.7,Спарта,,,,,,167.5,172.5,177.5,177.5,,,,,,,177.5
2,100,Yes,M,B,Raw,Vladimir Nikonov,Владимир Никонов,Amateur Masters 40-44,1966-12-22,,92.9,Пермский край,,,,,,162.5,-170,170,170,,,,,,,170
3,100,Yes,M,B,Raw,Ivan Kazantsev,Иван Казанцев,Amateur Masters 40-44,1967-09-29,,97.65,Камышлов,,,,,,-142.5,142.5,150,150,,,,,,,150
1,100,Yes,M,B,Raw,Gennadiy Semenov #2,Геннадий Семенов,Amateur Masters 50-54,1958-07-17,,95.15,Красноуфимск,,,,,,-105,110,-117.5,110,,,,,,,110
DQ,100,Yes,M,B,Raw,Vladimir Shibaev,Владимир Шибаев,Amateur Masters 50-54,1960-02-05,,100,Dream Team,,,,,,-172.5,-180,-180,,,,,,,,
1,100,Yes,M,B,Raw,Vladimir Shchukin,Владимир Щукин,Amateur Open,1980-03-15,,98.05,Тюменская область,,,,,,170,180,182.5,182.5,,,,,,,182.5
2,100,Yes,M,B,Raw,Yakov Berman,Яков Берман,Amateur Submasters 33-39,1972-06-22,,99.7,Berman Team,,,,,,170,180,-185,180,,,,,,,180
3,100,Yes,M,B,Raw,Dmitriy Karelin,Дмитрий Карелин,Amateur Open,1968-09-27,,99.7,Спарта,,,,,,167.5,172.5,177.5,177.5,,,,,,,177.5
4,100,Yes,M,B,Raw,Alexey Kuzmin,Алексей Кузьмин,Amateur Open,1980-08-31,,95,Факел,,,,,,-160,-162.5,162.5,162.5,,,,,,,162.5
5,100,Yes,M,B,Raw,Denis Markov,Денис Марков,Amateur Open,1979-04-28,,96.15,Удмуртия,,,,,,150,162.5,-165,162.5,,,,,,,162.5
6,100,Yes,M,B,Raw,Roman Stepanov,Роман Степанов,Amateur Open,1980-08-23,,96.4,Курганская область,,,,,,162.5,-165,-165,162.5,,,,,,,162.5
7,100,Yes,M,B,Raw,Sergey Martyanov,Сергей Мартьянов,Amateur Submasters 33-39,1975-02-25,,97,Свердловская область,,,,,,-160,162.5,-180,162.5,,,,,,,162.5
8,100,Yes,M,B,Raw,Denis Ryzhiy,Денис Рыжий,Amateur Open,1977-08-11,,99.5,Челябинская область,,,,,,150,162.5,-165,162.5,,,,,,,162.5
9,100,Yes,M,B,Raw,Vitaliy Baranov,Виталий Баранов,Amateur Open,1980-11-28,,99.1,Богданович,,,,,,155,-162.5,-162.5,155,,,,,,,155
10,100,Yes,M,B,Raw,Evgeniy Pozdin,Евгений Поздин,Amateur Open,1981-02-11,,98.6,Berman Team,,,,,,152.5,-162.5,-162.5,152.5,,,,,,,152.5
11,100,Yes,M,B,Raw,Arseniy Klevakin,Арсений Клевакин,Amateur Open,1979-10-15,,96.45,Свердловская область,,,,,,145,150,-155,150,,,,,,,150
DQ,100,Yes,M,B,Raw,Vladimir Shibaev,Владимир Шибаев,Amateur Open,1960-02-05,,100,Dream Team,,,,,,-172.5,-180,-180,,,,,,,,
1,100,Yes,M,B,Raw,Sergey Larin,Сергей Ларин,Amateur Teen 18-19,1990-08-11,,90.8,Преображение,,,,,,135,142.5,147.5,147.5,,,,,,,147.5
2,100,Yes,M,B,Raw,Maksim Fen,Максим Фень,Amateur Teen 18-19,1991-05-23,,93.05,Преображение,,,,,,125,130,-142.5,130,,,,,,,130
1,110,Yes,M,B,Raw,Roman Kusov,Роман Кусов,Amateur Juniors 20-23,1987-03-01,,100.85,Богданович,,,,,,140,147.5,,147.5,,,,,,,147.5
1,110,Yes,M,B,Raw,Sergey Kirillov,Сергей Кириллов,Amateur Masters 45-49,1964-04-21,,107.4,Berman Team,,,,,,-150,155,-160,155,,,,,,,155
2,110,Yes,M,B,Raw,Andrey Stolbov,Андрей Столбов,Amateur Masters 45-49,1964-05-28,,108.45,Удмуртия,,,,,,155,-167.5,-167.5,155,,,,,,,155
1,110,Yes,M,B,Raw,Leonid Golovin,Леонид Головин,Amateur Submasters 33-39,1973-05-22,,104.45,Богданович,,,,,,165,170,-172.5,170,,,,,,,170
2,110,Yes,M,B,Raw,Sergey Reshetnikov,Сергей Решетников,Amateur Submasters 33-39,1973-04-10,,105.65,Три Икс,,,,,,160,170,-175,170,,,,,,,170
3,110,Yes,M,B,Raw,Aleksey Sboev,Алексей Сбоев,Amateur Open,1978-05-06,,109.2,Сити-Фитнес,,,,,,140,147.5,-160,147.5,,,,,,,147.5
DQ,110,Yes,M,B,Raw,Maksim Zverev,Максим Зверев,Amateur Open,1982-05-31,,104.5,Свердловская область,,,,,,-160,-160,-160,,,,,,,,
DQ,110,Yes,M,B,Raw,Aleksey Shoromov,Алексей Шоромов,Amateur Submasters 33-39,1974-08-11,,108.7,Факел,,,,,,-162.5,-162.5,-162.5,,,,,,,,
1,125,Yes,M,B,Raw,Sergey Kharlamov,Сергей Харламов,Amateur Masters 40-44,1969-04-09,,115.5,Курганская область,,,,,,150,165,-180,165,,,,,,,165
1,125,Yes,M,B,Raw,Aleksandr Mineev,Александр Минеев,Amateur Masters 55-59,1953-10-14,,117.5,Курганская область,,,,,,-100,-110,110,110,,,,,,,110
1,125,Yes,M,B,Raw,Sergey Kolesnichenko #1,Сергей Колесниченко,Amateur Open,1979-11-19,,123.65,Berman Team,,,,,,190,200,-205,200,,,,,,,200
2,125,Yes,M,B,Raw,Dmitriy Sapatov,Дмитрий Сапатов,Amateur Submasters 33-39,1974-11-25,,113.85,Атомная Сила,,,,,,160,170,-175,170,,,,,,,170
1,140,Yes,M,B,Raw,Vasiliy Petrov,Василий Петров,Amateur Submasters 33-39,1975-11-14,,127.65,Преображение,,,,,,225,235,240,240,,,,,,,240
2,140,Yes,M,B,Raw,Andrey Melkozyorov,Андрей Мелкозёров,Amateur Submasters 33-39,1971-11-19,,130.8,Dream Team,,,,,,215,-230,-230,215,,,,,,,215
3,140,Yes,M,B,Raw,Dmitriy Belyy,Дмитрий Белый,Amateur Submasters 33-39,1972-04-12,,133.25,Олимп,,,,,,177.5,192.5,197.5,197.5,,,,,,,197.5
1,140+,Yes,M,B,Raw,Aleksey Kozachkov,Алексей Козачков,Amateur Submasters 33-39,1970-09-07,,143.75,Факел,,,,,,180,190,-195,190,,,,,,,190
2,140+,Yes,M,B,Raw,Oleg Melentev,Олег Мелентьев,Amateur Submasters 33-39,1972-07-05,,141.05,Курганская область,,,,,,180,185,-190,185,,,,,,,185
1,60,Yes,F,B,Multi-ply,Mariya Berezenko,Мария Березенко,Amateur Juniors 20-23,1989-05-15,,58.6,Алапаевск,,,,,,85,90,92.5,92.5,-95,,,,,,92.5
DQ,67.5,Yes,F,B,Multi-ply,Oksana Shakirova,Оксана Шакирова,Amateur Teen 18-19,1991-12-18,,62.4,Dream Team,,,,,,-55,-55,-55,,,,,,,,
1,60,Yes,M,B,Multi-ply,Konstantin Karlov,Константин Карлов,Amateur Juniors 20-23,1989-06-17,,59.05,Оренбургская область,,,,,,100,107.5,-112.5,107.5,,,,,,,107.5
1,60,Yes,M,B,Multi-ply,Vladimir Kondratev,Владимир Кондратьев,Amateur Teen 13-15,1994-05-23,,59.45,УрГМА,,,,,,80,-85,90,90,,,,,,,90
DQ,67.5,Yes,M,B,Multi-ply,Andrey Kudryavtsev,Андрей Кудрявцев,Amateur Open,1983-09-14,,66.8,Преображение,,,,,,-132.5,-135,-135,,,,,,,,
1,67.5,Yes,M,B,Multi-ply,Anton Mogilevskiy,Антон Могилевский,Amateur Teen 18-19,1991-03-10,,64.8,Extreme Fitness Athletics,,,,,,-160,-160,160,160,,,,,,,160
DQ,67.5,Yes,M,B,Multi-ply,Aleksandr Andrianov,Александр Андрианов,Amateur Teen 18-19,1991-04-13,,64.15,Реж,,,,,,-125,-125,-125,,,,,,,,
1,82.5,Yes,M,B,Multi-ply,Aleksey Savosin,Алексей Савосин,Amateur Masters 40-44,1969-03-21,,81,Berman Team,,,,,,185,-200,-205,185,,,,,,,185
1,82.5,Yes,M,B,Multi-ply,Andrey Galayda,Андрей Галайда,Amateur Submasters 33-39,1972-02-07,,82,Сити-Фитнес,,,,,,200,-210,-210,200,,,,,,,200
2,82.5,Yes,M,B,Multi-ply,Aleksey Gasanov,Алексей Гасанов,Amateur Open,1982-04-13,,82.3,Оренбургская область,,,,,,120,170,180,180,,,,,,,180
3,82.5,Yes,M,B,Multi-ply,Artyom Kozlov,Артём Козлов,Amateur Open,1985-02-19,,80.9,Атомная Сила,,,,,,155,-162.5,-162.5,155,,,,,,,155
DQ,82.5,Yes,M,B,Multi-ply,Andrey Cherey,Андрей Черей,Amateur Teen 18-19,1991-04-21,,81,Реж,,,,,,-157.5,-157.5,-170,,,,,,,,
1,90,Yes,M,B,Multi-ply,Rafik Zeynalov,Рафик Зейналов,Amateur Juniors 20-23,1987-07-22,,90,УрГМА,,,,,,165,180,-187.5,180,,,,,,,180
1,90,Yes,M,B,Multi-ply,Rinad Nizamov,Ринад Низамов,Amateur Submasters 33-39,1973-09-18,,89.75,Атомная Сила,,,,,,190,195,202.5,202.5,,,,,,,202.5
DQ,100,Yes,M,B,Multi-ply,Valeriy Yakovenko,Валерий Яковенко,Amateur Masters 40-44,1968-02-13,,98,Талица,,,,,,-192.5,-192.5,,,,,,,,,
1,100,Yes,M,B,Multi-ply,Sergey Martyanov,Сергей Мартьянов,Amateur Submasters 33-39,1975-02-25,,97,Свердловская область,,,,,,190,-200,200,200,,,,,,,200
DQ,100,Yes,M,B,Multi-ply,Vladimir Shchukin,Владимир Щукин,Amateur Open,1980-03-15,,98.05,Тюменская область,,,,,,-210,-222.5,-222.5,,,,,,,,
DQ,100,Yes,M,B,Multi-ply,Oleg Kozin,Олег Козин,Amateur Submasters 33-39,1970-07-24,,99.6,Олимп,,,,,,-185,-185,,,,,,,,,
DQ,100,Yes,M,B,Multi-ply,Yakov Berman,Яков Берман,Amateur Submasters 33-39,1972-06-22,,99.7,Berman Team,,,,,,-210,-220,-225,,,,,,,,
1,110,Yes,M,B,Multi-ply,Andrey Zapylikhin,Андрей Запылихин,Amateur Masters 45-49,1960-09-07,,109,УрГМА,,,,,,195,-202.5,-202.5,195,,,,,,,195
1,110,Yes,M,B,Multi-ply,Aleksandr Belyaev,Александр Беляев,Amateur Submasters 33-39,1972-09-29,,104.35,Атомная Сила,,,,,,225,-232.5,-232.5,225,,,,,,,225
2,110,Yes,M,B,Multi-ply,Samat Aytmagambetov,Самат Айтмагамбетов,Amateur Open,1984-05-16,,104.1,Оренбургская область,,,,,,180,190,205,205,,,,,,,205
DQ,110,Yes,M,B,Multi-ply,Danila Gerasimov,Данила Герасимов,Amateur Open,1985-07-18,,103.5,Сити-Фитнес,,,,,,-202.5,-202.5,-202.5,,,,,,,,
1,110,Yes,M,B,Multi-ply,Stanislav Moskalenko,Станислав Москаленко,Amateur Teen 16-17,1992-11-13,,102.05,Оренбургская область,,,,,,185,195,-202.5,195,,,,,,,195
1,125,Yes,M,B,Multi-ply,Evgeniy Formin,Евгений Формин,Amateur Masters 40-44,1967-09-21,,123.85,Курганская область,,,,,,220,-230,-240,220,,,,,,,220
DQ,140,Yes,M,B,Multi-ply,Mikhail Nekrasov,Михаил Некрасов,Amateur Open,1969-11-19,,133.85,Красноуфимск,,,,,,-220,-225,-232.5,,,,,,,,
DQ,140,Yes,M,B,Multi-ply,Mikhail Nekrasov,Михаил Некрасов,Amateur Masters 40-44,1969-11-19,,133.85,Красноуфимск,,,,,,-220,-225,-232.5,,,,,,,,
1,56,No,F,B,Raw,Yuliya Ponomaryova,Юлия Пономарёва,Pro Teen 13-15,1995-08-13,,55.85,Преображение,,,,,,35,40,42.5,42.5,-45,,,,,,42.5
1,60,No,F,B,Raw,Elena Nikolaeva,Елена Николаева,Pro Submasters 33-39,1971-09-20,,59.5,Три Икс,,,,,,40,-45,45,45,,,,,,,45
1,67.5,No,F,B,Raw,Marina Medvedeva,Марина Медведева,Pro Submasters 33-39,1974-09-05,,64.1,Три Икс,,,,,,100,105,110,110,,,,,,,110
1,82.5,No,F,B,Raw,Elena Sheverdina,Елена Шевердина,Pro Masters 40-44,1968-02-14,,77.1,Berman Team,,,,,,110,120,125,125,130,,,,,,125
1,82.5,No,F,B,Raw,Tatyana Kibalina,Татьяна Кибалина,Pro Submasters 33-39,1974-03-09,,82.5,Три Икс,,,,,,100,-112.5,-112.5,100,,,,,,,100
1,52,No,M,B,Raw,Eldar Ramazanov,Эльдар Рамазанов,Pro Open,1983-08-17,,51.85,Красноуфимск,,,,,,75,80,-82.5,80,,,,,,,80
1,52,No,M,B,Raw,Pavel Nekrasov,Павел Некрасов,Pro Youth,2001-07-22,,28.1,Красноуфимск,,,,,,20,25,-30,25,,,,,,,25
2,52,No,M,B,Raw,Ivan Repnitsyn,Иван Репницын,Pro Youth,1998-02-27,,45.9,Преображение,,,,,,20,-22.5,-22.5,20,,,,,,,20
1,56,No,M,B,Raw,Sergey Shershnev,Сергей Шершнев,Pro Youth,1997-05-02,,55.85,Преображение,,,,,,35,40,45,45,,,,,,,45
1,60,No,M,B,Raw,Dmitriy Kiselyov,Дмитрий Киселёв,Pro Open,1977-08-23,,57.7,Динамо,,,,,,95,100,105,105,,,,,,,105
1,60,No,M,B,Raw,Vitaliy Chigrinskiy,Виталий Чигринский,Pro Teen 13-15,1994-12-27,,59.9,Каменск-Уральский,,,,,,70,80,85,85,,,,,,,85
1,67.5,No,M,B,Raw,Danila Fomin,Данила Фомин,Pro Teen 13-15,1994-11-02,,66.35,Каменск-Уральский,,,,,,60,70,-77.5,70,,,,,,,70
1,75,No,M,B,Raw,Vladimir Ustinov,Владимир Устинов,Pro Juniors 20-23,1986-03-16,,68.95,Атомная Сила,,,,,,130,-143,150,150,,,,,,,150
1,75,No,M,B,Raw,Maksim Kryukov,Максим Крюков,Pro Open,1985-08-02,,73.75,ДЮСШ №19,,,,,,130,135,-140,135,,,,,,,135
2,75,No,M,B,Raw,Andrey Krasnozhon,Андрей Красножон,Pro Open,1982-02-25,,74.5,Тюменская область,,,,,,-125,130,-140,130,,,,,,,130
1,75,No,M,B,Raw,Denis Odinokov,Денис Одиноков,Pro Teen 13-15,1995-10-09,,67.8,Каменск-Уральский,,,,,,70,77.5,87.5,87.5,,,,,,,87.5
1,75,No,M,B,Raw,Ivan Kudryavtsev,Иван Кудрявцев,Pro Teen 18-19,,1990,73.65,Три Икс,,,,,,120,130,-135,130,,,,,,,130
1,82.5,No,M,B,Raw,Evgeniy Kuchin,Евгений Кучин,Pro Juniors 20-23,1987-02-20,,81.4,Каменск-Уральский,,,,,,155,-160,160,160,,,,,,,160
2,82.5,No,M,B,Raw,Sergey Suvorov,Сергей Суворов,Pro Juniors 20-23,1989-08-31,,82.5,Каменск-Уральский,,,,,,140,145,-150,145,,,,,,,145
1,82.5,No,M,B,Raw,Aleksandr Zhilin,Александр Жилин,Pro Masters 40-44,1965-10-14,,81.25,Спарта,,,,,,-120,120,-125,120,,,,,,,120
1,82.5,No,M,B,Raw,Vladimir Gurov,Владимир Гуров,Pro Masters 45-49,1964-06-02,,76.6,Три Икс,,,,,,110,-115,-117.5,110,,,,,,,110
1,82.5,No,M,B,Raw,Andrey Koryukov,Андрей Корюков,Pro Masters 50-54,1958-09-03,,81,Спарта,,,,,,105,110,115,115,,,,,,,115
1,82.5,No,M,B,Raw,Denis Maslakov,Денис Маслаков,Pro Open,1982-07-31,,77.3,Три Икс,,,,,,150,160,-167.5,160,,,,,,,160
2,82.5,No,M,B,Raw,Vladimir Borisov,Владимир Борисов,Pro Open,1981-11-17,,78.75,Курганская область,,,,,,150,160,-167.5,160,,,,,,,160
3,82.5,No,M,B,Raw,Aleksandr Alyaev,Александр Аляев,Pro Open,1984-07-17,,79.75,Екатеринбург,,,,,,145,-155,-167.5,145,,,,,,,145
4,82.5,No,M,B,Raw,Konstantin Kuznetsov,Константин Кузнецов,Pro Open,,,79.45,Эдем,,,,,,135,142.5,-147.5,142.5,,,,,,,142.5
5,82.5,No,M,B,Raw,Sergey Zubkov,Сергей Зубков,Pro Open,1983-11-23,,78.1,Три Икс,,,,,,-140,140,-150,140,,,,,,,140
1,82.5,No,M,B,Raw,Sevastyan Olesov,Севастьян Олесов,Pro Teen 13-15,1994-10-06,,80,Каменск-Уральский,,,,,,70,80,87.5,87.5,,,,,,,87.5
1,90,No,M,B,Raw,Svyatoslav Gaysin,Святослав Гайсин,Pro Juniors 20-23,1989-08-02,,89.3,Каменск-Уральский,,,,,,195,-202.5,-202.5,195,,,,,,,195
1,90,No,M,B,Raw,Sergey Stelmashenko,Сергей Стельмашенко,Pro Masters 40-44,1965-10-10,,87.55,Пермский край,,,,,,-160,167.5,-175,167.5,,,,,,,167.5
2,90,No,M,B,Raw,Eduard Isakov,Эдуард Исаков,Pro Masters 40-44,1966-07-18,,85.1,Преображение,,,,,,135,140,-150,140,,,,,,,140
1,90,No,M,B,Raw,Vladimir Soloboev,Владимир Солобоев,Pro Masters 50-54,1958-05-19,,87.3,Атомная Сила,,,,,,-130,130,137.5,137.5,,,,,,,137.5
2,90,No,M,B,Raw,Evgeniy Basov,Евгений Басов,Pro Masters 50-54,1955-02-24,,86.65,Тюменская область,,,,,,110,-115,115,115,,,,,,,115
1,90,No,M,B,Raw,Anatoliy Alyaev,Анатолий Аляев,Pro Open,1984-07-17,,89.75,Екатеринбург,,,,,,155,165,170,170,,,,,,,170
2,90,No,M,B,Raw,Artyom Yakovenko,Артём Яковенко,Pro Submasters 33-39,1972-06-25,,87.2,Динамо,,,,,,-160,160,165,165,,,,,,,165
3,90,No,M,B,Raw,Dmitriy Zhukov,Дмитрий Жуков,Pro Submasters 33-39,1976-12-06,,88.25,Каменск-Уральский,,,,,,145,-152.5,-152.5,145,,,,,,,145
1,100,No,M,B,Raw,Pavel Shurygin,Павел Шурыгин,Pro Juniors 20-23,1988-11-23,,94.15,Ревда,,,,,,142.5,150,160,160,,,,,,,160
2,100,No,M,B,Raw,Egor Yakushev,Егор Якушев,Pro Juniors 20-23,1988-06-26,,97.95,Три Икс,,,,,,110,120,-125,120,,,,,,,120
1,100,No,M,B,Raw,Viktor Kachusov,Виктор Качусов,Pro Masters 45-49,1960-10-25,,99.3,Богданович,,,,,,135,145,150,150,,,,,,,150
1,100,No,M,B,Raw,Mikhail Khudyakov,Михаил Худяков,Pro Masters 50-54,1955-08-04,,93.05,Богданович,,,,,,135,145,150,150,,,,,,,150
1,100,No,M,B,Raw,Aleksandr Plaksin,Александр Плаксин,Pro Open,1979-05-06,,96.15,Ревда,,,,,,170,175,-180,175,,,,,,,175
2,100,No,M,B,Raw,Maksim Sveyko,Максим Свейко,Pro Open,1979-07-17,,94.05,Атомная Сила,,,,,,160,-165,165,165,,,,,,,165
3,100,No,M,B,Raw,Vladimir Ozhegov,Владимир Ожегов,Pro Open,1977-05-12,,99.6,Динамо,,,,,,140,150,-155,150,,,,,,,150
4,100,No,M,B,Raw,Svyatoslav Dobronravov,Святослав Добронравов,Pro Submasters 33-39,1976-11-26,,96.1,Динамо,,,,,,125,-132.5,132.5,132.5,,,,,,,132.5
1,110,No,M,B,Raw,Sergey Kudinov,Сергей Кудинов,Pro Masters 45-49,1963-09-16,,107.3,Асбест,,,,,,180,195,-200,195,,,,,,,195
1,110,No,M,B,Raw,Evgeniy Illarionov,Евгений Илларионов,Pro Open,1982-05-28,,103.65,Факел,,,,,,190,-200,-200,190,,,,,,,190
1,110,No,M,B,Raw,Renat Khaziev,Ренат Хазиев,Pro Teen 18-19,1990-02-19,,104.8,Ревда,,,,,,190,197.5,202.5,202.5,,,,,,,202.5
1,125,No,M,B,Raw,Albert Fakhretdinov,Альберт Фахретдинов,Pro Juniors 20-23,1987-06-23,,121.15,Ревда,,,,,,180,185,190,190,,,,,,,190
1,125,No,M,B,Raw,Yuriy Maksimov,Юрий Максимов,Pro Masters 40-44,1967-12-17,,117.25,Челябинская область,,,,,,150,160,-180,160,,,,,,,160
1,125,No,M,B,Raw,Andrey Ovechkin,Андрей Овечкин,Pro Open,1979-02-07,,110.9,Три Икс,,,,,,-205,215,222.5,222.5,,,,,,,222.5
2,125,No,M,B,Raw,Nikolay Pyshmintsev,Николай Пышминцев,Pro Open,1981-01-04,,120.75,Каменск-Уральский,,,,,,200,212.5,220,220,,,,,,,220
3,125,No,M,B,Raw,Aleksandr Saytgalin,Александр Сайтгалин,Pro Submasters 33-39,1974-10-27,,117.05,Динамо,,,,,,200,210,217.5,217.5,,,,,,,217.5
4,125,No,M,B,Raw,Denis Semyonov,Денис Семёнов,Pro Submasters 33-39,1974-04-27,,115.7,Dream Team,,,,,,170,180,190,190,,,,,,,190
5,125,No,M,B,Raw,Andrey Kryuchkov,Андрей Крючков,Pro Open,1980-11-20,,115.6,Челябинская область,,,,,,140,160,-170,160,,,,,,,160
1,140,No,M,B,Raw,Andrey Brusov,Андрей Брусов,Pro Submasters 33-39,1973-03-06,,134.95,Ревда,,,,,,215,-225,-225,215,,,,,,,215
2,140,No,M,B,Raw,Nikolay Shchukin,Николай Щукин,Pro Open,1979-08-25,,131.9,Тюменская область,,,,,,150,160,-170,160,,,,,,,160
1,67.5,No,M,B,Multi-ply,Semyon Filyakin,Семён Филякин,Pro Teen 18-19,1991-06-04,,65.5,Каменск-Уральский,,,,,,140,-152.5,-165,140,,,,,,,140
1,75,No,M,B,Multi-ply,Igor Kuimov,Игорь Куимов,Pro Masters 45-49,,,74.3,Челябинская область,,,,,,-195,-195,195,195,,,,,,,195
DQ,82.5,No,M,B,Multi-ply,Ivan Zyablikov,Иван Зябликов,Pro Masters 60-64,1948-08-21,1948,81.85,Олимп,,,,,,-175.5,-175.5,-175.5,,,,,,,,
DQ,90,No,M,B,Multi-ply,Aleksandr Sapozhnikov,Александр Сапожников,Pro Juniors 20-23,,,89,Три Икс,,,,,,-180,-190,,,,,,,,,
1,90,No,M,B,Multi-ply,Evgeniy Basov,Евгений Басов,Pro Masters 50-54,1955-02-24,,86.65,Тюменская область,,,,,,120,130,-135,130,,,,,,,130
1,90,No,M,B,Multi-ply,Evgeniy Gonchar,Евгений Гончар,Pro Open,1986-07-18,,87.95,Челябинская область,,,,,,160,-165,,160,,,,,,,160
1,90,No,M,B,Multi-ply,Andrey Guz,Андрей Гузь,Pro Teen 18-19,1990-10-13,,88.95,Курганская область,,,,,,195,202.5,207.5,207.5,,,,,,,207.5
2,90,No,M,B,Multi-ply,Dmitriy Myasnikov,Дмитрий Мясников,Pro Teen 18-19,1990-10-30,,86.65,Berman Team,,,,,,190,202.5,-210,202.5,,,,,,,202.5
1,100,No,M,B,Multi-ply,Boris Zhernovnikov,Борис Жерновников,Pro Masters 40-44,1965-03-16,,92.65,Тюменская область,,,,,,-205,210,215,215,,,,,,,215
2,100,No,M,B,Multi-ply,Dmitriy Chertushkin,Дмитрий Чертушкин,Pro Masters 40-44,1969-08-15,,99.95,Екатеринбург,,,,,,200,210,,210,,,,,,,210
1,100,No,M,B,Multi-ply,Andrey Martemyanov,Андрей Мартемьянов,Pro Masters 45-49,1961-07-08,,98.8,Челябинская область,,,,,,190,-200,-200,190,,,,,,,190
1,100,No,M,B,Multi-ply,Eduard Khaliullin,Эдуард Халиуллин,Pro Submasters 33-39,1973-05-22,,99.3,Екатеринбург,,,,,,-255,255,-265,255,,,,,,,255
1,110,No,M,B,Multi-ply,Andrey Tachanov,Андрей Тачанов,Pro Masters 45-49,1964-08-06,,109.65,Атомная Сила,,,,,,-210,210,220,220,-232.5,,,,,,220
1,110,No,M,B,Multi-ply,Vladimir Omelkov,Владимир Омельков,Pro Submasters 33-39,1970-05-10,,105.7,Каменск-Уральский,,,,,,230,242.5,-250,242.5,,,,,,,242.5
1,125,No,M,B,Multi-ply,Aleksandr Ponomaryov,Александр Пономарёв,Pro Masters 40-44,1967-02-27,,113.15,Преображение,,,,,,-240,245,-255,245,,,,,,,245
DQ,125,No,M,B,Multi-ply,Ivan Kurpishev,Иван Курпишев,Pro Masters 40-44,1969-03-02,,111.35,Курганская область,,,,,,-285,-290,-300,,,,,,,,
1,125,No,M,B,Multi-ply,Nikolay Pyshmintsev,Николай Пышминцев,Pro Open,1981-01-04,,120.75,Каменск-Уральский,,,,,,270,300,-322.5,300,,,,,,,300
DQ,125,No,M,B,Multi-ply,Ivan Kurpishev,Иван Курпишев,Pro Open,1969-03-02,,111.35,Курганская область,,,,,,-285,-290,-300,,,,,,,,
1,140,No,M,B,Multi-ply,Vladimir Maksimov,Владимир Максимов,Pro Open,1966-06-07,,135.45,Пермский край,,,,,,400,-410,-415,400,,,,,,,400
1,140,No,M,B,Multi-ply,Vladimir Maksimov,Владимир Максимов,Pro Masters 40-44,1966-06-07,,135.45,Пермский край,,,,,,400,-410,-415,400,,,,,,,400
1,140+,No,M,B,Multi-ply,Mikhail Zisman,Михаил Зисман,Pro Juniors 20-23,1986-03-20,,173.2,Челябинская область,,,,,,175,-190,-200,175,,,,,,,175
