Place,Sex,Name,CyrillicName,Division,BirthDate,Age,WeightClassKg,BodyweightKg,Squat1Kg,Squat2Kg,Squat3Kg,Best3SquatKg,Squat4Kg,Bench1Kg,Bench2Kg,Bench3Kg,Best3BenchKg,Bench4Kg,Deadlift1Kg,Deadlift2Kg,Deadlift3Kg,Best3DeadliftKg,Deadlift4Kg,TotalKg,Event,Equipment,Tested
1,M,Evgeniy Bondarenko,Евгений Бондаренко,Pro Open,1990-01-26,30,110,107.5,,,,,,190,195,-197.5,195,,290,-300,,290,,485,BD,Raw,No
1,F,Ekaterina Shevchenko,Екатерина Шевченко,Amateur Open,1990-07-07,30,52,49.5,,,,,,55,-57.5,57.5,57.5,,100,-107.5,-107.5,100,,157.5,BD,Raw,Yes
1,F,Valentina Gosteva,Валентина Гостева,Amateur Open,1955-08-07,65,56,53,,,,,,55,60,-65,60,,105,110,115,115,,175,BD,Raw,Yes
1,F,Valentina Gosteva,Валентина Гостева,Amateur Masters 65-69,1955-08-07,65,56,53,,,,,,55,60,-65,60,,105,110,115,115,,175,BD,Raw,Yes
1,F,Anastasiya Dudakova,Анастасия Дудакова,Amateur Open,1995-12-27,24,67.5,64,,,,,,67.5,70,72.5,72.5,,105,110,-115,110,,182.5,BD,Raw,Yes
1,F,Elena Sklyar,Елена Скляр,Amateur Masters 40-44,1978-02-10,42,67.5,66,,,,,,57.5,-62.5,-62.5,57.5,,92.5,97.5,102.5,102.5,,160,BD,Raw,Yes
1,M,Ilya Stativ,Илья Статив,Amateur Open,1991-02-09,29,75,74.7,,,,,,-110,115,120,120,,170,175,-177.5,175,,295,BD,Raw,Yes
1,M,Dmitriy Prygov,Дмитрий Прыгов,Amateur Open,1985-03-06,35,82.5,81.7,,,,,,130,137.5,140,140,,187.5,192.5,200,200,,340,BD,Raw,Yes
1,M,Vitaliy Merkulov,Виталий Меркулов,Amateur Open,1990-06-11,30,110,108.3,,,,,,162.5,167.5,-170,167.5,,260,270,-277.5,270,,437.5,BD,Raw,Yes
1,M,Kirill Tishkin,Кирилл Тишкин,Amateur Teen 13,2008-07-25,12,56,52.2,45,-52.5,52.5,52.5,,,,,,,,,,,,52.5,S,Wraps,Yes
1,M,Vitaliy Kireev,Виталий Киреев,Amateur Teen 13,2007-04-12,13,82.5,81.1,55,-62.5,70,70,,,,,,,,,,,,70,S,Wraps,Yes
1,M,Stanislav Shklyar,Станислав Шкляр,Amateur Teen 16-17,2003-04-21,17,82.5,82.5,100,110,-117.5,110,,,,,,,,,,,,110,S,Wraps,Yes
1,M,Dmitriy Voronkovskiy,Дмитрий Воронковский,Amateur Open,1996-01-24,24,90,87.5,155,165,,165,,,,,,,,,,,,165,S,Wraps,Yes
1,M,Kirill Yakovlev,Кирилл Яковлев,Amateur Teen 14-15,2006-10-03,14,100,96,-100,105,112.5,112.5,,,,,,,,,,,,112.5,S,Wraps,Yes
1,M,Boris Dolmatov,Борис Долматов,Pro Masters 75-79,1945-08-04,75,67.5,65.3,,,,,,,,,,,140,-150,150,150,,150,D,Raw,No
1,M,Ruslan Khazykov,Руслан Хазыков,Pro Open,1985-02-27,35,90,84.7,,,,,,,,,,,200,-220,-220,200,,200,D,Raw,No
1,M,Aleksandr Nemchinov,Александр Немчинов,Pro Masters 65-69,1951-11-10,69,90,90,,,,,,,,,,,205,220,235,235,,235,D,Raw,No
1,M,Evgeniy Bondarenko,Евгений Бондаренко,Pro Open,1990-01-26,30,110,107.5,,,,,,,,,,,290,-300,,290,,290,D,Raw,No
1,M,Ivan Bondarev,Иван Бондарев,Pro Open,1992-09-09,28,125,123.5,,,,,,,,,,,250,280,-300,280,,280,D,Raw,No
1,F,Ekaterina Shevchenko,Екатерина Шевченко,Amateur Open,1990-07-07,30,52,49.5,,,,,,,,,,,100,-107.5,-107.5,100,,100,D,Raw,Yes
1,F,Valentina Gosteva,Валентина Гостева,Amateur Masters 65-69,1955-08-07,65,56,53,,,,,,,,,,,105,110,115,115,,115,D,Raw,Yes
1,F,Anna Sergeeva,Анна Сергеева,Amateur Open,1992-04-28,28,60,59.3,,,,,,,,,,,105,115,130,130,,130,D,Raw,Yes
2,F,Ekaterina Karpova,Екатерина Карпова,Amateur Open,1987-03-13,33,60,59.9,,,,,,,,,,,110,120,,120,,120,D,Raw,Yes
1,F,Svetlana Kochetova,Светлана Кочетова,Amateur Open,1991-02-14,29,67.5,66,,,,,,,,,,,160,170,180,180,,180,D,Raw,Yes
1,F,Elena Shcherbinina,Елена Щербинина,Amateur Masters 55-59,1961-11-04,59,75,72,,,,,,,,,,,120,127.5,135,135,,135,D,Raw,Yes
1,M,Kirill Tishkin,Кирилл Тишкин,Amateur Teen 13,2008-07-25,12,56,52.2,,,,,,,,,,,50,55,60,60,,60,D,Raw,Yes
1,M,Vitaliy Kireev,Виталий Киреев,Amateur Teen 13,2007-04-12,13,82.5,81.1,,,,,,,,,,,65,75,-87.5,75,,75,D,Raw,Yes
1,M,Dmitriy Prygov,Дмитрий Прыгов,Amateur Open,1985-03-06,35,82.5,81.7,,,,,,,,,,,187.5,192.5,200,200,,200,D,Raw,Yes
2,M,Igor Tretyakov,Игорь Третьяков,Amateur Open,1995-03-29,25,82.5,80.3,,,,,,,,,,,190,-217.5,-217.5,190,,190,D,Raw,Yes
1,M,Dmitriy Grachev,Дмитрий Грачев,Amateur Masters 40-44,1980-04-23,40,82.5,82,,,,,,,,,,,190,-207.5,-207.5,190,,190,D,Raw,Yes
1,M,Aleksey Steblevskiy,Алексей Стеблевский,Amateur Juniors 20-23,1998-01-24,22,90,87.4,,,,,,,,,,,215,225,235,235,,235,D,Raw,Yes
1,M,Vadim Semerenko,Вадим Семеренко,Amateur Open,1999-07-04,21,90,88.8,,,,,,,,,,,210,-215,-215,210,,210,D,Raw,Yes
1,M,Igor Korol,Игорь Король,Amateur Masters 55-59,1964-11-08,56,90,89.1,,,,,,,,,,,145,160,170,170,,170,D,Raw,Yes
1,M,Vladimir Lukyanchikov,Владимир Лукьянчиков,Amateur Masters 60-64,1959-12-23,60,90,86.6,,,,,,,,,,,160,172.5,,172.5,,172.5,D,Raw,Yes
1,M,Vitaliy Merkulov,Виталий Меркулов,Amateur Open,1990-06-11,30,110,108.3,,,,,,,,,,,260,270,-277.5,270,,270,D,Raw,Yes
2,M,Valeriy Manakov,Валерий Манаков,Amateur Open,1995-06-09,25,110,106,,,,,,,,,,,200,210,215,215,,215,D,Raw,Yes
1,M,Sergey Gromov,Сергей Громов,Pro Masters 50-54,1966-09-02,54,110,105,,,,,,230,250,270,270,,,,,,,270,B,Unlimited,No
1,M,Andrey Vashchuk,Андрей Ващук,Pro Masters 60-64,1960-06-28,60,110,105,,,,,,185,-205,-215,185,,,,,,,185,B,Unlimited,No
1,M,Roman Chebotarev #5,Роман Чеботарёв,Pro Open,1983-05-17,37,125,115,,,,,,280,-300,-330,280,,,,,,,280,B,Unlimited,No
1,M,Andrey Karpachev,Андрей Карпачев,Amateur Open,1986-02-26,34,82.5,82,,,,,,200,210,220,220,,,,,,,220,B,Unlimited,Yes
1,M,Mikhail Karpachev,Михаил Карпачев,Amateur Open,1959-11-11,61,100,99.7,,,,,,190,195,-200,195,,,,,,,195,B,Unlimited,Yes
1,M,Ruslan Kalakutskiy,Руслан Калакуцкий,Amateur Masters 40-44,1979-04-22,41,100,100,,,,,,260,270,280,280,,,,,,,280,B,Unlimited,Yes
1,M,Sergey Vinokhodov,Сергей Виноходов,Amateur Open,1982-09-17,38,125,125,,,,,,330,-345,345,345,,,,,,,345,B,Unlimited,Yes
1,F,Tatyana Eliseeva,Татьяна Елисеева,Amateur Open,1985-06-12,35,52,52,,,,,,55,-62.5,-62.5,55,,,,,,,55,B,Unlimited,Yes
1,M,Ivan Demidov,Иван Демидов,Pro Teen 14-15,2005-02-08,15,52,50.5,,,,,,45,-50,50,50,,,,,,,50,B,Raw,No
1,M,Dmitriy Nagornykh,Дмитрий Нагорных,Pro Open,1989-11-10,31,82.5,77.7,,,,,,110,117.5,-122.5,117.5,,,,,,,117.5,B,Raw,No
1,M,Vadim Glazko,Вадим Глазко,Pro Open,1994-06-13,26,90,88.3,,,,,,160,170,,170,,,,,,,170,B,Raw,No
1,M,Artem Pelin,Артем Пелин,Pro Open,1982-01-28,38,110,109.1,,,,,,190,200,-210,200,,,,,,,200,B,Raw,No
2,M,Evgeniy Bondarenko,Евгений Бондаренко,Pro Open,1990-01-26,30,110,107.5,,,,,,190,195,-197.5,195,,,,,,,195,B,Raw,No
1,M,Dmitriy Dalnikovskiy,Дмитрий Дальниковский,Pro Open,1982-10-12,38,125,124,,,,,,145,155,162.5,162.5,,,,,,,162.5,B,Raw,No
1,M,Timur Sarychev,Тимур Сарычев,Pro Open,1990-03-19,30,140,137.5,,,,,,250,-260,-260,250,,,,,,,250,B,Raw,No
1,F,Anastasiya Komardina,Анастасия Комардина,Amateur Juniors 20-23,2000-02-25,20,48,46.6,,,,,,35,37.5,-40,37.5,,,,,,,37.5,B,Raw,Yes
1,F,Natalya Makeeva,Наталья Макеева,Amateur Open,1985-11-10,35,52,51.3,,,,,,60,65,70,70,,,,,,,70,B,Raw,Yes
2,F,Ekaterina Shevchenko,Екатерина Шевченко,Amateur Open,1990-07-07,30,52,49.5,,,,,,55,-57.5,57.5,57.5,,,,,,,57.5,B,Raw,Yes
1,F,Marta Gridneva,Марта Гриднева,Amateur Teen 14-15,2006-03-21,14,56,52.9,,,,,,40,42.5,45,45,,,,,,,45,B,Raw,Yes
1,F,Valentina Gosteva,Валентина Гостева,Amateur Open,1955-08-07,65,56,53,,,,,,55,60,-65,60,,,,,,,60,B,Raw,Yes
1,F,Tatyana Kelina,Татьяна Кельина,Amateur Open,1985-03-25,35,67.5,60.9,,,,,,70,75,-77.5,75,,,,,,,75,B,Raw,Yes
2,F,Anastasiya Dudakova,Анастасия Дудакова,Amateur Open,1995-12-27,24,67.5,64,,,,,,67.5,70,72.5,72.5,,,,,,,72.5,B,Raw,Yes
1,F,Elena Sklyar,Елена Скляр,Amateur Masters 40-44,1978-02-10,42,67.5,66,,,,,,57.5,-62.5,-62.5,57.5,,,,,,,57.5,B,Raw,Yes
1,M,Oleg Rumyantsev,Олег Румянцев,Amateur Teen 13,2009-08-25,11,44,39.3,,,,,,35,-37.5,37.5,37.5,,,,,,,37.5,B,Raw,Yes
1,M,Vadim Pyshev,Вадим Пышьев,Amateur Teen 16-17,2003-06-06,17,52,50.3,,,,,,90,95,100,100,,,,,,,100,B,Raw,Yes
1,M,Kirill Tishkin,Кирилл Тишкин,Amateur Teen 13,2008-07-25,12,56,52.2,,,,,,30,35,-42.5,35,,,,,,,35,B,Raw,Yes
1,M,Dmitriy Vorotnev,Дмитрий Воротнев,Amateur Teen 16-17,2003-06-25,17,60,59.45,,,,,,110,115,120,120,,,,,,,120,B,Raw,Yes
1,M,Aleksandr Petrenko,Александр Петренко,Amateur Teen 14-15,2006-09-25,14,75,68.3,,,,,,70,75,-77.5,75,,,,,,,75,B,Raw,Yes
1,M,Andrey Zubarev,Андрей Зубарев,Amateur Open,1985-01-06,35,75,75,,,,,,135,142.5,150,150,,,,,,,150,B,Raw,Yes
2,M,Ilya Stativ,Илья Статив,Amateur Open,1991-02-09,29,75,74.7,,,,,,-110,115,120,120,,,,,,,120,B,Raw,Yes
1,M,Sergey Rudychev,Сергей Рудычев,Amateur Masters 45-49,1974-06-08,46,75,72.6,,,,,,120,-130,-130,120,,,,,,,120,B,Raw,Yes
1,M,Vitaliy Chebotarev,Виталий Чеботарев,Amateur Masters 60-64,1960-09-02,60,75,73.3,,,,,,100,105,-110,105,,,,,,,105,B,Raw,Yes
1,M,Vitaliy Kireev,Виталий Киреев,Amateur Teen 13,2007-04-12,13,82.5,81.1,,,,,,35,45,47.5,47.5,,,,,,,47.5,B,Raw,Yes
1,M,Artem Ryabikin,Артем Рябикин,Amateur Juniors 20-23,1999-11-09,21,82.5,81.4,,,,,,110,-120,-120,110,,,,,,,110,B,Raw,Yes
1,M,Ilya Medvedev,Илья Медведев,Amateur Open,1994-07-16,26,82.5,82.5,,,,,,150,-160,165,165,,,,,,,165,B,Raw,Yes
2,M,Konstantin Okorkov,Константин Окорков,Amateur Open,1993-05-10,27,82.5,80.1,,,,,,140,147.5,-155,147.5,,,,,,,147.5,B,Raw,Yes
1,M,Aleksandr Koval,Александр Коваль,Amateur Masters 45-49,1975-08-30,45,82.5,80.65,,,,,,135,140,-147.5,140,,,,,,,140,B,Raw,Yes
1,M,Dmitriy Sherman,Дмитрий Шерман,Amateur Masters 55-59,1964-05-28,56,82.5,80.2,,,,,,130,-140,-140,130,,,,,,,130,B,Raw,Yes
1,M,Pavel Puzanok,Павел Пузанок,Amateur Open,1985-07-09,35,90,87.3,,,,,,167.5,177.5,182.5,182.5,,,,,,,182.5,B,Raw,Yes
2,M,Aleksey Antoshkin,Алексей Антошкин,Amateur Open,1992-11-15,28,90,89.9,,,,,,145,155,-160,155,,,,,,,155,B,Raw,Yes
1,M,Roman Razuvaev,Роман Разуваев,Amateur Masters 45-49,1975-02-15,45,90,84.2,,,,,,135,142.5,-150,142.5,,,,,,,142.5,B,Raw,Yes
1,M,Sergey Luzin,Сергей Лузин,Amateur Masters 65-69,1954-04-30,66,90,88.5,,,,,,105,115,120,120,,,,,,,120,B,Raw,Yes
1,M,Yuriy Dyuba,Юрий Дюба,Amateur Open,1986-12-21,33,100,93.2,,,,,,145,,,145,,,,,,,145,B,Raw,Yes
1,M,Aleksey Lyutyy,Алексей Лютый,Amateur Teen 18-19,2001-03-06,19,110,107.8,,,,,,175,180,-182.5,180,,,,,,,180,B,Raw,Yes
1,M,Evgeniy Ilchenko,Евгений Ильченко,Amateur Open,1981-02-11,39,110,109.8,,,,,,175,180,182.5,182.5,,,,,,,182.5,B,Raw,Yes
2,M,Mikhail Galutskikh,Михаил Галуцких,Amateur Open,1987-12-06,32,110,110,,,,,,150,167.5,175,175,,,,,,,175,B,Raw,Yes
3,M,Vitaliy Merkulov,Виталий Меркулов,Amateur Open,1990-06-11,30,110,108.3,,,,,,162.5,167.5,-170,167.5,,,,,,,167.5,B,Raw,Yes
1,M,Nikolay Borisov,Николай Борисов,Amateur Juniors 20-23,1996-12-03,23,125,114.5,,,,,,145,155,160,160,,,,,,,160,B,Raw,Yes
1,M,Evgeniy Evdokimov,Евгений Евдокимов,Amateur Open,1997-11-14,23,125,121.9,,,,,,195,202.5,-207.5,202.5,,,,,,,202.5,B,Raw,Yes
1,M,Aleksey Shipilov,Алексей Шипилов,Pro Teen 16-17,2003-07-02,17,67.5,62,,,,,,50,55,-62.5,55,,,,,,,55,B,Raw,No
1,M,Igor Akatov,Игорь Акатов,Pro Masters 60-64,1960-11-02,60,82.5,82.4,,,,,,100,107.5,-110,107.5,,,,,,,107.5,B,Raw,No
1,M,Vadim Bogomolov,Вадим Богомолов,Pro Masters 55-59,1963-12-20,56,110,106.5,,,,,,125,130,135,135,,,,,,,135,B,Raw,No
1,F,Anna Ledovskikh,Анна Ледовских,Pro Open,1989-10-17,31,60,59,-75,80,87.5,87.5,,35,40,-45,40,,90,100,110,110,,237.5,SBD,Wraps,No
1,M,Yuriy Beglov,Юрий Беглов,Pro Open,1965-05-06,55,82.5,79.1,-180,-185,190,190,,-122.5,125,,125,,230,245,,245,,560,SBD,Wraps,No
1,M,Mikhail Osipov,Михаил Осипов,Pro Open,1981-06-17,39,90,89.9,195,-205,-205,195,,130,137.5,142.5,142.5,,230,240,250,250,,587.5,SBD,Wraps,No
1,M,Igor Konykhov,Игорь Коныхов,Pro Open,1970-12-20,49,100,99.9,205,-210,210,210,,140,150,155,155,,260,-280,,260,,625,SBD,Wraps,No
1,M,Igor Konykhov,Игорь Коныхов,Pro Masters 45-49,1970-12-20,49,100,99.9,205,-210,210,210,,140,150,155,155,,260,-280,,260,,625,SBD,Wraps,No
1,F,Elina Ismailova,Элина Исмаилова,Amateur Teen 18-19,2002-01-31,18,56,56,-70,75,80,80,,35,40,-45,40,,80,85,-90,85,,205,SBD,Wraps,Yes
1,F,Ekaterina Karpova,Екатерина Карпова,Amateur Open,1987-03-13,33,60,59.9,100,105,,105,,50,52.5,,52.5,,110,120,,120,,277.5,SBD,Wraps,Yes
1,M,Kirill Tishkin,Кирилл Тишкин,Amateur Teen 13,2008-07-25,12,56,52.2,45,-52.5,52.5,52.5,,30,35,-42.5,35,,50,55,60,60,,147.5,SBD,Wraps,Yes
1,M,Vitaliy Kireev,Виталий Киреев,Amateur Teen 13,2007-04-12,13,82.5,81.1,55,-62.5,70,70,,35,45,47.5,47.5,,65,75,-87.5,75,,192.5,SBD,Wraps,Yes
1,M,Stanislav Shklyar,Станислав Шкляр,Amateur Teen 16-17,2003-04-21,17,82.5,82.5,100,110,-117.5,110,,65,70,75,75,,115,120,-125,120,,305,SBD,Wraps,Yes
1,M,Roman Shevchenko,Роман Шевченко,Amateur Masters 40-44,1977-10-18,43,82.5,79,115,120,125,125,,100,105,110,110,,175,180,185,185,,420,SBD,Wraps,Yes
1,M,Dmitriy Voronkovskiy,Дмитрий Воронковский,Amateur Open,1996-01-24,24,90,87.5,155,165,,165,,-115,122.5,127.5,127.5,,145,152.5,160,160,,452.5,SBD,Wraps,Yes
1,M,Kirill Yakovlev,Кирилл Яковлев,Amateur Teen 14-15,2006-10-03,14,100,96,-100,105,112.5,112.5,,60,67.5,72.5,72.5,,110,120,127.5,127.5,,312.5,SBD,Wraps,Yes
1,M,Amerkhan Yaryzhev,Амерхан Ярыжев,Amateur Masters 40-44,1979-01-22,41,100,93,200,210,-215,210,,165,-170,,165,,220,230,,230,,605,SBD,Wraps,Yes
1,M,Valeriy Manakov,Валерий Манаков,Amateur Open,1995-06-09,25,110,106,170,180,-185,180,,132.5,-135,,132.5,,200,210,215,215,,527.5,SBD,Wraps,Yes
1,M,Artem Anishchenko,Артем Анищенко,Amateur Teen 13,2007-11-27,12,56,55,70,75,77.5,77.5,,47.5,50,-52.5,50,,85,90,95,95,,222.5,SBD,Unlimited,Yes
