Place,Sex,Name,CyrillicName,BodyweightKg,Squat1Kg,Squat2Kg,Squat3Kg,Best3SquatKg,Squat4Kg,Bench1Kg,Bench2Kg,Bench3Kg,Best3BenchKg,Bench4Kg,Deadlift1Kg,Deadlift2Kg,Deadlift3Kg,Best3DeadliftKg,Deadlift4Kg,TotalKg,WeightClassKg,Event,Equipment,Tested,Division,Age,BirthDate
1,F,Yuliya Anishchenkova,Юлия Анищенкова,47.1,50,-55,55,55,,40,-42.5,-45,40,,85,95,100,100,,195,48,SBD,Raw,Yes,Amateur Open,37,1983-11-01
1,F,Elena Dokudovskaya,Елена Докудовская,56,90,-100,-100,90,,45,50,52.5,52.5,,120,127.5,-135,127.5,,270,56,SBD,Raw,Yes,Amateur Open,39,1981-12-25
1,F,Tatyana Akimova,Татьяна Акимова,59.6,120,127.5,130,130,,67.5,-72.5,-72.5,67.5,,130,140,-147.5,140,,337.5,60,SBD,Raw,Yes,Amateur Open,40,1981-01-11
DQ,F,Svetlana Denshchikova,Светлана Денщикова,57.8,-90,-105,-105,,,,,,,,,,,,,,60,SBD,Raw,Yes,Amateur Open,35,1985-05-31
DQ,F,Anfisa Safronova,Анфиса Сафронова,65.3,-110,-110,-110,,,,,,,,,,,,,,67.5,SBD,Raw,Yes,Amateur Open,20,2001-01-10
1,M,Dmitriy Sheykin,Дмитрий Шейкин,54,110,120,-127.5,120,,90,-97.5,-97.5,90,,150,165,-170,165,,375,56,SBD,Raw,Yes,Amateur Open,22,1999-05-24
1,M,Andrey Velichko,Андрей Величко,79.1,110,120,127.5,127.5,,-77.5,77.5,82.5,82.5,,115,125,135,135,,345,82.5,SBD,Raw,Yes,Amateur Open,32,1988-08-31
1,M,Yuriy Kravchenko #6,Юрий Кравченко,112.7,-235,235,240,240,,125,-130,-130,125,,235,240,250,250,,615,125,SBD,Raw,Yes,Amateur Open,28,1993-03-04
1,M,Ivan Cherednichenko #1,Иван Чередниченко,80.8,170,180,190,190,,135,150,-155,150,,200,220,-237.5,220,,560,82.5,SBD,Raw,No,Pro Open,25,1995-09-11
1,M,Aleksandr Sadchikov,Александр Садчиков,87.3,180,-200,200,200,,140,-145,,140,,200,215,225,225,,565,90,SBD,Raw,No,Pro Open,33,1987-06-20
1,M,Aleksey Blagodyrev,Алексей Благодырев,99.5,235,247.5,255,255,,175,185,192.5,192.5,,272.5,282.5,292.5,292.5,,740,100,SBD,Raw,No,Pro Open,29,1991-07-03
2,M,Konstantin Lozychenko,Константин Лозыченко,96.6,195,205,210,210,,155,-160,,155,,230,240,,240,,605,100,SBD,Raw,No,Pro Open,49,1972-01-11
1,M,Pavel Chukhnov,Павел Чухнов,116.5,310,325,335,335,,190,195,197.5,197.5,,290,300,305,305,,837.5,125,SBD,Raw,No,Pro Open,32,1989-03-05
2,M,Andrey Tumanov,Андрей Туманов,112.2,250,265,275,275,,130,145,,145,,250,270,-280,270,,690,125,SBD,Raw,No,Pro Open,26,1995-04-02
1,M,Sergey Yarmushev,Сергей Ярмушев,89.8,210,220,230,230,,125,130,135,135,,190,200,210,210,,575,90,SBD,Wraps,Yes,Amateur Open,28,1992-06-20
1,M,Babken Martirosyan,Бабкен Мартиросян,69.6,,,,,,60,67.5,72.5,72.5,,120,-127.5,130,130,,202.5,75,BD,Raw,Yes,Amateur Open,24,1997-02-20
1,M,Aleksey Maevskiy,Алексей Маевский,109.1,,,,,,190,202.5,210,210,,280,300,310,310,,520,110,BD,Raw,No,Pro Open,29,1991-10-30
1,F,Yuliya Anishchenkova,Юлия Анищенкова,47.1,,,,,,40,-42.5,-45,40,,,,,,,40,48,B,Raw,Yes,Amateur Open,37,1983-11-01
1,F,Veronika Tyurina,Вероника Тюрина,50.5,,,,,,45,-50,-50,45,,,,,,,45,52,B,Raw,Yes,Amateur Open,20,2001-02-22
1,F,Lyudmila Getmanova,Людмила Гетьманова,65.6,,,,,,70,-75,-75,70,,,,,,,70,67.5,B,Raw,Yes,Amateur Open,33,1988-03-26
2,F,Anfisa Safronova,Анфиса Сафронова,65.3,,,,,,50,55,-60,55,,,,,,,55,67.5,B,Raw,Yes,Amateur Open,20,2001-01-10
1,M,Dmitriy Sheykin,Дмитрий Шейкин,54,,,,,,90,-97.5,-97.5,90,,,,,,,90,56,B,Raw,Yes,Amateur Open,22,1999-05-24
1,M,Nikita Lyulkin,Никита Люлькин,61.7,,,,,,50,55,62.5,62.5,,,,,,,62.5,67.5,B,Raw,Yes,Amateur Teen 14-16,15,2006-03-14
1,M,Artur Antonyan,Артур Антонян,67.1,,,,,,120,125,-130,125,,,,,,,125,67.5,B,Raw,Yes,Amateur Open,30,1991-01-13
1,M,Vitaliy Tkachyov,Виталий Ткачёв,63.3,,,,,,95,100,102.5,102.5,,,,,,,102.5,67.5,B,Raw,Yes,Amateur Masters 40-49,41,1980-03-07
1,M,Dmitriy Sindeev,Дмитрий Синдеев,74.6,,,,,,-110,120,-125,120,,,,,,,120,75,B,Raw,Yes,Amateur Juniors 20-23,21,2000-02-11
1,M,Aleksandr Goncharov,Александр Гончаров,80.6,,,,,,130,-137.5,-137.5,130,,,,,,,130,82.5,B,Raw,Yes,Amateur Open,35,1985-06-03
2,M,Anton Tarasov,Антон Тарасов,80.6,,,,,,-120,-125,127.5,127.5,,,,,,,127.5,82.5,B,Raw,Yes,Amateur Open,30,1990-06-28
1,M,Sergey Tyshchenko,Сергей Тыщенко,81.4,,,,,,115,-120,-120,115,,,,,,,115,82.5,B,Raw,Yes,Amateur Masters 40-49,44,1976-10-07
1,M,Daniil Anishchenko,Даниил Анищенко,84,,,,,,130,137.5,-140,137.5,,,,,,,137.5,90,B,Raw,Yes,Amateur Juniors 20-23,20,2000-06-06
1,M,Aleksandr Dmitrienko,Александр Дмитриенко,88.4,,,,,,165,170,175,175,,,,,,,175,90,B,Raw,Yes,Amateur Open,30,1990-10-05
DQ,M,Nikolay Smorchkov,Николай Сморчков,89.4,,,,,,-140,-140,-140,,,,,,,,,90,B,Raw,Yes,Amateur Open,33,1987-08-04
DQ,M,Sergey Kordub,Сергей Кордуб,97.8,,,,,,-140,-140,-140,,,,,,,,,100,B,Raw,Yes,Amateur Open,34,1987-01-27
1,M,Maksim Gundikov,Максим Гундиков,95.9,,,,,,135,140,145,145,,,,,,,145,100,B,Raw,Yes,Amateur Masters 40-49,44,1976-06-14
1,M,Dmitriy Kuznetsov,Дмитрий Кузнецов,106.9,,,,,,165,167.5,170,170,,,,,,,170,110,B,Raw,Yes,Amateur Open,29,1992-03-13
2,M,Anton Baranov,Антон Баранов,108.8,,,,,,-155,155,-160,155,,,,,,,155,110,B,Raw,Yes,Amateur Open,35,1986-01-12
1,M,Pavel Tyshchenko,Павел Тыщенко,55.1,,,,,,45,-50,-50,45,,,,,,,45,56,B,Raw,No,Youth,11,2009-10-13
1,M,Ivan Cherednichenko #1,Иван Чередниченко,80.8,,,,,,135,150,-155,150,,,,,,,150,82.5,B,Raw,No,Pro Open,25,1995-09-11
1,M,David Amazyan,Давид Амазян,85.9,,,,,,140,147.5,152.5,152.5,,,,,,,152.5,90,B,Raw,No,Pro Open,32,1988-09-01
DQ,M,Artem Gadyshev,Артем Гадышев,83,,,,,,-150,-150,-150,,,,,,,,,90,B,Raw,No,Pro Open,31,1989-09-07
1,M,Aleksandr Shmadchenko,Александр Шмадченко,96.8,,,,,,-170,170,175,175,,,,,,,175,100,B,Raw,No,Pro Open,34,1986-12-26
2,M,Maksim Mishura,Максим Мишура,91.6,,,,,,150,157.5,162.5,162.5,,,,,,,162.5,100,B,Raw,No,Pro Open,33,1987-08-13
3,M,Evgeniy Nikolaev,Евгений Николаев,94.4,,,,,,140,150,157.5,157.5,,,,,,,157.5,100,B,Raw,No,Pro Open,36,1985-02-09
DQ,M,Aleksandr Yakovlev,Александр Яковлев,100,,,,,,-150,-150,-150,,,,,,,,,100,B,Raw,No,Pro Masters 40-49,42,1978-07-13
1,M,Vladimir Borshchev,Владимир Борщев,93,,,,,,155,160,162.5,162.5,,,,,,,162.5,100,B,Raw,No,Pro Masters 50-59,51,1969-12-11
1,M,Yuriy Kharitonov,Юрий Харитонов,108.5,,,,,,190,200,-202.5,200,,,,,,,200,110,B,Raw,No,Pro Open,39,1982-03-08
2,M,Pavel Gavrilenko,Павел Гавриленко,108.4,,,,,,162.5,170,-172.5,170,,,,,,,170,110,B,Raw,No,Pro Open,37,1983-10-27
1,M,Evgeniy Teplyakov,Евгений Тепляков,116,,,,,,170,175,-180,175,,,,,,,175,125,B,Raw,No,Pro Open,52,1968-09-01
1,M,Evgeniy Teplyakov,Евгений Тепляков,116,,,,,,170,175,-180,175,,,,,,,175,125,B,Raw,No,Pro Masters 50-59,52,1968-09-01
1,M,Aleksandr Shmadchenko,Александр Шмадченко,96.8,,,,,,220,237.5,240,240,,,,,,,240,100,B,Unlimited,No,Pro Open,34,1986-12-26
1,F,Anna Brovko,Анна Бровко,58.8,,,,,,,,,,,72.5,-80,80,80,,80,60,D,Raw,Yes,Amateur Open,31,1990-02-02
1,F,Anfisa Safronova,Анфиса Сафронова,65.3,,,,,,,,,,,122.5,-130,-130,122.5,,122.5,67.5,D,Raw,Yes,Amateur Open,20,2001-01-10
1,F,Nadezhda Sedova,Надежда Седова,66.6,,,,,,,,,,,-110,110,-117.5,110,,110,67.5,D,Raw,Yes,Amateur Masters 40-49,45,1976-05-14
1,M,Dmitriy Sheykin,Дмитрий Шейкин,54,,,,,,,,,,,150,165,-170,165,,165,56,D,Raw,Yes,Amateur Open,22,1999-05-24
1,M,Aleksandr Lomanov,Александр Ломанов,77.6,,,,,,,,,,,170,-190,-195,170,,170,82.5,D,Raw,Yes,Amateur Open,35,1985-09-18
2,M,Andrey Velichko,Андрей Величко,79.1,,,,,,,,,,,115,125,135,135,,135,82.5,D,Raw,Yes,Amateur Open,32,1988-08-31
1,M,Yuriy Kravchenko #6,Юрий Кравченко,112.7,,,,,,,,,,,235,240,250,250,,250,125,D,Raw,Yes,Amateur Open,28,1993-03-04
1,F,Valentina Brykalina,Валентина Брыкалина,57.5,,,,,,,,,,,120,127.5,132.5,132.5,,132.5,60,D,Raw,No,Pro Open,25,1996-04-12
1,M,Ivan Cherednichenko #1,Иван Чередниченко,80.8,,,,,,,,,,,200,220,-237.5,220,,220,82.5,D,Raw,No,Pro Open,25,1995-09-11
1,M,Aleksandr Cherednichenko,Александр Чередниченко,89.9,,,,,,,,,,,280,-295,295,295,,295,90,D,Raw,No,Pro Open,30,1991-02-04
1,M,Igor Vorobev,Игорь Воробьев,96.7,,,,,,,,,,,320,340,-355,340,,340,100,D,Raw,No,Pro Open,26,1994-06-18
1,M,Sergey Nikolenko,Сергей Николенко,105.7,,,,,,,,,,,200,225,-250,225,,225,110,D,Raw,No,Pro Open,39,1982-01-07
1,M,Andrey Tumanov,Андрей Туманов,112.2,,,,,,,,,,,250,270,-280,270,,270,125,D,Raw,No,Pro Open,26,1995-04-02
