Division,WeightClassKg,Place,Name,Team,BodyweightKg,Best3SquatKg,Best3BenchKg,Best3DeadliftKg,TotalKg,Equipment,Event,Sex,BirthDate
Boys,51.71,1,Cristian Orona,Victoria East,51.62,158.76,86.18,179.17,424.11,Single-ply,SBD,M,
Boys,51.71,2,Alex Le,Palacios,48.53,111.13,74.84,120.2,306.17,Single-ply,SBD,M,
Boys,51.71,3,Max Wickens,Sealy,43.09,72.57,43.09,79.38,195.04,Single-ply,SBD,M,
Boys,51.71,4,James Arrington,Boling,51.71,58.97,43.09,77.11,179.17,Single-ply,SBD,M,
Boys,51.71,DQ,Kyle Sanchez,Boling,51.71,,,,,Single-ply,SBD,M,
Boys,51.71,DQ,Bishop Whitt,Cuero,51.17,,,,,Single-ply,SBD,M,
Boys,51.71,DQ,Noah Jones #2,Edna,51.71,,,,,Single-ply,SBD,M,
Boys,55.79,1,Rudy Becerra,Boling,55.79,156.49,90.72,145.15,392.36,Single-ply,SBD,M,
Boys,55.79,2,Damian Garza,Van Vleck,55.79,154.22,86.18,145.15,385.55,Single-ply,SBD,M,
Boys,55.79,3,Gieovanni Viellda,Edna,55.79,102.06,63.5,127.01,292.57,Single-ply,SBD,M,
Boys,55.79,4,Juan Perez #3,Sealy,53.16,97.52,56.7,124.74,278.96,Single-ply,SBD,M,
Boys,55.79,5,Karson Van Pelt,Vanderbilt Industrial,55.79,88.45,61.23,106.59,256.28,Single-ply,SBD,M,
Boys,55.79,DQ,Damon Rosales,Kenedy,55.79,,,,,Single-ply,SBD,M,
Boys,59.87,1,Jeremiah Zelaya,Victoria East,59.78,210.92,122.47,217.72,551.11,Single-ply,SBD,M,
Boys,59.87,2,Ryan Garcia,Cuero,56.52,192.78,111.13,183.7,487.61,Single-ply,SBD,M,
Boys,59.87,3,Miguel Sanchez,Palacios,59.69,183.7,92.99,188.24,464.93,Single-ply,SBD,M,
Boys,59.87,4,Reagan Villareal,Kenedy,59.87,165.56,81.65,170.1,417.3,Single-ply,SBD,M,
Boys,59.87,5,Dyaln Thaxton,Sealy,59.15,147.42,86.18,163.29,396.89,Single-ply,SBD,M,
Boys,59.87,6,Ian Chreene,Vanderbilt Industrial,58.6,117.93,77.11,147.42,342.46,Single-ply,SBD,M,
Boys,59.87,7,Jason Carmona,Victoria East,59.33,127.01,68.04,133.81,328.85,Single-ply,SBD,M,
Boys,59.87,8,Thomas Garcia,Palacios,59.69,106.59,74.84,136.08,317.51,Single-ply,SBD,M,
Boys,59.87,DQ,John Lopez,Edna,56.7,120.2,65.77,142.88,,Single-ply,SBD,M,
Boys,59.87,DQ,Daniel Hughston,Cuero,57.7,,,,,Single-ply,SBD,M,
Boys,59.87,DQ,Stade Yount,Louise,59.87,113.4,,,,Single-ply,SBD,M,
Boys,59.87,DQ,Blayke Yeager,Louise,59.87,129.27,,,,Single-ply,SBD,M,
Boys,59.87,DQ,Alerique Medrano,Boling,59.87,,,,,Single-ply,SBD,M,
Boys,67.13,1,Kevin Manning,Boling,67.13,244.94,131.54,204.12,580.6,Single-ply,SBD,M,
Boys,67.13,2,Adrian Valdez,Goliad,60.69,142.88,95.25,174.63,412.77,Single-ply,SBD,M,
Boys,67.13,3,Harris Green-Moran,Flatonia,63.32,165.56,83.91,161.03,410.5,Single-ply,SBD,M,
Boys,67.13,4,Lucas Deboard,Cuero,65.86,149.69,86.18,145.15,381.02,Single-ply,SBD,M,
Boys,67.13,5,Bryce Duke,Palacios,66.77,129.27,83.91,165.56,378.75,Single-ply,SBD,M,
Boys,67.13,6,John Sample,Edna,67.13,124.74,77.11,138.35,340.19,Single-ply,SBD,M,
Boys,67.13,7,Eryc Oliver,Louise,67.13,113.4,68.04,147.42,328.85,Single-ply,SBD,M,
Boys,67.13,8,Kadin Nunez,Bay City,66.59,120.2,63.5,142.88,326.59,Single-ply,SBD,M,
Boys,67.13,9,Ross Hough,Boling,67.13,108.86,70.31,122.47,301.64,Single-ply,SBD,M,
Boys,67.13,10,Chance McRae,Palacios,64.05,92.99,65.77,129.27,288.03,Single-ply,SBD,M,
Boys,67.13,11,Jacob Nguyen,Palacios,62.96,97.52,54.43,120.2,272.16,Single-ply,SBD,M,
Boys,67.13,DQ,Vincent Rodriguez,Vanderbilt Industrial,65.41,,,,,Single-ply,SBD,M,
Boys,67.13,DQ,Carlos Olmedo,Boling,67.13,,,,,Single-ply,SBD,M,
Boys,67.13,DQ,Chris Ortiz,Louise,67.13,,,,,Single-ply,SBD,M,
Boys,74.84,1,Moises Amaro,Palacios,67.77,242.67,158.76,206.38,607.81,Single-ply,SBD,M,
Boys,74.84,2,Alvin Amador,Kenedy,74.21,192.78,108.86,201.85,503.49,Single-ply,SBD,M,
Boys,74.84,3,Joseph Valdez,Kenedy,71.03,174.63,92.99,179.17,446.79,Single-ply,SBD,M,
Boys,74.84,4,Leo Casique,Sealy,74.03,129.27,102.06,174.63,405.97,Single-ply,SBD,M,
Boys,74.84,5,Jesse Cornish,Vanderbilt Industrial,73.03,154.22,90.72,140.61,385.55,Single-ply,SBD,M,
Boys,74.84,6,Ricardo Olivares,Flatonia,74.84,147.42,90.72,147.42,385.55,Single-ply,SBD,M,
Boys,74.84,7,Sean Burks,Cuero,72.67,142.88,81.65,142.88,367.41,Single-ply,SBD,M,
Boys,74.84,8,Aiden Gonzales,Flatonia,69.04,131.54,74.84,158.76,365.14,Single-ply,SBD,M,
Boys,74.84,9,Tony Aretega,Palacios,69.13,140.61,83.91,133.81,358.34,Single-ply,SBD,M,
Boys,74.84,10,Trevor Bennet,Goliad,71.58,131.54,79.38,129.27,340.19,Single-ply,SBD,M,
Boys,74.84,DQ,Jeraan Arguellez,Vanderbilt Industrial,69.58,145.15,95.25,,,Single-ply,SBD,M,
Boys,82.1,1,Tanner Coleman,Victoria St. Joseph,81.47,199.58,113.4,190.51,503.49,Single-ply,SBD,M,
Boys,82.1,2,Adrian Flores,Kenedy,80.01,183.7,97.52,190.51,471.74,Single-ply,SBD,M,
Boys,82.1,3,George De Los Santos,Kenedy,81.74,183.7,106.59,176.9,467.2,Single-ply,SBD,M,
Boys,82.1,4,Jesse Arrington,Boling,82.1,163.29,102.06,145.15,410.5,Single-ply,SBD,M,
Boys,82.1,5,Jonothan Monterroza,Sealy,75.48,165.56,81.65,149.69,396.89,Single-ply,SBD,M,
Boys,82.1,6,Dalton Bohannon,Edna,82.1,136.08,83.91,158.76,378.75,Single-ply,SBD,M,
Boys,82.1,7,Thomas Lopez,Victoria St. Joseph,77.84,124.74,68.04,151.95,344.73,Single-ply,SBD,M,
Boys,82.1,8,Roy Arrambide,Louise,79.38,115.67,65.77,113.4,294.84,Single-ply,SBD,M,
Boys,82.1,DQ,Jackson Osborne,Sealy,79.29,,,,,Single-ply,SBD,M,
Boys,82.1,DQ,Derek Luna,Louise,82.1,176.9,,,,Single-ply,SBD,M,
Boys,82.1,DQ,Kalen Malandrakis,Cuero,75.57,,,,,Single-ply,SBD,M,
Boys,89.81,1,Fernando Cortez,Edna,89.81,192.78,99.79,192.78,485.34,Single-ply,SBD,M,
Boys,89.81,2,Xavier Perez #1,Palacios,88.99,174.63,106.59,179.17,460.4,Single-ply,SBD,M,
Boys,89.81,3,Dreydan Ashford,Edna,89.81,163.29,104.33,188.24,455.86,Single-ply,SBD,M,
Boys,89.81,4,Stefon Plotini,Edna,89.81,170.1,106.59,165.56,442.25,Single-ply,SBD,M,
Boys,89.81,5,Arthur Barrera,Cuero,86.73,165.56,102.06,142.88,410.5,Single-ply,SBD,M,
Boys,89.81,6,Chris Garcia #12,Palacios,88.54,165.56,92.99,136.08,394.63,Single-ply,SBD,M,
Boys,89.81,7,Glen Ihde,Bay City,85.37,131.54,77.11,154.22,362.87,Single-ply,SBD,M,
Boys,89.81,8,Jose Arriaga,Sealy,86.91,133.81,81.65,147.42,362.87,Single-ply,SBD,M,
Boys,89.81,9,Matthew Mlcak,Sealy,84.28,108.86,77.11,138.35,324.32,Single-ply,SBD,M,
Boys,99.79,1,Clayton Klekar,Goliad,98.88,226.8,133.81,249.48,610.08,Single-ply,SBD,M,
Boys,99.79,2,Josh Figueroa,Van Vleck,96.43,215.46,127.01,197.31,539.77,Single-ply,SBD,M,
Boys,99.79,3,Eric Garza,Edna,99.79,190.51,129.27,165.56,485.34,Single-ply,SBD,M,
Boys,99.79,4,Eric Burns,Sealy,96.8,172.37,113.4,192.78,478.54,Single-ply,SBD,M,
Boys,99.79,5,Peyton Gonzales,Edna,99.79,174.63,99.79,179.17,453.59,Single-ply,SBD,M,
Boys,99.79,6,Jaden Galvan,Victoria East,92.71,165.56,83.91,199.58,449.06,Single-ply,SBD,M,
Boys,99.79,7,Hayden Land,Victoria St. Joseph,99.79,151.95,90.72,172.37,415.04,Single-ply,SBD,M,
Boys,99.79,8,Kayden Collins,Goliad,95.8,145.15,83.91,136.08,365.14,Single-ply,SBD,M,
Boys,99.79,9,Logan Jones,Van Vleck,99.61,142.88,63.5,158.76,365.14,Single-ply,SBD,M,
Boys,99.79,DQ,Ethan Johnson #1,Sealy,91.63,136.08,52.16,170.1,,Single-ply,SBD,M,
Boys,99.79,DQ,Bradley Crabbs,Sealy,99.79,90.72,43.09,140.61,,Single-ply,SBD,M,
Boys,99.79,DQ,Ethan Resendez,Louise,90.36,,,,,Single-ply,SBD,M,
Boys,99.79,DQ,Kyle Weghorst,Cuero,96.25,,,,,Single-ply,SBD,M,
Boys,99.79,DQ,Alex Gonsalez,Kenedy,97.61,,,,,Single-ply,SBD,M,
Boys,99.79,DQ,Nando Vargas,Kenedy,96.34,,,,,Single-ply,SBD,M,
Boys,109.77,1,Tristan Bermea,Vanderbilt Industrial,109.77,254.01,158.76,224.53,637.3,Single-ply,SBD,M,
Boys,109.77,2,Trent Reyes,Boling,109.77,247.21,129.27,204.12,580.6,Single-ply,SBD,M,
Boys,109.77,3,Nate Beck,Victoria St. Joseph,109.32,213.19,129.27,208.65,551.11,Single-ply,SBD,M,
Boys,109.77,4,Caleb Smith,Cuero,102.06,233.6,136.08,176.9,546.58,Single-ply,SBD,M,
Boys,109.77,5,Andres Bermudez,Bay City,103.6,131.54,81.65,122.47,335.66,Single-ply,SBD,M,
Boys,109.77,6,Zarek Guerra,Goliad,108.5,124.74,83.91,117.93,326.59,Single-ply,SBD,M,
Boys,109.77,DQ,Yahir Alvarez,Sealy,102.51,172.37,111.13,,,Single-ply,SBD,M,
Boys,109.77,DQ,Daniel Gaona III,Louise,109.77,183.7,124.74,,,Single-ply,SBD,M,
Boys,109.77,DQ,Jerry Richards,Boling,107.5,199.58,117.93,,,Single-ply,SBD,M,
Boys,124.74,1,Joseph Luna,Kenedy,122.38,192.78,120.2,197.31,510.29,Single-ply,SBD,M,
Boys,124.74,2,Wyatt Gobert,Van Vleck,121.02,188.24,124.74,195.04,508.02,Single-ply,SBD,M,
Boys,124.74,3,Deionte Cooper,Sealy,116.85,172.37,129.27,192.78,494.42,Single-ply,SBD,M,
Boys,124.74,4,Logan MacLennan,Bay City,117.66,183.7,111.13,188.24,483.08,Single-ply,SBD,M,
Boys,124.74,5,Thomas Meador,Cuero,121.74,183.7,113.4,172.37,469.47,Single-ply,SBD,M,
Boys,124.74,6,Macario Martinez,Victoria East,113.04,170.1,108.86,176.9,455.86,Single-ply,SBD,M,
Boys,124.74,7,Isaac Allen,Bay City,120.11,149.69,102.06,170.1,421.84,Single-ply,SBD,M,
Boys,124.74,DQ,Chris Vasquez,Louise,124.74,,,,,Single-ply,SBD,M,
Boys,124.74,DQ,Ethan Carr,Palacios,122.38,,,,,Single-ply,SBD,M,
Boys,124.74,DQ,Andre Brady,Edna,124.74,,,,,Single-ply,SBD,M,
Boys,124.74,DQ,Cooper Kliem,Victoria East,115.76,,,,,Single-ply,SBD,M,
Boys,124.74,DQ,Jaydin Jones,Goliad,122.15,165.56,124.74,,,Single-ply,SBD,M,
Boys,124.74,DQ,Jace Kitchens,Vanderbilt Industrial,111.58,,,,,Single-ply,SBD,M,
Boys,124.74+,1,Patrick Perkins,Van Vleck,173.54,192.78,151.95,208.65,553.38,Single-ply,SBD,M,
Boys,124.74+,2,Jonas DeLeon,Cuero,151.68,204.12,145.15,172.37,521.63,Single-ply,SBD,M,
Boys,124.74+,3,Jacob Guerrero,Goliad,134.72,215.46,117.93,183.7,517.1,Single-ply,SBD,M,
Boys,124.74+,4,Pablo Almeda,Edna,124.78,176.9,95.25,174.63,446.79,Single-ply,SBD,M,
Boys,124.74+,DQ,Taden Alvarado,Flatonia,144.33,,,,,Single-ply,SBD,M,
Boys,124.74+,DQ,Walker Wimberly,Goliad,133.81,183.7,129.27,,,Single-ply,SBD,M,
